\relax 
\providecommand\hyper@newdestlabel[2]{}
\providecommand\HyperFirstAtBeginDocument{\AtBeginDocument}
\HyperFirstAtBeginDocument{\ifx\hyper@anchor\@undefined
\global\let\oldcontentsline\contentsline
\gdef\contentsline#1#2#3#4{\oldcontentsline{#1}{#2}{#3}}
\global\let\oldnewlabel\newlabel
\gdef\newlabel#1#2{\newlabelxx{#1}#2}
\gdef\newlabelxx#1#2#3#4#5#6{\oldnewlabel{#1}{{#2}{#3}}}
\AtEndDocument{\ifx\hyper@anchor\@undefined
\let\contentsline\oldcontentsline
\let\newlabel\oldnewlabel
\fi}
\fi}
\global\let\hyper@last\relax 
\gdef\HyperFirstAtBeginDocument#1{#1}
\providecommand\HyField@AuxAddToFields[1]{}
\providecommand\HyField@AuxAddToCoFields[2]{}
\providecommand \oddpage@label [2]{}
\@writefile{toc}{\contentsline {section}{\numberline {1}Analyse Star Scores And Compare}{1}{section.1}}
\newlabel{analyse-star-scores-and-compare}{{1}{1}{Analyse Star Scores And Compare}{section.1}{}}
\@writefile{toc}{\contentsline {subsection}{\numberline {1.1}Why did we try a GDT like scoring scheme?}{2}{subsection.1.1}}
\newlabel{why-did-we-try-a-gdt-like-scoring-scheme}{{1.1}{2}{Why did we try a GDT like scoring scheme?}{subsection.1.1}{}}
\@writefile{toc}{\contentsline {subsection}{\numberline {1.2}Read in the scores}{2}{subsection.1.2}}
\newlabel{read-in-the-scores}{{1.2}{2}{Read in the scores}{subsection.1.2}{}}
\@writefile{toc}{\contentsline {subsection}{\numberline {1.3}Read obsolete to successor mapping}{4}{subsection.1.3}}
\newlabel{read-obsolete-to-successor-mapping}{{1.3}{4}{Read obsolete to successor mapping}{subsection.1.3}{}}
\@writefile{toc}{\contentsline {subsection}{\numberline {1.4}Parse scores of stars with intact composition}{5}{subsection.1.4}}
\newlabel{parse-scores-of-stars-with-intact-composition}{{1.4}{5}{Parse scores of stars with intact composition}{subsection.1.4}{}}
\@writefile{toc}{\contentsline {subsection}{\numberline {1.5}Analyse the scores}{6}{subsection.1.5}}
\newlabel{analyse-the-scores}{{1.5}{6}{Analyse the scores}{subsection.1.5}{}}
