pred	succ	p-cen	s-cen	p_q-score	p_s-score	s_q-score	s_s-score
1b7c	1c75	1	1	0.619	0.616	0.619	0.616
1b7c	1c75	2	2	0.731	0.684	0.725	0.677
1b7c	1c75	3	3	0.728	0.799	0.778	0.777
1b7c	1c75	4	4	0.764	0.904	0.765	0.904
1b7c	1c75	5	5	0.818	0.8	0.818	0.8
1b7c	1c75	6	6	0.016	0.028	0.006	0.021
1b7c	1c75	7	7	0.455	0.433	0.467	0.444
1b7c	1c75	8	8	0.257	0.267	0.286	0.291
1b7c	1c75	9	9	0.61	0.673	0.654	0.675
1b7c	1c75	10	10	0.765	0.8	0.764	0.794
1b7c	1c75	11	11	0.635	0.654	0.59	0.597
1b7c	1c75	12	12	0.783	0.745	0.784	0.745
1b7c	1c75	13	13	0.436	0.389	0.441	0.431
1b7c	1c75	14	14	0.721	0.699	0.72	0.699
1b7c	1c75	15	15	0.809	0.782	0.789	0.772
1b7c	1c75	16	16	0.209	0.249	0.298	0.322
1b7c	1c75	17	17	0.0	0.0	0.0	0.0
1b7c	1c75	19	19	0.843	0.785	0.828	0.809
1b7c	1c75	20	20	0.352	0.399	0.293	0.283
1b7c	1c75	21	21	0.38	0.35	0.391	0.289
1b7c	1c75	22	22	0.281	0.338	0.304	0.327
1b7c	1c75	23	23	0.639	0.605	0.523	0.529
1b7c	1c75	24	24	0.146	0.136	0.137	0.113
1b7c	1c75	25	25	0.0	0.0	0.0	0.0
1b7c	1c75	26	26	0.058	0.103	0.045	0.064
1b7c	1c75	27	27	0.402	0.386	0.36	0.412
1b7c	1c75	28	28	0.413	0.399	0.479	0.424
1b7c	1c75	29	29	0.0	0.0	0.0	0.0
1b7c	1c75	30	30	0.069	0.138	0.05	0.104
1b7c	1c75	31	31	0.0	0.026	0.012	0.059
1b7c	1c75	32	32	0.761	0.67	0.742	0.622
1b7c	1c75	33	33	0.245	0.204	0.289	0.296
1b7c	1c75	34	34	0.012	0.092	0.012	0.092
1b7c	1c75	35	35	0.0	0.0	0.0	0.0
1b7c	1c75	36	36	0.518	0.561	0.466	0.501
1b7c	1c75	37	37	0.455	0.585	0.436	0.734
1b7c	1c75	38	38	0.205	0.232	0.228	0.279
1b7c	1c75	39	39	0.163	0.14	0.134	0.093
1b7c	1c75	40	40	0.429	0.312	0.384	0.372
1b7c	1c75	41	41	0.226	0.287	0.247	0.331
1b7c	1c75	42	42	0.133	0.142	0.139	0.1
1b7c	1c75	43	43	0.155	0.141	0.129	0.166
1b7c	1c75	44	44	0.425	0.259	0.439	0.282
1b7c	1c75	45	45	0.413	0.49	0.416	0.51
1b7c	1c75	46	46	0.423	0.348	0.467	0.471
1b7c	1c75	47	47	0.511	0.467	0.523	0.486
1b7c	1c75	48	48	0.555	0.545	0.514	0.512
1b7c	1c75	49	49	0.043	0.046	0.043	0.046
1b7c	1c75	50	50	0.713	0.757	0.716	0.757
1b7c	1c75	51	51	0.833	0.7	0.867	0.7
1b7c	1c75	52	52	0.757	0.743	0.757	0.743
1b7c	1c75	53	53	0.448	0.531	0.456	0.535
1b7c	1c75	54	54	0.663	0.681	0.663	0.681
1b7c	1c75	55	55	0.539	0.816	0.574	0.834
1b7c	1c75	56	56	0.63	0.609	0.674	0.657
1b7c	1c75	57	57	0.816	0.912	0.855	0.822
1b7c	1c75	58	58	0.144	0.145	0.149	0.153
1b7c	1c75	59	59	0.058	0.063	0.08	0.082
1b7c	1c75	60	60	0.66	0.719	0.597	0.695
1b7c	1c75	61	61	0.0	0.0	0.0	0.0
1b7c	1c75	62	62	0.125	0.145	0.119	0.175
1b7c	1c75	63	63	0.198	0.198	0.243	0.306
1b7c	1c75	64	64	0.148	0.179	0.145	0.154
1b7c	1c75	65	65	0.307	0.249	0.291	0.513
1b7c	1c75	66	66	0.132	0.189	0.131	0.189
1b7c	1c75	67	67	0.257	0.278	0.257	0.278
1b7c	1c75	68	68	0.043	0.042	0.041	0.033
1b7c	1c75	69	69	0.833	0.856	0.833	0.856
1b7c	1c75	70	70	0.095	0.36	0.103	0.464
1b7c	1c75	71	71	0.286	0.338	0.289	0.359
1b7c	1c75	72	72	0.552	0.585	0.523	0.673
1b7c	1c75	73	73	0.614	0.758	0.615	0.7
1b7c	1c75	74	74	0.515	0.564	0.514	0.564
1b7c	1c75	75	75	0.893	0.853	0.893	0.853
1b7c	1c75	76	76	0.83	1.0	0.83	1.0
1b7c	1c75	77	77	0.725	0.0	0.725	0.0
1b7c	1c75	78	78	0.735	0.839	0.712	0.747
1b7c	1c75	79	79	1.0	0	1.0	0
1b7c	1c75	80	80	0.194	0.159	0.206	0.3
1b7c	1c75	81	81	0.179	0.315	0.209	0.11
1b7c	1c75	82	82	0.0	0.004	0.0	0.005
1b7c	1c75	83	83	0.322	0.365	0.29	0.233
1b7c	1c75	84	84	0.298	0.29	0.301	0.345
1b7c	1c75	85	85	0.303	0.232	0.22	0.173
1b7c	1c75	86	86	0.829	0.946	0.804	0.989
1b7c	1c75	87	87	0.725	0.811	0.742	0.527
1b7c	1c75	88	88	0.223	0.342	0.234	0.088
1b7c	1c75	94	94	0.725	0.783	0.631	0.689
1b7c	1c75	95	95	1.0	0	1.0	0
1b7c	1c75	99	99	0.0	0.0	0.0	0.0
1b7c	1c75	100	100	0.787	0.825	0.806	0.83
1b7c	1c75	101	101	0.062	0.076	0.092	0.115
1b7c	1c75	102	102	0.468	0.562	0.472	0.504
1b7c	1c75	103	103	0.355	0.379	0.386	0.393
1b7c	1c75	104	104	0.725	0.77	0.756	0.878
1b7c	1c75	105	105	0.85	0.5	0.88	0.6
1b7c	1c75	106	106	0.336	0.365	0.247	0.239
1b7c	1c75	107	107	0.259	0.25	0.159	0.159
1b7c	1c75	108	108	0.0	0.0	0.0	0.0
1b7c	1c75	109	109	0.36	0.339	0.467	0.434
1b7c	1c75	110	110	0.591	0.439	0.588	0.653
1b7c	1c75	111	111	0.61	0.617	0.609	0.616
1b7c	1c75	112	112	0.342	0.337	0.31	0.288
1b7c	1c75	113	113	0.119	0.123	0.104	0.102
1b7c	1c75	114	114	0.218	0.208	0.218	0.184
1b7c	1c75	115	115	0.739	0.769	0.762	0.781
1b7c	1c75	116	116	0.095	0.117	0.122	0.107
1b7c	1c75	117	117	0.261	0.263	0.267	0.155
1b7c	1c75	118	118	0.202	0.211	0.132	0.134
1b7c	1c75	119	119	0.086	0.085	0.098	0.084
1b7c	1c75	120	120	0.302	0.274	0.314	0.333
1b7c	1c75	121	121	0.0	0.0	0.0	0.0
1b7c	1c75	122	122	0.0	0.0	0.0	0.0
1b7c	1c75	123	123	0.0	0.0	0.0	0.0
1b7c	1c75	124	124	0.0	0.047	0.0	0.021
1b7c	1c75	125	125	0.564	0.478	0.516	0.652
1b7c	1c75	126	126	0.0	0.0	0.002	0.001
1b7c	1c75	127	127	0.0	0.0	0.0	0.0
1b7c	1c75	128	128	0.0	0.0	0.0	0.0
1b7c	1c75	129	129	0.358	0.453	0.335	0.342
1b7c	1c75	130	130	0.675	0.788	0.666	0.649
1b7c	1c75	131	131	0.035	0.07	0.032	0.101
1b7c	1c75	132	132	0.0	0.0	0.0	0.0
1b7c	1c75	133	133	0.701	0.698	0.732	0.876
1b7c	1c75	134	134	0.0	0.0	0.0	0.0
1b7c	1c75	135	135	0.044	0.057	0.025	0.036
1b7c	1c75	136	136	0.157	0.169	0.089	0.1
1b7c	1c75	137	137	0.443	0.441	0.439	0.431
1b7c	1c75	138	138	0.55	0.439	0.552	0.423
1b7c	1c75	139	139	0.0	0.0	0.0	0.0
1b7c	1c75	140	140	0.0	0.0	0.0	0.0
1b7c	1c75	141	141	0.0	0.0	0.0	0.0
1b7c	1c75	142	142	0.19	0.212	0.201	0.252
1b7c	1c75	143	143	0.059	0.085	0.045	0.09
1b7c	1c75	144	144	0.024	0.028	0.015	0.014
1b7c	1c75	145	145	0.059	0.054	0.036	0.03
1b7c	1c75	146	146	0.0	0.0	0.0	0.0
1b7c	1c75	147	147	0.088	0.098	0.056	0.054
1b7c	1c75	148	148	0.402	0.456	0.418	0.471
1b7c	1c75	149	149	0.289	0.332	0.288	0.329
1b7c	1c75	150	150	0.615	0.706	0.627	0.621
1b7c	1c75	151	151	0.516	0.658	0.517	0.658
1b7c	1c75	152	152	0.704	0.785	0.671	0.752
1b7c	1c75	153	153	0.461	0.4	0.439	0.463
1b7c	1c75	154	154	0.158	0.176	0.18	0.245
1b7c	1c75	155	155	0.353	0.353	0.355	0.37
1b7c	1c75	156	156	0.089	0.139	0.119	0.188
1b7c	1c75	157	157	0.691	0.922	0.68	0.711
1b7c	1c75	158	158	0.842	0.868	0.818	0.721
1b7c	1c75	159	159	0.288	0.314	0.288	0.314
1b7c	1c75	160	160	0.202	0.13	0.203	0.135
1b7c	1c75	161	161	0.703	0.832	0.705	0.832
1b7c	1c75	162	162	0.66	0.572	0.647	0.656
1b7c	1c75	163	163	0.781	0.776	0.781	0.776
1b7c	1c75	164	164	0.844	0.755	0.832	0.752
1b7c	1c75	165	165	0.661	0.601	0.642	0.652
1b7c	1c75	166	166	0.333	0.244	0.376	0.298
1b7c	1c75	167	167	0.387	0.24	0.369	0.308
1b7c	1c75	168	168	0.156	0.131	0.153	0.134
1b7c	1c75	169	169	0.368	0.341	0.361	0.334
1b7c	1c75	170	170	0.83	0.794	0.829	0.794
1b7c	1c75	171	171	0.123	0.172	0.134	0.142
1b7c	1c75	172	172	0.829	0.886	0.829	0.886
1b7c	1c75	173	173	0.623	0.59	0.623	0.598
1b7c	1c75	174	174	0.097	0.18	0.057	0.061
1b7c	1c75	175	175	0.0	0.001	0.0	0.017
1b7c	1c75	176	176	0.0	0.044	0.0	0.044
1b7c	1c75	177	177	0.091	0.116	0.063	0.113
1b7c	1c75	178	178	0.0	0.025	0.018	0.009
1b7c	1c75	179	179	0.373	0.357	0.382	0.415
1b7c	1c75	180	180	0.008	0.01	0.01	0.007
1b7c	1c75	181	181	0.897	0.86	0.907	0.809
1b7c	1c75	182	182	0.114	0.101	0.087	0.092
1b7c	1c75	183	183	0.147	0.161	0.146	0.128
1b7c	1c75	184	184	0.138	0.204	0.145	0.204
1b7c	1c75	185	185	0.0	0.008	0.0	0.008
1b7c	1c75	186	186	0.847	0.847	0.867	0.844
1b7c	1c75	187	187	0.081	0.155	0.069	0.14
1b7c	1c75	188	188	0.302	0.302	0.265	0.256
1b7c	1c75	189	189	0.0	0.0	0.0	0.0
1b7c	1c75	190	190	0.021	0.069	0.042	0.06
1b7c	1c75	191	191	0.562	0.65	0.516	0.545
1b7c	1c75	192	192	0.103	0.104	0.093	0.088
1b7c	1c75	193	193	0.349	0.331	0.339	0.31
1b7c	1c75	194	194	0.074	0.08	0.072	0.076
1b7c	1c75	195	195	0.0	0.001	0.0	0.001
1b7c	1c75	196	196	0.0	0.008	0.008	0.023
1b7c	1c75	197	197	0.066	0.092	0.073	0.093
1b7c	1c75	198	198	0.55	0.492	0.543	0.558
1b7c	1c75	199	199	0.834	0.568	0.836	0.584
1b7c	1c75	200	200	0.0	0.0	0.0	0.0
1b7c	1c75	201	201	0.057	0.105	0.03	0.044
1b7c	1c75	202	202	0.0	0.0	0.0	0.0
1b7c	1c75	203	203	0.0	0.0	0.0	0.0
1b7c	1c75	204	204	0.706	0.766	0.728	0.709
1b7c	1c75	205	205	0.213	0.19	0.191	0.195
1b7c	1c75	206	206	0.0	0.0	0.0	0.0
1b7c	1c75	207	207	0.0	0.0	0.0	0.0
1b7c	1c75	208	208	0.254	0.334	0.231	0.237
1b7c	1c75	209	209	0.299	0.362	0.26	0.391
1b7c	1c75	211	211	0.266	0.284	0.257	0.266
1b7c	1c75	213	213	0.323	0.244	0.33	0.223
1b7c	1c75	214	214	0.08	0.099	0.109	0.085
1b7c	1c75	217	217	0.0	0.001	0.0	0.0
1b7c	1c75	218	218	0.0	0.001	0.0	0.008
1b7c	1c75	219	219	0.303	0.134	0.425	0.492
