pred	succ	p-cen	s-cen	p_q-score	p_s-score	s_q-score	s_s-score
1cy3	2cy3	2	2	1.0	0	1.0	0
1cy3	2cy3	5	5	0.93	0.99	0.846	0.892
1cy3	2cy3	6	6	0.942	0.717	0.738	0.887
1cy3	2cy3	10	10	0.684	0.537	0.822	0.561
1cy3	2cy3	12	12	0.652	0.718	0.673	0.701
1cy3	2cy3	13	13	0.562	0.684	0.519	0.611
1cy3	2cy3	15	15	0.687	0.549	0.564	0.492
1cy3	2cy3	17	17	0.543	0.545	0.0	0.0
1cy3	2cy3	28	28	0.302	0.417	0.212	0.31
1cy3	2cy3	55	55	0.0	0.0	0.081	0.11
1cy3	2cy3	64	64	0.019	0.042	0.042	0.06
1cy3	2cy3	66	66	0.913	0.772	0.824	0.942
1cy3	2cy3	70	70	0.889	0.765	0.309	0.332
1cy3	2cy3	77	77	0.845	0.83	0.905	0.989
1cy3	2cy3	78	78	0.557	0.425	0.37	0.4
1cy3	2cy3	81	81	0.102	0.159	0.219	0.261
1cy3	2cy3	85	85	0.139	0.134	0.246	0.231
1cy3	2cy3	86	86	0.483	0.743	0.442	0.593
1cy3	2cy3	108	108	0.739	0.854	0.721	0.715
1cy3	2cy3	111	111	0.344	0.377	0.117	0.166
1cy3	2cy3	114	114	0.092	0.034	0.0	0.0
1cy3	2cy3	116	116	0.0	0.005	0.028	0.034
1cy3	2cy3	122	122	0.407	0.279	0.341	0.525
1cy3	2cy3	124	124	0.127	0.014	0.0	0.0
1cy3	2cy3	128	128	0.496	0.504	0.0	0.0
1cy3	2cy3	136	136	0.324	0.262	0.222	0.213
1cy3	2cy3	139	139	0.167	0.062	0.11	0.135
1cy3	2cy3	142	142	0.491	0.552	0.375	0.371
1cy3	2cy3	143	143	0.406	0.459	0.0	0.0
1cy3	2cy3	145	145	0.637	0.575	0.642	0.583
1cy3	2cy3	146	146	0.312	0.299	0.406	0.422
1cy3	2cy3	147	147	0.582	0.535	0.582	0.574
1cy3	2cy3	152	152	0.385	0.257	0.553	0.506
1cy3	2cy3	153	153	0.575	0.669	0.507	0.609
1cy3	2cy3	167	167	0.065	0.005	0.0	0.0
1cy3	2cy3	176	176	0.05	0.069	0.0	0.0
1cy3	2cy3	195	195	0.441	0.517	0.109	0.102
1cy3	2cy3	214	214	0.395	0.501	0.464	0.546
1cy3	2cy3	215	215	0.16	0.25	0.05	0.064
1cy3	2cy3	237	237	0.523	0.694	0.591	0.85
1cy3	2cy3	243	243	0.589	0.772	0.488	0.372
1cy3	2cy3	256	256	0.196	0.303	0.36	0.387
1cy3	2cy3	270	270	0.465	0.62	0.269	0.429
1cy3	2cy3	298	298	0.029	0.053	0.0	0.005
1cy3	2cy3	308	308	0.207	0.197	0.29	0.331
1cy3	2cy3	338	338	0.033	0.113	0.0	0.012
1cy3	2cy3	345	345	0.091	0.065	0.151	0.28
1cy3	2cy3	346	346	0.036	0.084	0.115	0.103
1cy3	2cy3	347	347	0.06	0.056	0.067	0.123
1cy3	2cy3	348	348	0.082	0.043	0.201	0.215
1cy3	2cy3	349	349	0.076	0.165	0.182	0.3
1cy3	2cy3	374	374	0.745	0.862	0.391	0.363
1cy3	2cy3	375	375	0.085	0.089	0.151	0.166
1cy3	2cy3	377	377	0.233	0.227	0.368	0.39
1cy3	2cy3	378	378	0.321	0.335	0.385	0.397
