pred	succ	p-cen	s-cen	p_q-score	p_s-score	s_q-score	s_s-score
2phj	2wqk	1	1	1.0	0	1.0	0
2phj	2wqk	2	2	1.0	0	1.0	0
2phj	2wqk	3	3	0.323	0.328	0.323	0.327
2phj	2wqk	4	4	0.239	0.237	0.276	0.282
2phj	2wqk	5	5	0.531	0.654	0.58	0.681
2phj	2wqk	6	6	1.0	0.275	1.0	0.275
2phj	2wqk	7	7	0.822	0.687	0.86	0.781
2phj	2wqk	8	8	0.344	0.42	0.405	0.467
2phj	2wqk	9	9	0.753	0.777	0.735	0.777
2phj	2wqk	10	10	0.02	0.012	0.032	0.026
2phj	2wqk	11	11	0.0	0.018	0.0	0.003
2phj	2wqk	12	12	0.0	0.009	0.0	0.021
2phj	2wqk	13	13	0.086	0.103	0.069	0.113
2phj	2wqk	14	14	0.467	0.7	0.459	0.638
2phj	2wqk	15	15	0.0	0.0	0.0	0.0
2phj	2wqk	16	16	0.0	0.0	0.0	0.0
2phj	2wqk	17	17	0.0	0.001	0.0	0.003
2phj	2wqk	18	18	0.137	0.137	0.166	0.208
2phj	2wqk	19	19	0.194	0.43	0.196	0.203
2phj	2wqk	20	20	0.0	0.002	0.0	0.006
2phj	2wqk	21	21	0.473	0.373	0.461	0.598
2phj	2wqk	22	22	0.495	0.607	0.503	0.533
2phj	2wqk	23	23	0.494	0.497	0.477	0.636
2phj	2wqk	24	24	0.905	0.753	0.886	0.576
2phj	2wqk	25	25	0.531	0.577	0.585	0.507
2phj	2wqk	26	26	0.443	0.514	0.466	0.57
2phj	2wqk	27	27	0.249	0.251	0.243	0.275
2phj	2wqk	28	28	0.677	0.627	0.69	0.774
2phj	2wqk	29	29	0.887	0.932	0.884	0.931
2phj	2wqk	30	30	0.88	0.956	0.913	0.96
2phj	2wqk	31	31	0.886	0.977	0.876	0.977
2phj	2wqk	33	33	0.873	0.31	0.879	0.385
2phj	2wqk	34	34	0.841	0.808	0.803	0.804
2phj	2wqk	35	35	0.83	0.685	0.82	0.6
2phj	2wqk	36	36	0.546	0.47	0.485	0.584
2phj	2wqk	37	37	0.953	0.773	0.953	0.773
2phj	2wqk	38	38	0.517	0.489	0.522	0.484
2phj	2wqk	39	39	0.581	0.568	0.592	0.648
2phj	2wqk	40	40	0.8	0.967	0.8	0.967
2phj	2wqk	41	41	0.346	0.392	0.339	0.366
2phj	2wqk	43	43	0.584	0.89	0.588	0.31
2phj	2wqk	44	44	0.697	0.62	0.704	0.623
2phj	2wqk	45	45	0.847	0.636	0.848	0.637
2phj	2wqk	46	46	0.151	0.19	0.169	0.185
2phj	2wqk	47	47	0.315	0.419	0.325	0.394
2phj	2wqk	48	48	0.061	0.05	0.068	0.08
2phj	2wqk	49	49	0.751	0.811	0.727	0.9
2phj	2wqk	50	50	0.438	0.439	0.405	0.407
2phj	2wqk	51	51	0.523	0.531	0.472	0.486
2phj	2wqk	53	53	0.288	0.329	0.281	0.323
2phj	2wqk	54	54	0.0	0.003	0.006	0.003
2phj	2wqk	55	55	0.303	0.305	0.332	0.347
2phj	2wqk	56	56	0.016	0.013	0.024	0.043
2phj	2wqk	57	57	0.017	0.054	0.01	0.021
2phj	2wqk	58	58	0.0	0.0	0.0	0.0
2phj	2wqk	59	59	0.058	0.077	0.048	0.034
2phj	2wqk	60	60	0.411	0.611	0.396	0.475
2phj	2wqk	61	61	0.0	0.0	0.0	0.0
2phj	2wqk	62	62	0.039	0.098	0.05	0.067
2phj	2wqk	63	63	0.027	0.053	0.028	0.054
2phj	2wqk	64	64	1.0	0	1.0	0
2phj	2wqk	65	65	0.341	0.349	0.348	0.28
2phj	2wqk	66	66	0.107	0.07	0.078	0.055
2phj	2wqk	67	67	0.545	0.601	0.544	0.558
2phj	2wqk	68	68	0.0	0.0	0.0	0.0
2phj	2wqk	69	69	0.747	0.93	0.739	0.768
2phj	2wqk	70	70	0.514	0.589	0.59	0.661
2phj	2wqk	71	71	0.056	0.068	0.05	0.038
2phj	2wqk	72	72	0.0	0.0	0.0	0.0
2phj	2wqk	73	73	0.09	0.107	0.095	0.098
2phj	2wqk	74	74	0.128	0.161	0.087	0.135
2phj	2wqk	75	75	0.03	0.093	0.016	0.085
2phj	2wqk	76	76	0.188	0.194	0.209	0.218
2phj	2wqk	77	77	0.0	0.004	0.0	0.002
2phj	2wqk	78	78	0.0	0.0	0.0	0.0
2phj	2wqk	79	79	0.101	0.102	0.119	0.089
2phj	2wqk	80	80	0.098	0.088	0.093	0.187
2phj	2wqk	81	81	0.0	0.021	0.0	0.01
2phj	2wqk	82	82	0.203	0.198	0.232	0.251
2phj	2wqk	83	83	0.001	0.026	0.008	0.035
2phj	2wqk	84	84	0.313	0.321	0.33	0.292
2phj	2wqk	85	85	0.278	0.232	0.261	0.242
2phj	2wqk	86	86	0.0	0.0	0.0	0.0
2phj	2wqk	87	87	0.051	0.056	0.11	0.109
2phj	2wqk	88	88	0.109	0.217	0.115	0.184
2phj	2wqk	89	89	0.599	0.639	0.599	0.642
2phj	2wqk	90	90	0.797	0.497	0.825	0.728
2phj	2wqk	91	91	0.388	0.396	0.284	0.296
2phj	2wqk	92	92	0.0	0.008	0.0	0.019
2phj	2wqk	93	93	0.227	0.251	0.269	0.322
2phj	2wqk	94	94	0.792	0.748	0.703	0.695
2phj	2wqk	95	95	0.0	0.0	0.0	0.0
2phj	2wqk	96	96	0.63	0.658	0.583	0.754
2phj	2wqk	97	97	0.552	0.611	0.54	0.629
2phj	2wqk	98	98	0.38	0.383	0.346	0.548
2phj	2wqk	99	99	0.0	0.0	0.0	0.0
2phj	2wqk	100	100	0.412	0.421	0.32	0.302
2phj	2wqk	101	101	0.0	0.019	0.0	0.002
2phj	2wqk	102	102	0.094	0.129	0.077	0.095
2phj	2wqk	103	103	0.0	0.0	0.0	0.0
2phj	2wqk	104	104	0.298	0.269	0.273	0.307
2phj	2wqk	105	105	0.121	0.157	0.105	0.301
2phj	2wqk	106	106	0.285	0.342	0.312	0.307
2phj	2wqk	107	107	0.414	0.438	0.43	0.442
2phj	2wqk	108	108	0.72	0.867	0.682	0.604
2phj	2wqk	109	109	0.726	0.748	0.697	0.686
2phj	2wqk	110	110	0.622	0.613	0.577	0.701
2phj	2wqk	111	111	1.0	0	1.0	0
2phj	2wqk	112	112	0.757	0.857	0.757	0.857
2phj	2wqk	113	113	1.0	0	1.0	0
2phj	2wqk	114	114	0.686	0.406	0.632	0.454
2phj	2wqk	115	115	0.86	0.416	0.844	0.428
2phj	2wqk	116	116	0.705	0.696	0.707	0.696
2phj	2wqk	117	117	0.776	0.752	0.762	0.856
2phj	2wqk	118	118	0.3	0.33	0.346	0.328
2phj	2wqk	119	119	0.091	0.179	0.097	0.163
2phj	2wqk	120	120	0.82	0.635	0.803	0.619
2phj	2wqk	121	121	0.0	0.0	0.0	0.0
2phj	2wqk	123	123	0.486	0.477	0.551	0.538
2phj	2wqk	124	124	0.542	0.276	0.571	0.734
2phj	2wqk	125	125	0.006	0.014	0.027	0.036
2phj	2wqk	126	126	0.185	0.171	0.159	0.156
2phj	2wqk	127	127	0.332	0.452	0.353	0.417
2phj	2wqk	128	128	0.325	0.425	0.29	0.371
2phj	2wqk	129	129	0.879	0.918	0.858	0.732
2phj	2wqk	130	130	0.771	0.723	0.8	0.732
2phj	2wqk	131	131	0.8	0.0	0.8	0.0
2phj	2wqk	132	132	0.467	0.349	0.514	0.579
2phj	2wqk	133	133	0.0	0.001	0.005	0.006
2phj	2wqk	134	134	0.139	0.226	0.104	0.094
2phj	2wqk	135	135	0.919	0.808	0.921	0.808
2phj	2wqk	136	136	0.343	0.358	0.352	0.345
2phj	2wqk	137	137	0.787	0.289	0.796	0.754
2phj	2wqk	138	138	0.256	0.481	0.29	0.262
2phj	2wqk	139	139	0.75	0.4	0.75	0.4
2phj	2wqk	140	140	0.263	0.254	0.282	0.294
2phj	2wqk	141	141	0.826	0.88	0.823	0.8
2phj	2wqk	142	142	0.782	0.806	0.811	0.785
2phj	2wqk	143	143	0.0	0.0	0.0	0.0
2phj	2wqk	144	144	0.284	0.313	0.202	0.257
2phj	2wqk	145	145	0.735	0.799	0.735	0.799
2phj	2wqk	146	146	0.315	0.261	0.323	0.415
2phj	2wqk	147	147	0.8	0.3	0.8	0.3
2phj	2wqk	148	148	0.0	0.0	0.0	0.0
2phj	2wqk	149	149	0.019	0.04	0.025	0.04
2phj	2wqk	150	150	0.51	0.476	0.439	0.391
2phj	2wqk	151	151	0.328	0.317	0.328	0.317
2phj	2wqk	152	152	0.47	0.406	0.529	0.447
2phj	2wqk	153	153	0.506	0.656	0.561	0.694
2phj	2wqk	154	154	0.352	0.318	0.347	0.266
2phj	2wqk	155	155	0.109	0.1	0.071	0.064
2phj	2wqk	156	156	0.118	0.119	0.128	0.119
2phj	2wqk	157	157	0.563	0.475	0.575	0.581
2phj	2wqk	158	158	0.123	0.112	0.112	0.141
2phj	2wqk	159	159	0.579	0.608	0.575	0.608
2phj	2wqk	160	160	0.492	0.481	0.449	0.71
2phj	2wqk	161	161	0.443	0.704	0.514	0.513
2phj	2wqk	162	162	0.401	0.415	0.401	0.416
2phj	2wqk	163	163	0.4	0.342	0.4	0.342
2phj	2wqk	164	164	0.095	0.12	0.113	0.114
2phj	2wqk	165	165	0.0	0.0	0.0	0.0
2phj	2wqk	166	166	0.191	0.235	0.156	0.199
2phj	2wqk	167	167	0.058	0.08	0.074	0.138
2phj	2wqk	168	168	0.531	0.499	0.56	0.553
2phj	2wqk	169	169	0.59	0.667	0.622	0.55
2phj	2wqk	170	170	0.0	0.0	0.0	0.0
2phj	2wqk	171	171	0.0	0.043	0.0	0.018
2phj	2wqk	172	172	0.093	0.156	0.11	0.115
2phj	2wqk	173	173	0.0	0.0	0.0	0.0
2phj	2wqk	174	174	0.0	0.0	0.0	0.0
2phj	2wqk	175	175	0.247	0.275	0.315	0.337
2phj	2wqk	176	176	0.028	0.165	0.048	0.075
2phj	2wqk	177	177	0.234	0.283	0.224	0.386
2phj	2wqk	178	178	0.42	0.649	0.43	0.655
2phj	2wqk	179	179	0.424	0.419	0.42	0.344
2phj	2wqk	180	180	0.389	0.4	0.408	0.495
2phj	2wqk	181	181	0.397	0.369	0.389	0.397
2phj	2wqk	182	182	0.241	0.206	0.24	0.206
2phj	2wqk	183	183	0.041	0.048	0.045	0.049
2phj	2wqk	184	184	0.0	0.0	0.0	0.0
2phj	2wqk	185	185	0.184	0.303	0.152	0.249
2phj	2wqk	186	186	0.23	0.309	0.177	0.348
2phj	2wqk	189	189	0.386	0.479	0.4	0.497
2phj	2wqk	190	190	0.0	0.0	0.0	0.0
2phj	2wqk	191	191	0.221	0.212	0.143	0.211
2phj	2wqk	192	192	0.285	0.423	0.248	0.397
2phj	2wqk	193	193	0.164	0.181	0.155	0.116
2phj	2wqk	195	195	0.52	0.753	0.509	0.62
2phj	2wqk	197	197	0.042	0.061	0.075	0.09
2phj	2wqk	199	199	0.398	0.655	0.364	0.467
2phj	2wqk	201	201	0.335	0.283	0.353	0.319
2phj	2wqk	204	204	0.0	0.003	0.0	0.003
2phj	2wqk	205	205	0.468	0.556	0.425	0.493
2phj	2wqk	206	206	0.759	0.89	0.764	0.89
2phj	2wqk	207	207	0.455	0.416	0.431	0.362
2phj	2wqk	208	208	0.295	0.313	0.249	0.308
2phj	2wqk	209	209	0.2	0.263	0.146	0.2
2phj	2wqk	210	210	0.011	0.015	0.01	0.015
2phj	2wqk	211	211	0.0	0.0	0.0	0.0
2phj	2wqk	212	212	0.677	0.719	0.703	0.926
2phj	2wqk	213	213	0.757	0.732	0.78	0.92
2phj	2wqk	214	214	0.399	0.681	0.401	0.377
2phj	2wqk	215	215	0.346	0.324	0.391	0.14
2phj	2wqk	216	216	0.399	0.675	0.369	0.677
2phj	2wqk	217	217	0.525	0.674	0.577	0.588
2phj	2wqk	218	218	0.024	0.028	0.026	0.078
2phj	2wqk	219	219	0.488	0.492	0.547	0.598
2phj	2wqk	220	220	0.0	0.048	0.0	0.097
2phj	2wqk	221	221	0.11	0.22	0.126	0.145
2phj	2wqk	222	222	0.794	0.715	0.756	0.651
2phj	2wqk	223	223	0.26	0.184	0.263	0.341
2phj	2wqk	224	224	0.444	0.638	0.433	0.374
2phj	2wqk	225	225	0.743	0.75	0.743	0.75
2phj	2wqk	226	226	0.785	0.821	0.758	0.809
2phj	2wqk	227	227	0.529	0.435	0.556	0.47
2phj	2wqk	228	228	0.248	0.274	0.249	0.274
2phj	2wqk	229	229	0.347	0.382	0.348	0.382
2phj	2wqk	230	230	0.388	0.436	0.395	0.466
2phj	2wqk	231	231	0.515	0.704	0.467	0.545
2phj	2wqk	232	232	0.707	0.707	0.707	0.707
2phj	2wqk	233	233	0.394	0.369	0.389	0.361
2phj	2wqk	234	234	1.0	0	1.0	0
2phj	2wqk	235	235	0.422	0.473	0.422	0.473
2phj	2wqk	236	236	0.388	0.434	0.367	0.38
2phj	2wqk	237	237	0.418	0.698	0.418	0.698
2phj	2wqk	238	238	0.179	0.171	0.172	0.175
2phj	2wqk	239	239	0.759	0.788	0.789	0.723
2phj	2wqk	240	240	0.472	0.498	0.471	0.5
2phj	2wqk	241	241	0.367	0.381	0.313	0.383
2phj	2wqk	242	242	0.396	0.381	0.438	0.511
2phj	2wqk	243	243	0.68	0.48	0.677	0.637
2phj	2wqk	244	244	0.51	0.615	0.535	0.741
2phj	2wqk	245	245	0.0	0.0	0.0	0.0
2phj	2wqk	246	246	0.771	0.657	0.771	0.657
2phj	2wqk	247	247	0.675	0.501	0.648	0.595
2phj	2wqk	248	248	0.0	0.0	0.0	0.0
2phj	2wqk	249	249	0.0	0.0	0.0	0.0
2phj	2wqk	250	250	0.193	0.273	0.189	0.302
2phj	2wqk	251	251	0.161	0.238	0.14	0.235
2phj	2wqk	252	252	0.936	0.957	0.934	0.86
2phj	2wqk	253	253	0.0	0.0	0.0	0.0
2phj	2wqk	254	254	0.0	0.0	0.0	0.0
2phj	2wqk	255	255	0.605	0.735	0.64	0.588
2phj	2wqk	256	256	0.281	0.458	0.304	0.429
2phj	2wqk	257	257	0.237	0.124	0.166	0.115
2phj	2wqk	258	258	0.527	0.492	0.547	0.534
2phj	2wqk	259	259	0.444	0.518	0.466	0.72
2phj	2wqk	260	260	0.836	0.798	0.835	0.847
2phj	2wqk	261	261	0.0	0.0	0.0	0.0
2phj	2wqk	262	262	0.467	0.504	0.364	0.315
2phj	2wqk	263	263	0.742	0.739	0.743	0.739
2phj	2wqk	264	264	0.03	0.074	0.028	0.052
2phj	2wqk	265	265	0.0	0.0	0.0	0.0
2phj	2wqk	266	266	0.0	0.002	0.0	0.003
2phj	2wqk	267	267	0.112	0.124	0.094	0.106
2phj	2wqk	268	268	0.391	0.438	0.425	0.382
2phj	2wqk	269	269	0.508	0.453	0.496	0.442
2phj	2wqk	270	270	0.053	0.082	0.08	0.083
2phj	2wqk	271	271	0.0	0.0	0.0	0.0
2phj	2wqk	272	272	0.065	0.087	0.039	0.028
2phj	2wqk	273	273	0.443	0.577	0.404	0.254
2phj	2wqk	274	274	0.075	0.11	0.066	0.051
2phj	2wqk	275	275	0.256	0.23	0.26	0.478
2phj	2wqk	276	276	0.367	0.336	0.339	0.3
2phj	2wqk	277	277	0.301	0.307	0.345	0.414
2phj	2wqk	278	278	0.343	0.338	0.309	0.316
2phj	2wqk	279	279	0.725	0.736	0.827	0.799
2phj	2wqk	280	280	0.28	0.319	0.296	0.369
2phj	2wqk	281	281	0.181	0.295	0.201	0.359
2phj	2wqk	282	282	0.205	0.22	0.196	0.184
2phj	2wqk	283	283	0.11	0.109	0.034	0.034
2phj	2wqk	284	284	0.0	0.0	0.0	0.0
2phj	2wqk	285	285	0.0	0.018	0.0	0.029
2phj	2wqk	286	286	0.047	0.029	0.043	0.063
2phj	2wqk	287	287	0.552	0.442	0.578	0.518
2phj	2wqk	288	288	0.197	0.198	0.226	0.458
2phj	2wqk	289	289	0.048	0.037	0.035	0.024
2phj	2wqk	290	290	0.004	0.057	0.002	0.06
2phj	2wqk	291	291	0.162	0.216	0.179	0.241
2phj	2wqk	292	292	0.542	0.587	0.546	0.604
2phj	2wqk	293	293	0.428	0.498	0.438	0.485
2phj	2wqk	294	294	0.035	0.085	0.029	0.058
2phj	2wqk	295	295	0.734	0.834	0.708	0.8
2phj	2wqk	296	296	0.175	0.139	0.205	0.137
2phj	2wqk	297	297	0.596	0.359	0.602	0.362
2phj	2wqk	298	298	1.0	0	1.0	0
2phj	2wqk	299	299	0.091	0.069	0.095	0.371
2phj	2wqk	300	300	0.0	0.0	0.0	0.0
2phj	2wqk	301	301	0.0	0.009	0.0	0.007
2phj	2wqk	302	302	0.088	0.076	0.075	0.105
2phj	2wqk	303	303	0.305	0.347	0.303	0.364
2phj	2wqk	304	304	0.0	0.0	0.0	0.0
2phj	2wqk	305	305	0.49	0.594	0.483	0.527
2phj	2wqk	306	306	0.4	0.437	0.401	0.49
2phj	2wqk	307	307	0.043	0.04	0.054	0.077
2phj	2wqk	308	308	0.213	0.207	0.225	0.272
2phj	2wqk	309	309	0.0	0.007	0.0	0.0
2phj	2wqk	310	310	0.0	0.009	0.0	0.024
2phj	2wqk	311	311	0.148	0.248	0.108	0.169
2phj	2wqk	312	312	0.207	0.181	0.215	0.163
2phj	2wqk	314	314	0.533	0.678	0.559	0.728
2phj	2wqk	315	315	0.896	0.905	0.897	0.859
2phj	2wqk	316	316	0.701	0.875	0.68	0.721
2phj	2wqk	317	317	0.199	0.208	0.196	0.216
2phj	2wqk	318	318	0.079	0.08	0.065	0.068
2phj	2wqk	319	319	0.025	0.077	0.017	0.019
2phj	2wqk	320	320	0.167	0.278	0.171	0.148
2phj	2wqk	321	321	0.393	0.381	0.388	0.384
2phj	2wqk	322	322	0.22	0.183	0.196	0.186
2phj	2wqk	323	323	0.562	0.714	0.545	0.716
2phj	2wqk	324	324	1.0	0	1.0	0
2phj	2wqk	325	325	0.549	0.889	0.551	0.261
2phj	2wqk	326	326	0.845	0.801	0.852	0.803
2phj	2wqk	327	327	0.439	0.412	0.434	0.372
2phj	2wqk	328	328	0.532	0.725	0.534	0.532
2phj	2wqk	329	329	0.708	0.713	0.688	0.692
2phj	2wqk	330	330	0.673	0.887	0.653	0.882
2phj	2wqk	331	331	0.778	0.861	0.778	0.861
2phj	2wqk	332	332	0.851	0.878	0.851	0.878
2phj	2wqk	333	333	0.839	0.902	0.841	0.902
2phj	2wqk	334	334	0.927	0.902	0.892	0.853
2phj	2wqk	335	335	0.077	0.083	0.082	0.086
2phj	2wqk	336	336	0.148	0.176	0.171	0.207
2phj	2wqk	337	337	0.694	0.35	0.694	0.35
2phj	2wqk	338	338	0.111	0.112	0.109	0.113
2phj	2wqk	339	339	0.595	0.498	0.549	0.284
2phj	2wqk	340	340	0.009	0.024	0.009	0.017
2phj	2wqk	341	341	0.832	0.682	0.773	0.726
2phj	2wqk	343	343	0.474	0.183	0.488	0.402
2phj	2wqk	344	344	0.06	0.057	0.026	0.013
2phj	2wqk	345	345	0.649	0.704	0.638	0.658
2phj	2wqk	346	346	0.771	0.938	0.765	0.791
2phj	2wqk	347	347	0.0	0.0	0.0	0.0
2phj	2wqk	348	348	0.0	0.0	0.0	0.0
2phj	2wqk	349	349	0.031	0.033	0.042	0.272
2phj	2wqk	350	350	0.0	0.012	0.0	0.016
2phj	2wqk	351	351	0.346	0.302	0.297	0.356
2phj	2wqk	352	352	0.0	0.0	0.0	0.0
2phj	2wqk	353	353	0.667	0.551	0.664	0.551
2phj	2wqk	355	355	0.048	0.031	0.031	0.033
2phj	2wqk	356	356	0.355	0.39	0.403	0.368
2phj	2wqk	357	357	0.762	0.787	0.803	0.722
2phj	2wqk	358	358	0.49	0.429	0.556	0.53
2phj	2wqk	359	359	1.0	0	1.0	0
2phj	2wqk	360	360	0.764	0.877	0.765	0.877
2phj	2wqk	361	361	0.421	0.535	0.446	0.63
2phj	2wqk	362	362	0.703	0.809	0.702	0.809
2phj	2wqk	363	363	0.785	0.595	0.796	0.533
2phj	2wqk	364	364	0.196	0.213	0.197	0.213
2phj	2wqk	365	365	0.457	0.442	0.497	0.51
2phj	2wqk	366	366	0.614	0.704	0.627	0.844
2phj	2wqk	367	367	0.307	0.384	0.263	0.346
2phj	2wqk	368	368	0.02	0.013	0.013	0.014
2phj	2wqk	369	369	0.37	0.412	0.372	0.355
2phj	2wqk	370	370	0.278	0.238	0.311	0.343
2phj	2wqk	371	371	0.742	0.831	0.721	0.748
2phj	2wqk	372	372	0.61	0.651	0.588	0.764
2phj	2wqk	373	373	0.727	0.602	0.73	0.602
2phj	2wqk	374	374	0.546	0.505	0.546	0.505
2phj	2wqk	375	375	0.75	0.746	0.73	0.784
2phj	2wqk	376	376	0.487	0.462	0.417	0.438
2phj	2wqk	377	377	0.672	0.759	0.683	0.842
2phj	2wqk	378	378	0.0	0.0	0.0	0.0
2phj	2wqk	379	379	0.142	0.173	0.157	0.191
2phj	2wqk	380	380	0.596	0.589	0.593	0.588
2phj	2wqk	381	381	0.705	0.766	0.702	0.766
2phj	2wqk	382	382	0.68	0.622	0.6	0.614
2phj	2wqk	383	383	0.032	0.079	0.041	0.079
2phj	2wqk	384	384	0.413	0.51	0.422	0.438
2phj	2wqk	385	385	0.595	0.747	0.597	0.747
2phj	2wqk	386	386	0.842	0.83	0.883	0.895
2phj	2wqk	387	387	0.387	0.414	0.362	0.401
2phj	2wqk	388	388	0.671	0.743	0.674	0.826
2phj	2wqk	389	389	0.82	0.775	0.797	0.806
2phj	2wqk	390	390	0.47	0.567	0.47	0.567
2phj	2wqk	391	391	0.0	0.0	0.0	0.0
2phj	2wqk	394	394	0.526	0.595	0.404	0.29
2phj	2wqk	396	396	0.03	0.147	0.029	0.004
2phj	2wqk	397	397	0.0	0.0	0.0	0.0
2phj	2wqk	398	398	0.0	0.0	0.0	0.0
2phj	2wqk	399	399	0.585	0.647	0.545	0.582
2phj	2wqk	400	400	0.368	0.279	0.366	0.279
2phj	2wqk	401	401	0.479	0.559	0.499	0.491
2phj	2wqk	402	402	0.748	0.864	0.746	0.864
2phj	2wqk	403	403	0.0	0.0	0.0	0.0
2phj	2wqk	404	404	0.0	0.0	0.0	0.0
2phj	2wqk	405	405	0.408	0.383	0.232	0.214
2phj	2wqk	406	406	0.338	0.385	0.318	0.343
2phj	2wqk	407	407	0.833	0.85	0.846	0.862
2phj	2wqk	408	408	0.935	0.982	0.931	0.844
2phj	2wqk	410	410	0.603	0.661	0.73	0.835
2phj	2wqk	411	411	0.167	0.153	0.144	0.132
2phj	2wqk	412	412	0.114	0.129	0.104	0.142
2phj	2wqk	413	413	0.017	0.014	0.013	0.024
2phj	2wqk	414	414	0.071	0.064	0.124	0.14
2phj	2wqk	415	415	0.019	0.037	0.017	0.083
2phj	2wqk	416	416	0.807	0.842	0.849	0.856
2phj	2wqk	417	417	0.825	0.835	0.806	0.759
2phj	2wqk	418	418	0.199	0.205	0.205	0.218
2phj	2wqk	419	419	0.855	0.8	0.858	0.796
2phj	2wqk	420	420	1.0	0	1.0	0
2phj	2wqk	421	421	0.028	0.038	0.025	0.047
2phj	2wqk	422	422	0.846	0.939	0.872	0.861
2phj	2wqk	423	423	0.418	0.413	0.452	0.658
2phj	2wqk	424	424	0.726	0.739	0.716	0.776
2phj	2wqk	425	425	0.11	0.204	0.107	0.273
2phj	2wqk	426	426	0.642	0.69	0.661	0.598
2phj	2wqk	427	427	0.118	0.123	0.06	0.067
2phj	2wqk	428	428	0.918	0.96	0.869	0.871
2phj	2wqk	429	429	0.882	0.742	0.865	0.765
2phj	2wqk	430	430	0.041	0.023	0.041	0.024
2phj	2wqk	431	431	0.253	0.351	0.345	0.401
2phj	2wqk	432	432	0.605	0.588	0.599	0.576
2phj	2wqk	433	433	1.0	0	1.0	0
2phj	2wqk	434	434	0.171	0.249	0.169	0.187
2phj	2wqk	435	435	0.507	0.558	0.453	0.577
2phj	2wqk	436	436	0.545	0.594	0.766	0.798
2phj	2wqk	437	437	0.499	0.521	0.571	0.558
2phj	2wqk	438	438	0.222	0.293	0.212	0.284
2phj	2wqk	439	439	0.887	0.871	0.789	0.795
2phj	2wqk	440	440	0.15	0.15	0.184	0.19
2phj	2wqk	441	441	0.281	0.175	0.307	0.272
2phj	2wqk	442	442	0.054	0.071	0.057	0.069
2phj	2wqk	443	443	0.105	0.06	0.167	0.263
2phj	2wqk	444	444	0.026	0.095	0.039	0.071
2phj	2wqk	445	445	0.451	0.494	0.471	0.41
2phj	2wqk	446	446	0.163	0.213	0.192	0.188
2phj	2wqk	447	447	0.506	0.467	0.521	0.503
2phj	2wqk	448	448	0.597	0.653	0.566	0.601
2phj	2wqk	449	449	0.908	0.944	0.906	0.944
2phj	2wqk	450	450	0.845	0.976	0.884	0.882
2phj	2wqk	451	451	0.853	0.912	0.848	0.912
2phj	2wqk	452	452	0.762	0.819	0.75	0.819
2phj	2wqk	453	453	0.0	0.0	0.0	0.0
2phj	2wqk	454	454	0.389	0.276	0.373	0.613
2phj	2wqk	455	455	0.633	0.512	0.626	0.53
2phj	2wqk	456	456	0.528	0.674	0.55	0.456
2phj	2wqk	457	457	0.0	0.0	0.0	0.0
2phj	2wqk	458	458	0.446	0.429	0.476	0.371
2phj	2wqk	459	459	0.629	0.601	0.638	0.667
2phj	2wqk	460	460	0.228	0.302	0.216	0.321
2phj	2wqk	461	461	0.501	0.522	0.413	0.427
2phj	2wqk	462	462	0.0	0.0	0.0	0.0
2phj	2wqk	463	463	0.035	0.101	0.031	0.016
2phj	2wqk	464	464	0.207	0.211	0.185	0.361
2phj	2wqk	465	465	0.346	0.446	0.333	0.334
2phj	2wqk	466	466	0.047	0.042	0.029	0.038
2phj	2wqk	467	467	0.266	0.327	0.239	0.231
2phj	2wqk	468	468	0.693	0.514	0.72	0.664
2phj	2wqk	469	469	0.0	0.0	0.0	0.003
2phj	2wqk	470	470	0.0	0.0	0.0	0.0
2phj	2wqk	471	471	0.089	0.117	0.09	0.113
2phj	2wqk	472	472	0.457	0.67	0.464	0.535
2phj	2wqk	474	474	0.0	0.0	0.0	0.001
2phj	2wqk	475	475	0.649	0.817	0.624	0.533
2phj	2wqk	476	476	0.383	0.411	0.401	0.404
2phj	2wqk	477	477	0.763	0.848	0.744	0.831
2phj	2wqk	478	478	0.0	0.0	0.0	0.0
2phj	2wqk	479	479	0.285	0.305	0.284	0.305
2phj	2wqk	480	480	0.814	0.883	0.814	0.883
2phj	2wqk	481	481	0.016	0.02	0.004	0.003
2phj	2wqk	482	482	0.062	0.121	0.048	0.029
2phj	2wqk	483	483	0.274	0.243	0.233	0.388
2phj	2wqk	484	484	0.269	0.446	0.272	0.317
2phj	2wqk	485	485	0.0	0.0	0.0	0.0
2phj	2wqk	486	486	0.251	0.115	0.24	0.112
2phj	2wqk	487	487	0.311	0.343	0.305	0.338
2phj	2wqk	488	488	0.0	0.0	0.0	0.0
2phj	2wqk	489	489	0.0	0.0	0.0	0.0
2phj	2wqk	490	490	0.0	0.0	0.0	0.0
2phj	2wqk	491	491	0.045	0.047	0.046	0.05
2phj	2wqk	492	492	0.0	0.031	0.0	0.065
2phj	2wqk	493	493	0.079	0.077	0.12	0.12
2phj	2wqk	494	494	0.0	0.0	0.0	0.0
2phj	2wqk	495	495	0.0	0.019	0.0	0.03
2phj	2wqk	496	496	0.047	0.24	0.091	0.08
2phj	2wqk	497	497	0.0	0.004	0.0	0.0
2phj	2wqk	498	498	0.0	0.0	0.0	0.0
2phj	2wqk	499	499	0.0	0.032	0.0	0.028
2phj	2wqk	500	500	0.024	0.042	0.018	0.054
2phj	2wqk	501	501	0.175	0.217	0.141	0.126
2phj	2wqk	502	502	0.234	0.195	0.202	0.217
2phj	2wqk	503	503	0.067	0.083	0.042	0.046
2phj	2wqk	504	504	0.0	0.0	0.0	0.0
2phj	2wqk	505	505	0.0	0.011	0.0	0.003
2phj	2wqk	506	506	0.446	0.423	0.463	0.546
2phj	2wqk	509	509	0.0	0.0	0.0	0.0
2phj	2wqk	510	510	0.107	0.169	0.105	0.094
2phj	2wqk	511	511	0.34	0.547	0.313	0.375
2phj	2wqk	512	512	0.217	0.21	0.235	0.258
2phj	2wqk	513	513	0.0	0.0	0.0	0.0
2phj	2wqk	514	514	0.0	0.0	0.0	0.0
2phj	2wqk	515	515	0.0	0.0	0.0	0.0
2phj	2wqk	516	516	0.458	0.476	0.41	0.459
2phj	2wqk	517	517	0.079	0.114	0.091	0.077
2phj	2wqk	518	518	0.183	0.174	0.215	0.25
2phj	2wqk	519	519	0.66	0.746	0.65	0.621
2phj	2wqk	520	520	0.0	0.0	0.0	0.0
2phj	2wqk	521	521	0.577	0.658	0.601	0.658
2phj	2wqk	522	522	0.699	0.688	0.702	0.663
2phj	2wqk	523	523	0.574	0.682	0.586	0.611
2phj	2wqk	524	524	0.492	0.653	0.434	0.604
2phj	2wqk	525	525	0.784	0.697	0.83	0.725
2phj	2wqk	526	526	0.269	0.305	0.3	0.309
2phj	2wqk	527	527	0.237	0.249	0.3	0.3
2phj	2wqk	528	528	0.0	0.0	0.0	0.0
2phj	2wqk	529	529	0.251	0.405	0.316	0.306
2phj	2wqk	530	530	0.266	0.371	0.304	0.302
2phj	2wqk	531	531	0.893	0.729	0.893	0.729
2phj	2wqk	532	532	0.503	0.747	0.46	0.466
2phj	2wqk	533	533	0.56	0.788	0.526	0.562
2phj	2wqk	534	534	0.893	0.747	0.986	0.886
2phj	2wqk	535	535	0.074	0.112	0.081	0.177
2phj	2wqk	536	536	0.176	0.314	0.148	0.162
2phj	2wqk	537	537	0.877	0.831	0.867	0.833
2phj	2wqk	538	538	0.662	0.87	0.661	0.869
2phj	2wqk	539	539	0.317	0.277	0.24	0.251
2phj	2wqk	540	540	0.263	0.289	0.225	0.266
2phj	2wqk	541	541	0.579	0.466	0.571	0.733
2phj	2wqk	542	542	0.131	0.151	0.131	0.204
2phj	2wqk	543	543	0.363	0.39	0.359	0.463
2phj	2wqk	544	544	0.397	0.444	0.378	0.379
2phj	2wqk	545	545	0.321	0.297	0.257	0.255
2phj	2wqk	546	546	0.524	0.55	0.555	0.584
2phj	2wqk	547	547	0.24	0.278	0.262	0.244
2phj	2wqk	548	548	0.0	0.0	0.0	0.0
2phj	2wqk	549	549	0.065	0.06	0.044	0.184
2phj	2wqk	550	550	0.349	0.347	0.345	0.445
2phj	2wqk	551	551	0.169	0.162	0.155	0.071
2phj	2wqk	552	552	0.034	0.045	0.026	0.015
2phj	2wqk	553	553	0.204	0.172	0.204	0.172
2phj	2wqk	554	554	0.826	0.894	0.834	0.923
2phj	2wqk	555	555	0.0	0.0	0.0	0.0
2phj	2wqk	556	556	0.036	0.044	0.034	0.032
2phj	2wqk	557	557	0.344	0.356	0.365	0.457
2phj	2wqk	558	558	0.0	0.038	0.001	0.068
2phj	2wqk	559	559	0.105	0.099	0.131	0.262
2phj	2wqk	560	560	0.884	0.847	0.878	0.828
2phj	2wqk	561	561	0.646	0.802	0.671	0.729
2phj	2wqk	562	562	0.169	0.254	0.161	0.106
2phj	2wqk	563	563	0.086	0.057	0.091	0.069
2phj	2wqk	564	564	0.152	0.241	0.16	0.164
2phj	2wqk	565	565	0.259	0.314	0.23	0.278
2phj	2wqk	566	566	0.408	0.425	0.422	0.515
2phj	2wqk	567	567	0.185	0.258	0.179	0.243
2phj	2wqk	568	568	0.133	0.227	0.131	0.106
2phj	2wqk	569	569	0.887	0.841	0.881	0.924
2phj	2wqk	570	570	0.701	0.833	0.684	0.584
2phj	2wqk	571	571	0.285	0.243	0.287	0.226
2phj	2wqk	572	572	0.0	0.013	0.0	0.046
2phj	2wqk	573	573	0.23	0.3	0.235	0.271
2phj	2wqk	574	574	0.687	0.678	0.653	0.671
2phj	2wqk	575	575	0.266	0.279	0.224	0.254
2phj	2wqk	576	576	0.337	0.345	0.387	0.344
2phj	2wqk	577	577	0.521	0.531	0.545	0.578
2phj	2wqk	578	578	0.378	0.476	0.383	0.373
2phj	2wqk	579	579	0.346	0.33	0.348	0.392
2phj	2wqk	580	580	0.155	0.168	0.184	0.179
2phj	2wqk	581	581	0.786	0.865	0.8	0.848
2phj	2wqk	582	582	0.648	0.592	0.647	0.589
2phj	2wqk	583	583	0.886	0.927	0.873	0.921
2phj	2wqk	584	584	0.0	0.0	0.0	0.0
2phj	2wqk	585	585	0.69	0.754	0.7	0.845
2phj	2wqk	586	586	0.82	0.753	0.805	0.842
2phj	2wqk	587	587	0.603	0.754	0.625	0.721
2phj	2wqk	588	588	0.2	0.138	0.193	0.127
2phj	2wqk	589	589	0.283	0.305	0.256	0.292
2phj	2wqk	590	590	0.496	0.542	0.468	0.534
2phj	2wqk	591	591	0.499	0.701	0.478	0.341
2phj	2wqk	592	592	0.0	0.003	0.0	0.003
2phj	2wqk	593	593	0.15	0.151	0.147	0.169
2phj	2wqk	594	594	0.021	0.058	0.023	0.082
2phj	2wqk	595	595	0.252	0.362	0.219	0.294
2phj	2wqk	596	596	0.514	0.65	0.51	0.643
2phj	2wqk	597	597	0.87	0.746	0.847	0.393
2phj	2wqk	598	598	0.0	0.0	0.0	0.0
2phj	2wqk	599	599	0.0	0.0	0.0	0.0
2phj	2wqk	600	600	0.257	0.186	0.226	0.266
2phj	2wqk	601	601	0.386	0.431	0.415	0.382
2phj	2wqk	602	602	0.16	0.171	0.135	0.2
2phj	2wqk	603	603	0.716	0.893	0.728	0.636
2phj	2wqk	604	604	0.0	0.0	0.0	0.0
2phj	2wqk	605	605	0.325	0.364	0.314	0.323
2phj	2wqk	606	606	0.0	0.0	0.0	0.0
2phj	2wqk	607	607	0.683	0.692	0.645	0.559
2phj	2wqk	608	608	0.492	0.449	0.514	0.653
2phj	2wqk	609	609	0.607	0.617	0.606	0.606
2phj	2wqk	610	610	0.0	0.017	0.0	0.029
2phj	2wqk	611	611	0.017	0.077	0.006	0.031
2phj	2wqk	612	612	0.094	0.055	0.09	0.056
2phj	2wqk	613	613	0.174	0.145	0.18	0.145
2phj	2wqk	614	614	0.338	0.187	0.92	0.793
2phj	2wqk	615	615	0.0	0.0	0.0	0.0
2phj	2wqk	616	616	0.053	0.054	0.071	0.1
2phj	2wqk	617	617	0.177	0.044	0.183	0.173
2phj	2wqk	618	618	0.623	0.73	0.635	0.676
2phj	2wqk	619	619	0.194	0.18	0.155	0.189
2phj	2wqk	620	620	0.238	0.261	0.261	0.538
2phj	2wqk	621	621	0.357	0.635	0.37	0.493
2phj	2wqk	622	622	0.243	0.491	0.25	0.336
2phj	2wqk	623	623	0.411	0.516	0.358	0.413
2phj	2wqk	624	624	0.52	0.57	0.522	0.697
2phj	2wqk	625	625	0.583	0.445	0.552	0.461
2phj	2wqk	626	626	0.85	0.825	0.87	0.927
2phj	2wqk	627	627	0.601	0.51	0.642	0.667
2phj	2wqk	628	628	0.333	0.352	0.315	0.449
2phj	2wqk	629	629	0.49	0.485	0.502	0.47
2phj	2wqk	630	630	0.686	0.692	0.637	0.889
2phj	2wqk	631	631	0.325	0.041	0.254	0.047
2phj	2wqk	632	632	0.48	0.419	0.473	0.365
2phj	2wqk	634	634	0.034	0.04	0.026	0.012
2phj	2wqk	635	635	0.082	0.082	0.084	0.118
2phj	2wqk	636	636	0.474	0.472	0.45	0.522
2phj	2wqk	637	637	0.221	0.226	0.19	0.269
2phj	2wqk	638	638	0.828	0.839	0.859	0.835
2phj	2wqk	639	639	0.214	0.381	0.215	0.298
2phj	2wqk	640	640	0.822	0.674	0.822	0.674
2phj	2wqk	641	641	0.878	0.987	0.878	0.987
2phj	2wqk	642	642	0.818	0.628	0.817	0.621
2phj	2wqk	643	643	0.875	0.896	0.886	0.896
2phj	2wqk	644	644	0.019	0.006	0.0	0.004
2phj	2wqk	645	645	0.343	0.365	0.306	0.37
2phj	2wqk	646	646	0.385	0.418	0.357	0.454
2phj	2wqk	647	647	1.0	0.1	1.0	0.1
2phj	2wqk	648	648	0.367	0.39	0.383	0.391
2phj	2wqk	649	649	0.0	0.0	0.0	0.0
2phj	2wqk	650	650	0.051	0.098	0.065	0.078
2phj	2wqk	651	651	0.106	0.113	0.157	0.196
2phj	2wqk	652	652	0.554	0.401	0.567	0.316
2phj	2wqk	653	653	0.529	0.409	0.522	0.422
2phj	2wqk	654	654	0.049	0.064	0.041	0.02
2phj	2wqk	655	655	0.518	0.59	0.55	0.54
2phj	2wqk	656	656	0.536	0.609	0.537	0.617
2phj	2wqk	657	657	0.89	0.905	0.89	0.914
2phj	2wqk	658	658	0.422	0.348	0.498	0.534
2phj	2wqk	659	659	0.495	0.568	0.5	0.831
2phj	2wqk	660	660	0.54	0.569	0.479	0.528
2phj	2wqk	661	661	0.64	0.72	0.628	0.581
2phj	2wqk	662	662	0.0	0.0	0.0	0.0
2phj	2wqk	663	663	0.36	0.413	0.423	0.493
2phj	2wqk	664	664	0.271	0.354	0.249	0.316
2phj	2wqk	665	665	0.563	0.68	0.545	0.66
2phj	2wqk	666	666	0.41	0.512	0.436	0.429
2phj	2wqk	667	667	0.174	0.145	0.158	0.143
2phj	2wqk	668	668	0.571	0.786	0.572	0.786
2phj	2wqk	669	669	0.039	0.037	0.023	0.023
2phj	2wqk	670	670	0.0	0.0	0.0	0.0
2phj	2wqk	671	671	0.0	0.0	0.0	0.0
2phj	2wqk	672	672	0.0	0.0	0.0	0.0
2phj	2wqk	673	673	0.0	0.002	0.0	0.046
2phj	2wqk	674	674	0.252	0.265	0.303	0.262
2phj	2wqk	675	675	0.478	0.529	0.553	0.562
2phj	2wqk	676	676	0.111	0.111	0.093	0.171
2phj	2wqk	677	677	0.363	0.463	0.378	0.366
2phj	2wqk	678	678	0.9	0.7	0.9	0.7
2phj	2wqk	679	679	0.101	0.098	0.087	0.107
2phj	2wqk	680	680	0.273	0.216	0.258	0.242
2phj	2wqk	681	681	0.236	0.317	0.204	0.352
2phj	2wqk	682	682	0.071	0.078	0.064	0.062
2phj	2wqk	683	683	0.417	0.414	0.479	0.593
2phj	2wqk	684	684	0.019	0.026	0.01	0.018
2phj	2wqk	685	685	0.452	0.469	0.484	0.495
2phj	2wqk	686	686	0.266	0.262	0.272	0.269
2phj	2wqk	687	687	0.018	0.051	0.018	0.051
2phj	2wqk	688	688	0.468	0.314	0.501	0.462
2phj	2wqk	689	689	0.76	0.81	0.785	0.828
2phj	2wqk	690	690	0.472	0.472	0.472	0.472
2phj	2wqk	691	691	0.45	0.48	0.45	0.48
2phj	2wqk	692	692	0.822	0.882	0.767	0.743
2phj	2wqk	694	694	0.134	0.123	0.239	0.188
2phj	2wqk	695	695	0.08	0.087	0.07	0.057
2phj	2wqk	696	696	0.0	0.027	0.0	0.001
2phj	2wqk	698	698	0.0	0.0	0.0	0.0
2phj	2wqk	699	699	0.844	0.814	0.817	0.916
2phj	2wqk	700	700	0.49	0.583	0.485	0.654
2phj	2wqk	701	701	0.68	0.766	0.688	0.698
2phj	2wqk	702	702	0.562	0.634	0.558	0.641
2phj	2wqk	703	703	0.862	0.838	0.878	0.844
2phj	2wqk	704	704	0.127	0.195	0.142	0.162
2phj	2wqk	705	705	0.256	0.32	0.291	0.202
2phj	2wqk	706	706	0.681	0.812	0.678	0.812
2phj	2wqk	707	707	0.704	0.675	0.707	0.652
2phj	2wqk	708	708	0.655	0.704	0.643	0.825
2phj	2wqk	709	709	0.633	0.0	0.633	0.0
2phj	2wqk	710	710	0.315	0.308	0.311	0.302
2phj	2wqk	711	711	0.023	0.015	0.008	0.055
2phj	2wqk	712	712	0.0	0.0	0.0	0.0
2phj	2wqk	713	713	0.1	0.104	0.076	0.12
2phj	2wqk	714	714	0.087	0.159	0.119	0.28
2phj	2wqk	715	715	0.658	0.666	0.683	0.764
2phj	2wqk	716	716	0.833	0.923	0.832	0.923
2phj	2wqk	717	717	0.642	0.756	0.598	0.605
2phj	2wqk	718	718	0.876	0.864	0.875	0.864
2phj	2wqk	719	719	0.271	0.204	0.274	0.243
2phj	2wqk	720	720	0.271	0.366	0.304	0.382
2phj	2wqk	721	721	0.442	0.38	0.449	0.39
2phj	2wqk	722	722	0.587	0.671	0.556	0.512
2phj	2wqk	723	723	0.529	0.663	0.542	0.754
2phj	2wqk	724	724	0.413	0.48	0.43	0.502
2phj	2wqk	725	725	0.538	0.728	0.547	0.745
2phj	2wqk	726	726	0.73	0.49	0.76	0.49
2phj	2wqk	727	727	0.615	0.764	0.62	0.783
2phj	2wqk	728	728	0.49	0.506	0.473	0.714
2phj	2wqk	729	729	0.867	0.731	0.926	0.7
2phj	2wqk	730	730	0.615	0.417	0.624	0.14
2phj	2wqk	731	731	1.0	1.0	1.0	1.0
2phj	2wqk	732	732	0.82	0.683	0.815	0.683
2phj	2wqk	733	733	0.555	0.49	0.555	0.49
2phj	2wqk	734	734	0.975	1.0	0.963	0.912
2phj	2wqk	735	735	0.857	0.786	0.871	0.786
2phj	2wqk	736	736	0.589	0.629	0.576	0.548
2phj	2wqk	737	737	0.477	0.414	0.474	0.402
2phj	2wqk	738	738	0.311	0.452	0.36	0.517
2phj	2wqk	739	739	0.755	0.709	0.651	0.493
2phj	2wqk	740	740	0.644	0.656	0.639	0.665
2phj	2wqk	741	741	0.769	0.775	0.728	0.951
2phj	2wqk	742	742	0.585	0.728	0.543	0.634
2phj	2wqk	743	743	0.293	0.388	0.226	0.321
2phj	2wqk	745	745	0.7	0.639	0.7	0.635
2phj	2wqk	746	746	0.552	0.574	0.577	0.601
2phj	2wqk	747	747	0.167	0.261	0.194	0.202
2phj	2wqk	748	748	0.412	0.622	0.427	0.416
2phj	2wqk	749	749	0.378	0.313	0.366	0.301
2phj	2wqk	750	750	0.316	0.289	0.347	0.33
2phj	2wqk	751	751	0.526	0.601	0.522	0.539
2phj	2wqk	752	752	0.816	0.812	0.816	0.812
2phj	2wqk	753	753	0.804	0.794	0.781	0.859
2phj	2wqk	754	754	0.426	0.502	0.364	0.508
2phj	2wqk	755	755	0.044	0.09	0.059	0.107
2phj	2wqk	756	756	0.821	0.837	0.806	0.883
2phj	2wqk	757	757	0.783	0.909	0.782	0.908
2phj	2wqk	758	758	0.0	0.0	0.0	0.0
2phj	2wqk	759	759	0.668	0.74	0.668	0.763
2phj	2wqk	760	760	0.603	0.642	0.603	0.642
2phj	2wqk	761	761	0.643	0.658	0.639	0.726
2phj	2wqk	762	762	0.487	0.585	0.471	0.581
2phj	2wqk	763	763	0.006	0.014	0.0	0.0
2phj	2wqk	764	764	0.673	0.739	0.702	0.71
2phj	2wqk	765	765	0.52	0.509	0.495	0.672
2phj	2wqk	766	766	0.264	0.505	0.216	0.442
2phj	2wqk	767	767	0.0	0.002	0.0	0.002
2phj	2wqk	768	768	0.0	0.0	0.0	0.0
2phj	2wqk	769	769	0.026	0.003	0.047	0.01
2phj	2wqk	770	770	0.551	0.584	0.537	0.501
2phj	2wqk	771	771	0.131	0.125	0.124	0.126
2phj	2wqk	772	772	0.061	0.057	0.06	0.057
2phj	2wqk	773	773	0.293	0.247	0.293	0.247
2phj	2wqk	775	775	0.6	0.695	0.67	0.947
2phj	2wqk	776	776	0.881	0.91	0.853	0.862
2phj	2wqk	777	777	0.39	0.548	0.41	0.495
2phj	2wqk	778	778	0.013	0.022	0.0	0.136
2phj	2wqk	779	779	0.01	0.012	0.0	0.004
2phj	2wqk	780	780	0.247	0.252	0.281	0.276
2phj	2wqk	781	781	0.05	0.047	0.033	0.036
2phj	2wqk	782	782	0.0	0.047	0.002	0.043
2phj	2wqk	783	783	0.028	0.108	0.034	0.113
2phj	2wqk	784	784	0.485	0.575	0.49	0.383
2phj	2wqk	785	785	0.158	0.134	0.158	0.134
2phj	2wqk	786	786	0.499	0.487	0.499	0.487
2phj	2wqk	787	787	0.557	0.514	0.56	0.519
2phj	2wqk	788	788	0.009	0.095	0.021	0.087
2phj	2wqk	789	789	0.0	0.046	0.0	0.039
2phj	2wqk	790	790	0.0	0.025	0.0	0.007
2phj	2wqk	791	791	0.092	0.086	0.077	0.072
2phj	2wqk	792	792	0.384	0.396	0.384	0.396
2phj	2wqk	793	793	0.837	0.789	0.837	0.789
2phj	2wqk	794	794	0.27	0.208	0.293	0.243
2phj	2wqk	795	795	0.632	0.731	0.559	0.6
2phj	2wqk	796	796	0.824	0.701	0.824	0.725
2phj	2wqk	797	797	0.043	0.013	0.054	0.059
2phj	2wqk	799	799	0.271	0.298	0.277	0.307
2phj	2wqk	800	800	0.244	0.351	0.25	0.361
2phj	2wqk	801	801	0.898	0.93	0.885	0.921
2phj	2wqk	802	802	0.664	0.685	0.656	0.646
2phj	2wqk	803	803	0.0	0.0	0.005	0.003
2phj	2wqk	804	804	0.134	0.077	0.14	0.061
2phj	2wqk	806	806	0.278	0.44	0.239	0.302
2phj	2wqk	807	807	0.363	0.454	0.323	0.381
2phj	2wqk	808	808	0.0	0.0	0.0	0.0
2phj	2wqk	809	809	0.875	0.704	0.878	0.7
2phj	2wqk	810	810	0.925	0.388	0.925	0.388
2phj	2wqk	811	811	0.178	0.19	0.194	0.209
2phj	2wqk	812	812	0.0	0.0	0.0	0.0
2phj	2wqk	813	813	0.14	0.135	0.125	0.12
2phj	2wqk	814	814	0.565	0.562	0.572	0.562
2phj	2wqk	815	815	0.324	0.293	0.338	0.365
2phj	2wqk	816	816	0.207	0.221	0.211	0.199
2phj	2wqk	817	817	0.0	0.0	0.0	0.0
2phj	2wqk	818	818	0.751	0.641	0.749	0.641
2phj	2wqk	819	819	0.624	0.673	0.622	0.599
2phj	2wqk	820	820	0.172	0.193	0.198	0.244
2phj	2wqk	821	821	0.883	0.908	0.888	0.912
2phj	2wqk	822	822	0.95	1.0	0.9	1.0
2phj	2wqk	823	823	0.43	0.413	0.444	0.452
2phj	2wqk	824	824	0.683	0.428	0.673	0.493
2phj	2wqk	825	825	0.83	0.567	0.83	0.567
2phj	2wqk	826	826	0.854	0.609	0.855	0.609
2phj	2wqk	827	827	0.023	0.047	0.032	0.066
2phj	2wqk	828	828	0.187	0.2	0.175	0.13
2phj	2wqk	829	829	0.213	0.262	0.216	0.253
2phj	2wqk	830	830	0.149	0.156	0.164	0.203
2phj	2wqk	831	831	0.49	0.467	0.491	0.469
2phj	2wqk	832	832	0.611	0.698	0.622	0.698
2phj	2wqk	833	833	0.055	0.09	0.046	0.117
2phj	2wqk	835	835	0.74	0.87	0.73	0.87
2phj	2wqk	836	836	0.672	0.75	0.7	0.743
2phj	2wqk	837	837	0.057	0.074	0.074	0.103
2phj	2wqk	838	838	0.629	0.596	0.635	0.596
2phj	2wqk	839	839	0.683	0.606	0.687	0.607
2phj	2wqk	841	841	0.02	0.007	0.029	0.016
2phj	2wqk	842	842	0.043	0.057	0.049	0.108
2phj	2wqk	843	843	0.0	0.067	0.0	0.06
2phj	2wqk	844	844	0.382	0.446	0.434	0.559
2phj	2wqk	845	845	0.735	0.599	0.735	0.598
2phj	2wqk	846	846	0.246	0.297	0.228	0.198
2phj	2wqk	847	847	0.323	0.308	0.265	0.23
2phj	2wqk	848	848	0.889	0.812	0.874	0.976
2phj	2wqk	849	849	0.203	0.147	0.182	0.187
2phj	2wqk	850	850	0.104	0.085	0.133	0.154
2phj	2wqk	851	851	0.043	0.086	0.043	0.079
2phj	2wqk	852	852	0.12	0.067	0.11	0.147
2phj	2wqk	853	853	0.44	0.413	0.463	0.724
2phj	2wqk	854	854	0.055	0.253	0.036	0.084
2phj	2wqk	855	855	0.048	0.063	0.044	0.102
2phj	2wqk	856	856	0.0	0.024	0.0	0.011
2phj	2wqk	857	857	0.041	0.192	0.055	0.07
2phj	2wqk	858	858	0.13	0.174	0.123	0.187
2phj	2wqk	859	859	0.034	0.031	0.037	0.13
2phj	2wqk	860	860	0.516	0.506	0.498	0.493
2phj	2wqk	861	861	0.383	0.398	0.362	0.407
2phj	2wqk	862	862	0.843	0.7	0.9	0.611
2phj	2wqk	863	863	0.059	0.032	0.059	0.163
2phj	2wqk	864	864	0.597	0.646	0.594	0.817
2phj	2wqk	865	865	0.311	0.283	0.332	0.313
2phj	2wqk	866	866	0.0	0.0	0.0	0.0
2phj	2wqk	867	867	0.0	0.0	0.0	0.0
2phj	2wqk	868	868	0.381	0.38	0.371	0.351
2phj	2wqk	869	869	0.093	0.139	0.058	0.073
2phj	2wqk	870	870	0.782	0.487	0.804	0.425
2phj	2wqk	871	871	0.504	0.596	0.538	0.81
2phj	2wqk	872	872	0.488	0.54	0.473	0.489
2phj	2wqk	873	873	0.487	0.543	0.462	0.514
2phj	2wqk	874	874	0.608	0.535	0.599	0.644
2phj	2wqk	875	875	0.634	0.875	0.672	0.385
2phj	2wqk	876	876	0.436	0.505	0.479	0.7
2phj	2wqk	877	877	0.906	1.0	0.906	1.0
2phj	2wqk	878	878	0.323	0.331	0.324	0.331
2phj	2wqk	879	879	0.245	0.241	0.264	0.276
2phj	2wqk	880	880	0.456	0.422	0.532	0.495
2phj	2wqk	881	881	0.415	0.436	0.357	0.343
2phj	2wqk	882	882	0.869	0.723	0.835	0.828
2phj	2wqk	883	883	0.373	0.443	0.419	0.437
2phj	2wqk	884	884	0.628	0.747	0.604	0.719
2phj	2wqk	885	885	0.014	0.012	0.041	0.016
2phj	2wqk	886	886	0.0	0.018	0.0	0.003
2phj	2wqk	887	887	0.0	0.005	0.0	0.006
2phj	2wqk	888	888	0.097	0.085	0.087	0.11
2phj	2wqk	889	889	0.579	0.579	0.603	0.67
2phj	2wqk	890	890	0.0	0.0	0.0	0.0
2phj	2wqk	891	891	0.0	0.0	0.0	0.0
2phj	2wqk	892	892	0.0	0.005	0.0	0.026
2phj	2wqk	893	893	0.13	0.155	0.147	0.183
2phj	2wqk	894	894	0.208	0.322	0.208	0.237
2phj	2wqk	895	895	0.0	0.0	0.0	0.001
2phj	2wqk	896	896	0.481	0.488	0.51	0.565
2phj	2wqk	897	897	0.416	0.467	0.481	0.514
2phj	2wqk	898	898	0.508	0.574	0.507	0.678
2phj	2wqk	899	899	0.888	0.58	0.879	0.531
2phj	2wqk	900	900	0.55	0.524	0.545	0.543
2phj	2wqk	902	902	0.221	0.221	0.232	0.225
2phj	2wqk	903	903	0.666	0.763	0.671	0.754
2phj	2wqk	904	904	0.884	0.932	0.882	0.931
2phj	2wqk	905	905	0.907	0.911	0.827	0.808
2phj	2wqk	906	906	0.88	0.978	0.878	0.977
2phj	2wqk	907	907	0.837	0.925	0.811	0.836
2phj	2wqk	908	908	0.87	0.588	0.869	0.61
2phj	2wqk	909	909	0.8	0.76	0.84	0.768
2phj	2wqk	910	910	0.816	0.702	0.818	0.664
2phj	2wqk	911	911	0.516	0.445	0.484	0.569
2phj	2wqk	912	912	1.0	0.0	1.0	0.0
2phj	2wqk	913	913	0.513	0.613	0.489	0.472
2phj	2wqk	914	914	0.585	0.561	0.584	0.561
2phj	2wqk	915	915	0.8	0.967	0.8	0.967
2phj	2wqk	916	916	0.372	0.383	0.399	0.448
2phj	2wqk	917	917	0.679	0.662	0.727	0.67
2phj	2wqk	918	918	0.578	0.398	0.582	0.419
2phj	2wqk	919	919	0.72	0.398	0.718	0.628
2phj	2wqk	920	920	0.847	0.637	0.847	0.637
2phj	2wqk	921	921	0.145	0.14	0.17	0.174
2phj	2wqk	922	922	0.335	0.413	0.33	0.384
2phj	2wqk	923	923	0.0	0.0	0.0	0.0
2phj	2wqk	924	924	0.723	0.786	0.716	0.796
2phj	2wqk	925	925	0.386	0.309	0.418	0.677
2phj	2wqk	926	926	0.484	0.492	0.456	0.465
2phj	2wqk	928	928	0.285	0.333	0.275	0.332
2phj	2wqk	929	929	0.0	0.006	0.0	0.009
2phj	2wqk	930	930	0.326	0.314	0.34	0.311
2phj	2wqk	931	931	0.029	0.051	0.026	0.036
2phj	2wqk	932	932	0.013	0.043	0.021	0.112
2phj	2wqk	933	933	0.0	0.0	0.0	0.0
2phj	2wqk	934	934	0.052	0.078	0.047	0.061
2phj	2wqk	935	935	0.375	0.363	0.432	0.441
2phj	2wqk	936	936	0.0	0.0	0.0	0.0
2phj	2wqk	937	937	0.054	0.063	0.056	0.123
2phj	2wqk	938	938	0.218	0.306	0.042	0.065
2phj	2wqk	939	939	0.9	1.0	0.9	1.0
2phj	2wqk	940	940	0.314	0.239	0.403	0.323
2phj	2wqk	941	941	0.109	0.101	0.115	0.113
2phj	2wqk	942	942	0.571	0.584	0.595	0.655
2phj	2wqk	943	943	0.0	0.0	0.0	0.0
2phj	2wqk	944	944	0.123	0.105	0.102	0.052
2phj	2wqk	945	945	0.549	0.567	0.555	0.508
2phj	2wqk	946	946	0.029	0.079	0.034	0.041
2phj	2wqk	947	947	0.0	0.0	0.0	0.0
2phj	2wqk	948	948	0.053	0.055	0.087	0.086
2phj	2wqk	949	949	0.088	0.114	0.07	0.067
2phj	2wqk	950	950	0.016	0.098	0.03	0.097
2phj	2wqk	951	951	0.097	0.099	0.207	0.195
2phj	2wqk	952	952	0.0	0.0	0.0	0.0
2phj	2wqk	953	953	0.0	0.0	0.0	0.0
2phj	2wqk	954	954	0.131	0.124	0.126	0.1
2phj	2wqk	955	955	0.135	0.155	0.118	0.095
2phj	2wqk	956	956	0.0	0.005	0.0	0.017
2phj	2wqk	957	957	0.229	0.239	0.221	0.233
2phj	2wqk	958	958	0.005	0.008	0.0	0.023
2phj	2wqk	959	959	0.31	0.353	0.349	0.43
2phj	2wqk	960	960	0.279	0.271	0.301	0.305
2phj	2wqk	961	961	0.0	0.0	0.0	0.0
2phj	2wqk	962	962	0.063	0.073	0.12	0.133
2phj	2wqk	963	963	0.157	0.285	0.121	0.157
2phj	2wqk	964	964	0.651	0.623	0.589	0.685
2phj	2wqk	965	965	0.799	0.521	0.853	0.525
2phj	2wqk	966	966	0.619	0.579	0.65	0.66
2phj	2wqk	967	967	0.0	0.01	0.0	0.011
2phj	2wqk	968	968	0.248	0.197	0.253	0.231
2phj	2wqk	969	969	0.741	0.736	0.742	0.831
2phj	2wqk	970	970	0.0	0.0	0.0	0.0
2phj	2wqk	971	971	0.419	0.45	0.427	0.483
2phj	2wqk	972	972	0.572	0.759	0.557	0.73
2phj	2wqk	973	973	0.389	0.4	0.375	0.38
2phj	2wqk	974	974	0.0	0.0	0.0	0.0
2phj	2wqk	975	975	0.413	0.447	0.418	0.405
2phj	2wqk	976	976	0.0	0.01	0.0	0.003
2phj	2wqk	978	978	0.0	0.0	0.0	0.0
2phj	2wqk	979	979	0.286	0.334	0.344	0.453
2phj	2wqk	980	980	0.088	0.183	0.109	0.223
2phj	2wqk	981	981	0.301	0.403	0.243	0.455
2phj	2wqk	982	982	0.434	0.444	0.399	0.476
2phj	2wqk	983	983	0.709	0.813	0.738	0.846
2phj	2wqk	984	984	0.672	0.739	0.67	0.754
2phj	2wqk	985	985	0.586	0.662	0.62	0.765
2phj	2wqk	986	986	1.0	0	1.0	0
2phj	2wqk	987	987	0.743	0.857	0.743	0.857
2phj	2wqk	988	988	1.0	0	1.0	0
2phj	2wqk	989	989	0.622	0.292	0.635	0.348
2phj	2wqk	990	990	0.811	0.533	0.816	0.494
2phj	2wqk	991	991	0.706	0.696	0.707	0.698
2phj	2wqk	992	992	0.763	0.893	0.771	0.823
2phj	2wqk	993	993	0.291	0.379	0.31	0.482
2phj	2wqk	994	994	0.223	0.275	0.163	0.273
2phj	2wqk	995	995	0.823	0.622	0.857	0.842
2phj	2wqk	996	996	0.0	0.0	0.0	0.0
2phj	2wqk	997	997	0.69	0.817	0.659	0.902
2phj	2wqk	998	998	0.512	0.512	0.505	0.492
2phj	2wqk	999	999	0.53	0.532	0.538	0.666
2phj	2wqk	1000	1000	0.025	0.036	0.016	0.018
2phj	2wqk	1001	1001	0.131	0.201	0.179	0.267
2phj	2wqk	1002	1002	0.513	0.537	0.53	0.715
2phj	2wqk	1003	1003	0.251	0.333	0.259	0.304
2phj	2wqk	1004	1004	0.866	0.751	0.835	0.978
2phj	2wqk	1005	1005	0.778	0.868	0.783	0.75
2phj	2wqk	1006	1006	0.8	0.0	0.8	0.0
2phj	2wqk	1007	1007	0.495	0.479	0.491	0.387
2phj	2wqk	1008	1008	0.0	0.009	0.0	0.003
2phj	2wqk	1009	1009	0.117	0.122	0.122	0.157
2phj	2wqk	1010	1010	0.912	0.718	0.939	0.775
2phj	2wqk	1011	1011	0.349	0.371	0.32	0.422
2phj	2wqk	1012	1012	0.752	0.724	0.776	0.247
2phj	2wqk	1013	1013	0.24	0.037	0.26	0.246
2phj	2wqk	1014	1014	0.75	0.4	0.75	0.4
2phj	2wqk	1015	1015	0.289	0.299	0.311	0.323
2phj	2wqk	1016	1016	0.821	0.757	0.796	0.804
2phj	2wqk	1017	1017	0.813	0.845	0.822	0.806
2phj	2wqk	1018	1018	0.0	0.003	0.0	0.004
2phj	2wqk	1019	1019	0.256	0.368	0.271	0.27
2phj	2wqk	1020	1020	0.736	0.801	0.736	0.801
2phj	2wqk	1021	1021	0.311	0.544	0.326	0.4
2phj	2wqk	1022	1022	0.8	0.3	0.8	0.3
2phj	2wqk	1023	1023	0.0	0.0	0.0	0.0
2phj	2wqk	1024	1024	0.029	0.039	0.038	0.041
2phj	2wqk	1025	1025	0.468	0.555	0.454	0.393
2phj	2wqk	1026	1026	0.328	0.315	0.328	0.315
2phj	2wqk	1027	1027	0.136	0.068	0.121	0.247
2phj	2wqk	1028	1028	0.483	0.49	0.475	0.49
2phj	2wqk	1029	1029	0.389	0.501	0.382	0.509
2phj	2wqk	1030	1030	0.077	0.061	0.092	0.088
2phj	2wqk	1031	1031	0.13	0.088	0.133	0.094
2phj	2wqk	1032	1032	0.525	0.353	0.532	0.56
2phj	2wqk	1033	1033	0.539	0.41	0.544	0.476
2phj	2wqk	1034	1034	0.561	0.591	0.561	0.591
2phj	2wqk	1035	1035	0.511	0.703	0.456	0.501
2phj	2wqk	1036	1036	0.542	0.422	0.543	0.589
2phj	2wqk	1037	1037	0.414	0.417	0.411	0.418
2phj	2wqk	1038	1038	0.4	0.342	0.4	0.342
2phj	2wqk	1039	1039	0.123	0.118	0.092	0.09
2phj	2wqk	1040	1040	0.0	0.0	0.0	0.0
2phj	2wqk	1041	1041	0.201	0.266	0.174	0.234
2phj	2wqk	1042	1042	0.059	0.108	0.042	0.081
2phj	2wqk	1043	1043	0.315	0.272	0.308	0.361
2phj	2wqk	1044	1044	0.63	0.62	0.588	0.585
2phj	2wqk	1045	1045	0.0	0.0	0.0	0.0
2phj	2wqk	1046	1046	0.0	0.017	0.0	0.018
2phj	2wqk	1047	1047	0.059	0.08	0.064	0.094
2phj	2wqk	1048	1048	0.0	0.0	0.0	0.012
2phj	2wqk	1049	1049	0.0	0.0	0.0	0.0
2phj	2wqk	1050	1050	0.29	0.313	0.252	0.28
2phj	2wqk	1051	1051	0.044	0.025	0.036	0.127
2phj	2wqk	1052	1052	0.22	0.241	0.174	0.192
2phj	2wqk	1053	1053	0.439	0.52	0.438	0.535
2phj	2wqk	1054	1054	0.451	0.439	0.474	0.441
2phj	2wqk	1055	1055	0.302	0.279	0.342	0.361
2phj	2wqk	1056	1056	0.521	0.496	0.519	0.535
2phj	2wqk	1057	1057	0.859	0.912	0.857	0.911
2phj	2wqk	1058	1058	0.055	0.062	0.03	0.05
2phj	2wqk	1059	1059	0.0	0.0	0.0	0.0
2phj	2wqk	1061	1061	0.187	0.236	0.24	0.258
2phj	2wqk	1062	1062	0.629	0.825	0.652	0.75
2phj	2wqk	1063	1063	0.619	0.745	0.641	0.699
2phj	2wqk	1064	1064	0.406	0.436	0.375	0.379
2phj	2wqk	1065	1065	0.0	0.0	0.0	0.0
2phj	2wqk	1066	1066	0.0	0.0	0.0	0.0
2phj	2wqk	1067	1067	0.26	0.258	0.306	0.563
2phj	2wqk	1068	1068	0.161	0.136	0.195	0.198
2phj	2wqk	1069	1069	0.482	0.515	0.556	0.583
2phj	2wqk	1070	1070	0.535	0.842	0.51	0.858
2phj	2wqk	1071	1071	0.407	0.618	0.431	0.644
2phj	2wqk	1072	1072	0.067	0.123	0.041	0.065
2phj	2wqk	1073	1073	0.588	0.521	0.589	0.521
2phj	2wqk	1074	1074	0.364	0.439	0.435	0.598
2phj	2wqk	1075	1075	0.517	0.749	0.504	0.644
2phj	2wqk	1076	1076	0.706	0.851	0.396	0.375
2phj	2wqk	1077	1077	0.679	0.771	0.735	0.69
2phj	2wqk	1078	1078	0.764	0.76	0.737	0.807
2phj	2wqk	1079	1079	0.0	0.003	0.0	0.003
2phj	2wqk	1080	1080	0.49	0.711	0.492	0.598
2phj	2wqk	1081	1081	0.772	0.89	0.771	0.89
2phj	2wqk	1082	1082	0.461	0.437	0.474	0.48
2phj	2wqk	1084	1084	0.126	0.115	0.198	0.191
2phj	2wqk	1086	1086	0.0	0.0	0.0	0.0
2phj	2wqk	1087	1087	0.755	0.602	0.729	0.813
2phj	2wqk	1088	1088	0.651	0.667	0.828	0.707
2phj	2wqk	1089	1089	0.408	0.58	0.412	0.705
2phj	2wqk	1090	1090	0.355	0.174	0.337	0.251
2phj	2wqk	1092	1092	0.491	0.519	0.501	0.649
2phj	2wqk	1093	1093	0.523	0.546	0.455	0.515
2phj	2wqk	1094	1094	0.467	0.417	0.451	0.341
2phj	2wqk	1095	1095	0.0	0.045	0.0	0.007
2phj	2wqk	1096	1096	0.105	0.228	0.126	0.184
2phj	2wqk	1097	1097	0.732	0.673	0.748	0.54
2phj	2wqk	1098	1098	0.264	0.284	0.201	0.185
2phj	2wqk	1099	1099	0.427	0.663	0.453	0.756
2phj	2wqk	1100	1100	0.738	0.744	0.738	0.744
2phj	2wqk	1101	1101	0.754	0.624	0.757	0.816
2phj	2wqk	1102	1102	0.542	0.629	0.578	0.582
2phj	2wqk	1103	1103	0.251	0.274	0.251	0.274
2phj	2wqk	1104	1104	0.342	0.382	0.341	0.382
2phj	2wqk	1105	1105	0.253	0.437	0.226	0.293
2phj	2wqk	1106	1106	0.499	0.624	0.508	0.498
2phj	2wqk	1107	1107	0.707	0.707	0.707	0.707
2phj	2wqk	1108	1108	0.345	0.292	0.461	0.415
2phj	2wqk	1110	1110	0.423	0.473	0.423	0.473
2phj	2wqk	1111	1111	0.334	0.352	0.413	0.489
2phj	2wqk	1112	1112	0.425	0.698	0.423	0.698
2phj	2wqk	1113	1113	0.262	0.271	0.179	0.181
2phj	2wqk	1114	1114	0.811	0.839	0.82	0.793
2phj	2wqk	1115	1115	0.457	0.49	0.463	0.508
2phj	2wqk	1116	1116	0.289	0.296	0.339	0.355
2phj	2wqk	1117	1117	0.43	0.445	0.397	0.334
2phj	2wqk	1118	1118	0.609	0.776	0.688	0.772
2phj	2wqk	1119	1119	0.517	0.622	0.465	0.724
2phj	2wqk	1120	1120	0.0	0.0	0.0	0.001
2phj	2wqk	1121	1121	0.771	0.657	0.771	0.657
2phj	2wqk	1122	1122	0.347	0.447	0.237	0.284
2phj	2wqk	1123	1123	0.0	0.0	0.0	0.0
2phj	2wqk	1124	1124	0.0	0.0	0.0	0.0
2phj	2wqk	1125	1125	0.162	0.315	0.192	0.323
2phj	2wqk	1126	1126	0.155	0.295	0.149	0.285
2phj	2wqk	1127	1127	0.929	0.844	0.932	0.947
2phj	2wqk	1128	1128	0.0	0.0	0.0	0.0
2phj	2wqk	1129	1129	0.0	0.0	0.0	0.0
2phj	2wqk	1130	1130	0.596	0.702	0.582	0.712
2phj	2wqk	1131	1131	0.297	0.459	0.317	0.509
2phj	2wqk	1132	1132	0.397	0.297	0.357	0.291
2phj	2wqk	1133	1133	0.102	0.129	0.062	0.078
2phj	2wqk	1134	1134	0.493	0.54	0.537	0.574
2phj	2wqk	1135	1135	0.792	0.901	0.765	0.765
2phj	2wqk	1136	1136	0.0	0.0	0.0	0.0
2phj	2wqk	1137	1137	0.0	0.0	0.0	0.0
2phj	2wqk	1138	1138	0.748	0.741	0.746	0.741
2phj	2wqk	1139	1139	0.031	0.091	0.03	0.053
2phj	2wqk	1140	1140	0.0	0.0	0.0	0.0
2phj	2wqk	1141	1141	0.0	0.003	0.0	0.005
2phj	2wqk	1142	1142	0.079	0.09	0.082	0.164
2phj	2wqk	1143	1143	0.425	0.376	0.371	0.398
2phj	2wqk	1144	1144	0.561	0.711	0.562	0.711
2phj	2wqk	1145	1145	0.051	0.067	0.064	0.022
2phj	2wqk	1146	1146	0.0	0.0	0.0	0.0
2phj	2wqk	1147	1147	0.0	0.0	0.0	0.003
2phj	2wqk	1148	1148	0.427	0.337	0.455	0.517
2phj	2wqk	1149	1149	0.046	0.108	0.104	0.138
2phj	2wqk	1150	1150	0.302	0.294	0.306	0.395
2phj	2wqk	1151	1151	0.382	0.366	0.409	0.437
2phj	2wqk	1152	1152	0.319	0.369	0.333	0.418
2phj	2wqk	1153	1153	0.329	0.341	0.279	0.28
2phj	2wqk	1154	1154	0.749	0.714	0.751	0.741
2phj	2wqk	1155	1155	0.247	0.409	0.285	0.245
2phj	2wqk	1156	1156	0.398	0.465	0.386	0.411
2phj	2wqk	1157	1157	0.509	0.528	0.526	0.613
2phj	2wqk	1158	1158	0.062	0.09	0.102	0.092
2phj	2wqk	1159	1159	0.0	0.0	0.0	0.0
2phj	2wqk	1160	1160	0.0	0.008	0.002	0.004
2phj	2wqk	1161	1161	0.037	0.063	0.04	0.027
2phj	2wqk	1162	1162	0.599	0.468	0.57	0.484
2phj	2wqk	1163	1163	0.197	0.233	0.199	0.323
2phj	2wqk	1164	1164	0.034	0.017	0.032	0.023
2phj	2wqk	1165	1165	0.0	0.014	0.0	0.036
2phj	2wqk	1166	1166	0.162	0.192	0.15	0.162
2phj	2wqk	1167	1167	0.545	0.716	0.542	0.737
2phj	2wqk	1168	1168	0.464	0.612	0.486	0.582
2phj	2wqk	1169	1169	0.031	0.024	0.041	0.048
2phj	2wqk	1170	1170	0.706	0.816	0.733	0.854
2phj	2wqk	1171	1171	0.22	0.161	0.194	0.187
2phj	2wqk	1172	1172	0.604	0.197	0.6	0.239
2phj	2wqk	1173	1173	1.0	0	1.0	0
2phj	2wqk	1174	1174	0.094	0.158	0.09	0.266
2phj	2wqk	1175	1175	0.0	0.0	0.0	0.0
2phj	2wqk	1176	1176	0.0	0.006	0.0	0.028
2phj	2wqk	1177	1177	0.05	0.097	0.093	0.107
2phj	2wqk	1178	1178	0.322	0.331	0.33	0.349
2phj	2wqk	1179	1179	0.0	0.0	0.0	0.0
2phj	2wqk	1180	1180	0.49	0.506	0.518	0.623
2phj	2wqk	1181	1181	0.428	0.439	0.405	0.297
2phj	2wqk	1182	1182	0.038	0.037	0.048	0.048
2phj	2wqk	1183	1183	0.256	0.248	0.25	0.276
2phj	2wqk	1184	1184	0.0	0.004	0.0	0.0
2phj	2wqk	1185	1185	0.0	0.024	0.0	0.014
2phj	2wqk	1186	1186	0.119	0.189	0.115	0.213
2phj	2wqk	1187	1187	0.23	0.247	0.201	0.254
2phj	2wqk	1188	1188	0.55	0.737	0.562	0.652
2phj	2wqk	1189	1189	0.524	0.515	0.511	0.734
2phj	2wqk	1190	1190	0.864	0.843	0.864	0.897
2phj	2wqk	1191	1191	0.683	0.733	0.673	0.834
2phj	2wqk	1192	1192	0.224	0.211	0.222	0.186
2phj	2wqk	1193	1193	0.036	0.034	0.085	0.093
2phj	2wqk	1195	1195	0.135	0.149	0.151	0.165
2phj	2wqk	1196	1196	0.405	0.393	0.382	0.336
2phj	2wqk	1197	1197	0.261	0.234	0.183	0.138
2phj	2wqk	1198	1198	0.595	0.721	0.58	0.695
2phj	2wqk	1199	1199	1.0	0	1.0	0
2phj	2wqk	1200	1200	0.62	0.765	0.651	0.333
2phj	2wqk	1201	1201	0.778	0.748	0.729	0.657
2phj	2wqk	1202	1202	0.432	0.774	0.424	0.417
2phj	2wqk	1203	1203	0.533	0.542	0.543	0.546
2phj	2wqk	1204	1204	0.717	0.719	0.721	0.618
2phj	2wqk	1205	1205	0.662	0.881	0.656	0.459
2phj	2wqk	1206	1206	0.767	0.861	0.767	0.861
2phj	2wqk	1207	1207	0.85	0.875	0.852	0.875
2phj	2wqk	1208	1208	0.835	0.9	0.833	0.9
2phj	2wqk	1209	1209	0.853	0.724	0.919	0.881
2phj	2wqk	1210	1210	0.059	0.073	0.071	0.084
2phj	2wqk	1211	1211	0.149	0.18	0.143	0.154
2phj	2wqk	1212	1212	0.694	0.35	0.694	0.35
2phj	2wqk	1213	1213	0.111	0.112	0.111	0.113
2phj	2wqk	1214	1214	0.59	0.294	0.623	0.445
2phj	2wqk	1216	1216	0.793	0.86	0.613	0.655
2phj	2wqk	1219	1219	0.032	0.009	0.081	0.055
2phj	2wqk	1222	1222	0.0	0.0	0.0	0.0
2phj	2wqk	1224	1224	0.047	0.03	0.057	0.095
2phj	2wqk	1225	1225	0.0	0.031	0.0	0.056
2phj	2wqk	1226	1226	0.628	0.659	0.617	0.654
2phj	2wqk	1227	1227	0.0	0.0	0.0	0.0
2phj	2wqk	1228	1228	0.677	0.55	0.668	0.55
2phj	2wqk	1229	1229	0.757	0.635	0.765	0.635
2phj	2wqk	1230	1230	0.566	0.427	0.567	0.427
2phj	2wqk	1231	1231	0.413	0.459	0.414	0.445
2phj	2wqk	1232	1232	0.772	0.782	0.782	0.798
2phj	2wqk	1233	1233	0.514	0.689	0.574	0.536
2phj	2wqk	1234	1234	1.0	0	1.0	0
2phj	2wqk	1235	1235	0.767	0.877	0.768	0.877
2phj	2wqk	1236	1236	0.412	0.538	0.429	0.612
2phj	2wqk	1237	1237	0.707	0.809	0.704	0.809
2phj	2wqk	1238	1238	0.79	0.533	0.777	0.525
2phj	2wqk	1239	1239	0.0	0.0	0.0	0.0
2phj	2wqk	1240	1240	0.463	0.557	0.5	0.605
2phj	2wqk	1241	1241	0.706	0.878	0.691	0.696
2phj	2wqk	1242	1242	0.281	0.539	0.264	0.356
2phj	2wqk	1243	1243	0.031	0.031	0.06	0.06
2phj	2wqk	1244	1244	0.317	0.341	0.387	0.482
2phj	2wqk	1246	1246	0.738	0.799	0.696	0.618
2phj	2wqk	1247	1247	0.506	0.543	0.51	0.54
2phj	2wqk	1248	1248	0.728	0.6	0.729	0.6
2phj	2wqk	1249	1249	0.546	0.505	0.546	0.505
2phj	2wqk	1250	1250	0.753	0.872	0.766	0.896
2phj	2wqk	1251	1251	0.492	0.575	0.42	0.409
2phj	2wqk	1252	1252	0.707	0.844	0.682	0.818
2phj	2wqk	1253	1253	0.0	0.001	0.004	0.005
2phj	2wqk	1254	1254	0.167	0.196	0.141	0.153
2phj	2wqk	1255	1255	0.594	0.588	0.595	0.589
2phj	2wqk	1256	1256	0.703	0.766	0.703	0.766
2phj	2wqk	1257	1257	0.606	0.62	0.641	0.634
2phj	2wqk	1258	1258	0.076	0.085	0.045	0.036
2phj	2wqk	1259	1259	0.354	0.364	0.425	0.554
2phj	2wqk	1260	1260	0.595	0.747	0.595	0.747
2phj	2wqk	1261	1261	0.871	0.852	0.876	0.787
2phj	2wqk	1262	1262	0.233	0.165	0.237	0.225
2phj	2wqk	1263	1263	0.636	0.756	0.595	0.632
2phj	2wqk	1264	1264	0.78	0.716	0.79	0.731
2phj	2wqk	1265	1265	0.822	0.631	0.819	0.625
2phj	2wqk	1266	1266	0.0	0.0	0.0	0.0
2phj	2wqk	1267	1267	0.0	0.0	0.0	0.0
2phj	2wqk	1268	1268	0.401	0.5	0.4	0.5
2phj	2wqk	1269	1269	0.483	0.527	0.498	0.377
2phj	2wqk	1270	1270	0.381	0.478	0.38	0.478
2phj	2wqk	1271	1271	0.033	0.004	0.037	0.112
2phj	2wqk	1272	1272	0.0	0.0	0.0	0.0
2phj	2wqk	1273	1273	0.0	0.0	0.0	0.0
2phj	2wqk	1274	1274	0.606	0.624	0.571	0.596
2phj	2wqk	1275	1275	0.363	0.286	0.363	0.286
2phj	2wqk	1276	1276	0.334	0.274	0.33	0.379
2phj	2wqk	1277	1277	0.613	0.659	0.579	0.631
2phj	2wqk	1278	1278	0.0	0.0	0.0	0.0
2phj	2wqk	1279	1279	0.0	0.0	0.0	0.0
2phj	2wqk	1280	1280	0.361	0.377	0.358	0.41
2phj	2wqk	1281	1281	0.346	0.356	0.362	0.397
2phj	2wqk	1282	1282	1.0	0	1.0	0
2phj	2wqk	1283	1283	0.928	0.983	0.881	0.962
2phj	2wqk	1284	1284	0.936	0.95	1.0	1.0
2phj	2wqk	1285	1285	0.656	0.685	0.641	0.678
2phj	2wqk	1286	1286	0.155	0.183	0.11	0.137
2phj	2wqk	1287	1287	0.131	0.127	0.157	0.173
2phj	2wqk	1288	1288	0.012	0.008	0.037	0.041
2phj	2wqk	1289	1289	0.087	0.07	0.098	0.079
2phj	2wqk	1290	1290	0.038	0.034	0.023	0.138
2phj	2wqk	1291	1291	0.775	0.792	0.829	0.839
2phj	2wqk	1292	1292	0.638	0.654	0.626	0.757
2phj	2wqk	1293	1293	0.3	0.341	0.245	0.209
2phj	2wqk	1294	1294	0.858	0.808	0.858	0.808
2phj	2wqk	1295	1295	1.0	0	1.0	0
2phj	2wqk	1296	1296	0.037	0.055	0.039	0.061
2phj	2wqk	1297	1297	0.854	0.909	0.85	0.831
2phj	2wqk	1298	1298	0.418	0.604	0.443	0.445
2phj	2wqk	1299	1299	0.709	0.73	0.716	0.782
2phj	2wqk	1300	1300	0.096	0.15	0.106	0.201
2phj	2wqk	1301	1301	0.647	0.53	0.689	0.671
2phj	2wqk	1302	1302	0.124	0.112	0.103	0.1
2phj	2wqk	1303	1303	0.899	0.842	0.908	0.871
2phj	2wqk	1304	1304	0.893	0.676	0.893	0.899
2phj	2wqk	1305	1305	0.133	0.115	0.102	0.083
2phj	2wqk	1306	1306	0.23	0.307	0.192	0.121
2phj	2wqk	1307	1307	0.31	0.315	0.289	0.208
2phj	2wqk	1308	1308	1.0	0.5	0.9	0.8
2phj	2wqk	1309	1309	0.246	0.261	0.215	0.221
2phj	2wqk	1310	1310	0.579	0.65	0.605	0.676
2phj	2wqk	1311	1311	0.846	0.745	0.861	0.942
2phj	2wqk	1312	1312	0.78	0.775	0.775	0.809
2phj	2wqk	1313	1313	0.213	0.285	0.219	0.298
2phj	2wqk	1314	1314	0.867	0.633	0.919	0.9
2phj	2wqk	1315	1315	0.363	0.443	0.393	0.473
2phj	2wqk	1316	1316	0.0	0.0	0.0	0.0
2phj	2wqk	1317	1317	0.078	0.087	0.076	0.099
2phj	2wqk	1318	1318	0.176	0.22	0.149	0.136
2phj	2wqk	1319	1319	0.042	0.069	0.044	0.1
2phj	2wqk	1320	1320	0.458	0.53	0.426	0.403
2phj	2wqk	1321	1321	0.172	0.135	0.159	0.183
2phj	2wqk	1322	1322	0.533	0.509	0.534	0.518
2phj	2wqk	1323	1323	0.604	0.532	0.587	0.701
2phj	2wqk	1324	1324	0.909	0.947	0.904	0.944
2phj	2wqk	1325	1325	0.86	0.89	0.888	0.919
2phj	2wqk	1326	1326	0.855	0.912	0.855	0.912
2phj	2wqk	1327	1327	0.744	0.819	0.746	0.819
2phj	2wqk	1328	1328	0.0	0.0	0.0	0.0
2phj	2wqk	1330	1330	0.576	0.437	0.575	0.722
2phj	2wqk	1331	1331	0.537	0.458	0.566	0.285
2phj	2wqk	1332	1332	0.0	0.0	0.0	0.0
2phj	2wqk	1333	1333	0.507	0.49	0.484	0.433
2phj	2wqk	1334	1334	0.592	0.5	0.612	0.2
2phj	2wqk	1335	1335	0.241	0.318	0.239	0.233
2phj	2wqk	1336	1336	0.544	0.565	0.473	0.49
2phj	2wqk	1337	1337	0.0	0.0	0.0	0.0
2phj	2wqk	1338	1338	0.0	0.003	0.0	0.0
2phj	2wqk	1339	1339	0.15	0.126	0.171	0.264
2phj	2wqk	1340	1340	0.309	0.404	0.314	0.411
2phj	2wqk	1341	1341	0.082	0.116	0.063	0.058
2phj	2wqk	1342	1342	0.277	0.278	0.266	0.297
2phj	2wqk	1343	1343	0.724	0.588	0.712	0.538
2phj	2wqk	1344	1344	0.0	0.0	0.0	0.003
2phj	2wqk	1345	1345	0.0	0.0	0.0	0.0
2phj	2wqk	1346	1346	0.085	0.105	0.086	0.165
2phj	2wqk	1347	1347	0.453	0.628	0.432	0.525
2phj	2wqk	1348	1348	0.162	0.086	0.155	0.152
2phj	2wqk	1349	1349	0.0	0.0	0.0	0.0
2phj	2wqk	1350	1350	0.673	0.503	0.681	0.445
2phj	2wqk	1351	1351	0.372	0.443	0.401	0.491
2phj	2wqk	1352	1352	0.759	0.809	0.755	0.852
2phj	2wqk	1353	1353	0.121	0.165	0.139	0.137
2phj	2wqk	1355	1355	0.817	0.883	0.816	0.883
2phj	2wqk	1356	1356	0.015	0.015	0.017	0.019
2phj	2wqk	1357	1357	0.07	0.061	0.063	0.023
2phj	2wqk	1358	1358	0.267	0.243	0.294	0.368
2phj	2wqk	1359	1359	0.231	0.327	0.201	0.356
2phj	2wqk	1360	1360	0.0	0.0	0.0	0.0
2phj	2wqk	1361	1361	0.258	0.404	0.252	0.127
2phj	2wqk	1362	1362	0.312	0.351	0.308	0.339
2phj	2wqk	1363	1363	0.0	0.0	0.0	0.0
2phj	2wqk	1364	1364	0.0	0.0	0.0	0.0
2phj	2wqk	1365	1365	0.0	0.0	0.0	0.0
2phj	2wqk	1366	1366	0.064	0.04	0.065	0.032
2phj	2wqk	1367	1367	0.0	0.024	0.0	0.019
2phj	2wqk	1368	1368	0.091	0.077	0.102	0.11
2phj	2wqk	1369	1369	0.0	0.0	0.0	0.0
2phj	2wqk	1370	1370	0.0	0.023	0.0	0.024
2phj	2wqk	1371	1371	0.091	0.146	0.076	0.1
2phj	2wqk	1372	1372	0.0	0.0	0.0	0.0
2phj	2wqk	1373	1373	0.0	0.0	0.0	0.0
2phj	2wqk	1374	1374	0.0	0.062	0.018	0.03
2phj	2wqk	1375	1375	0.03	0.054	0.023	0.132
2phj	2wqk	1376	1376	0.146	0.144	0.208	0.248
2phj	2wqk	1377	1377	0.24	0.26	0.186	0.151
2phj	2wqk	1378	1378	0.1	0.104	0.137	0.148
2phj	2wqk	1379	1379	0.379	0.084	0.375	0.645
2phj	2wqk	1380	1380	0.488	0.547	0.475	0.763
2phj	2wqk	1381	1381	0.798	0.639	0.802	0.748
2phj	2wqk	1382	1382	0.874	0.606	0.897	0.719
2phj	2wqk	1383	1383	0.679	0.467	0.676	0.784
2phj	2wqk	1384	1384	0.0	0.0	0.0	0.0
2phj	2wqk	1385	1385	0.105	0.168	0.089	0.112
2phj	2wqk	1386	1386	0.351	0.498	0.301	0.426
2phj	2wqk	1387	1387	0.249	0.31	0.236	0.369
2phj	2wqk	1388	1388	0.003	0.003	0.008	0.01
2phj	2wqk	1389	1389	0.0	0.0	0.0	0.0
2phj	2wqk	1390	1390	0.0	0.0	0.0	0.0
2phj	2wqk	1391	1391	0.448	0.546	0.422	0.415
2phj	2wqk	1392	1392	0.069	0.15	0.102	0.177
2phj	2wqk	1393	1393	0.197	0.217	0.205	0.201
2phj	2wqk	1394	1394	0.646	0.736	0.613	0.505
2phj	2wqk	1395	1395	0.0	0.0	0.0	0.0
2phj	2wqk	1396	1396	0.566	0.612	0.566	0.568
2phj	2wqk	1397	1397	0.678	0.755	0.684	0.718
2phj	2wqk	1398	1398	0.581	0.637	0.564	0.618
2phj	2wqk	1399	1399	0.479	0.64	0.465	0.498
2phj	2wqk	1400	1400	0.633	0.402	0.632	0.425
2phj	2wqk	1401	1401	0.328	0.32	0.341	0.38
2phj	2wqk	1402	1402	0.217	0.218	0.216	0.246
2phj	2wqk	1403	1403	0.0	0.0	0.0	0.0
2phj	2wqk	1404	1404	0.331	0.404	0.278	0.21
2phj	2wqk	1405	1405	0.279	0.24	0.334	0.339
2phj	2wqk	1407	1407	0.5	0.361	0.507	0.305
2phj	2wqk	1408	1408	0.645	0.882	0.624	0.729
2phj	2wqk	1409	1409	1.0	0	1.0	0
2phj	2wqk	1410	1410	0.03	0.061	0.049	0.046
2phj	2wqk	1411	1411	0.176	0.257	0.215	0.207
2phj	2wqk	1412	1412	0.879	0.961	0.853	0.936
2phj	2wqk	1413	1413	0.699	0.911	0.677	0.888
2phj	2wqk	1414	1414	0.264	0.261	0.299	0.305
2phj	2wqk	1415	1415	0.182	0.197	0.237	0.257
2phj	2wqk	1416	1416	0.58	0.702	0.605	0.758
2phj	2wqk	1417	1417	0.141	0.121	0.144	0.223
2phj	2wqk	1418	1418	0.327	0.391	0.318	0.356
2phj	2wqk	1419	1419	0.406	0.468	0.393	0.424
2phj	2wqk	1420	1420	0.289	0.256	0.251	0.237
2phj	2wqk	1421	1421	0.513	0.552	0.517	0.54
2phj	2wqk	1422	1422	0.275	0.288	0.248	0.304
2phj	2wqk	1423	1423	0.0	0.0	0.0	0.0
2phj	2wqk	1424	1424	0.0	0.0	0.0	0.0
2phj	2wqk	1425	1425	0.357	0.515	0.402	0.453
2phj	2wqk	1426	1426	0.166	0.133	0.145	0.193
2phj	2wqk	1427	1427	0.024	0.011	0.01	0.009
2phj	2wqk	1428	1428	0.204	0.171	0.202	0.171
2phj	2wqk	1429	1429	0.833	0.894	0.836	0.897
2phj	2wqk	1430	1430	0.0	0.0	0.0	0.0
2phj	2wqk	1431	1431	0.06	0.05	0.066	0.05
2phj	2wqk	1432	1432	0.343	0.429	0.381	0.413
2phj	2wqk	1433	1433	0.0	0.06	0.008	0.064
2phj	2wqk	1434	1434	0.144	0.303	0.128	0.175
2phj	2wqk	1435	1435	0.881	0.871	0.894	0.863
2phj	2wqk	1436	1436	0.705	0.735	0.663	0.78
2phj	2wqk	1437	1437	0.182	0.175	0.18	0.125
2phj	2wqk	1438	1438	0.084	0.063	0.088	0.045
2phj	2wqk	1439	1439	0.144	0.216	0.175	0.174
2phj	2wqk	1440	1440	0.248	0.251	0.242	0.26
2phj	2wqk	1441	1441	0.388	0.508	0.382	0.493
2phj	2wqk	1442	1442	0.192	0.25	0.176	0.252
2phj	2wqk	1443	1443	0.122	0.126	0.151	0.149
2phj	2wqk	1444	1444	0.893	0.877	0.903	0.956
2phj	2wqk	1445	1445	0.676	0.688	0.703	0.824
2phj	2wqk	1446	1446	0.291	0.278	0.282	0.07
2phj	2wqk	1447	1447	0.0	0.003	0.0	0.011
2phj	2wqk	1448	1448	0.246	0.288	0.226	0.245
2phj	2wqk	1449	1449	0.629	0.678	0.637	0.731
2phj	2wqk	1450	1450	0.179	0.199	0.186	0.203
2phj	2wqk	1451	1451	0.304	0.326	0.347	0.351
2phj	2wqk	1452	1452	0.618	0.653	0.474	0.495
2phj	2wqk	1453	1453	0.374	0.447	0.387	0.448
2phj	2wqk	1454	1454	0.373	0.325	0.358	0.383
2phj	2wqk	1455	1455	0.156	0.162	0.149	0.159
2phj	2wqk	1456	1456	0.82	0.849	0.805	0.858
2phj	2wqk	1457	1457	0.65	0.67	0.676	0.725
2phj	2wqk	1458	1458	0.876	0.923	0.89	0.975
2phj	2wqk	1459	1459	0.0	0.0	0.0	0.0
2phj	2wqk	1460	1460	0.678	0.719	0.662	0.836
2phj	2wqk	1461	1461	0.79	0.782	0.812	0.825
2phj	2wqk	1462	1462	0.625	0.736	0.64	0.785
2phj	2wqk	1463	1463	0.217	0.183	0.195	0.155
2phj	2wqk	1464	1464	0.232	0.265	0.256	0.314
2phj	2wqk	1465	1465	0.429	0.426	0.447	0.488
2phj	2wqk	1466	1466	0.516	0.676	0.468	0.576
2phj	2wqk	1467	1467	0.0	0.0	0.0	0.0
2phj	2wqk	1468	1468	0.152	0.138	0.17	0.184
2phj	2wqk	1469	1469	0.015	0.047	0.025	0.09
2phj	2wqk	1470	1470	0.25	0.399	0.301	0.383
2phj	2wqk	1471	1471	0.525	0.648	0.52	0.644
2phj	2wqk	1472	1472	0.845	0.952	0.859	0.928
2phj	2wqk	1473	1473	0.0	0.0	0.0	0.0
2phj	2wqk	1474	1474	0.0	0.0	0.0	0.0
2phj	2wqk	1475	1475	0.183	0.126	0.253	0.247
2phj	2wqk	1476	1476	0.35	0.477	0.379	0.285
2phj	2wqk	1477	1477	0.179	0.185	0.198	0.223
2phj	2wqk	1478	1478	0.894	0.873	0.916	0.918
2phj	2wqk	1479	1479	0.0	0.0	0.0	0.0
2phj	2wqk	1480	1480	0.308	0.391	0.302	0.394
2phj	2wqk	1481	1481	0.0	0.0	0.0	0.0
2phj	2wqk	1482	1482	0.327	0.496	0.322	0.542
2phj	2wqk	1483	1483	0.516	0.376	0.518	0.415
2phj	2wqk	1484	1484	0.553	0.61	0.582	0.59
2phj	2wqk	1485	1485	0.002	0.041	0.0	0.016
2phj	2wqk	1486	1486	0.0	0.08	0.0	0.055
2phj	2wqk	1487	1487	0.083	0.12	0.096	0.149
2phj	2wqk	1488	1488	0.74	0.82	0.742	0.398
2phj	2wqk	1489	1489	0.886	0.781	0.901	0.754
2phj	2wqk	1490	1490	0.0	0.0	0.0	0.0
2phj	2wqk	1491	1491	0.089	0.115	0.063	0.097
2phj	2wqk	1492	1492	0.252	0.197	0.274	0.102
2phj	2wqk	1493	1493	0.638	0.79	0.638	0.732
2phj	2wqk	1494	1494	0.128	0.163	0.111	0.12
2phj	2wqk	1495	1495	0.26	0.428	0.238	0.253
2phj	2wqk	1496	1496	0.334	0.426	0.37	0.388
2phj	2wqk	1497	1497	0.372	0.386	0.378	0.39
2phj	2wqk	1498	1498	0.348	0.393	0.325	0.312
2phj	2wqk	1499	1499	0.508	0.676	0.484	0.531
2phj	2wqk	1500	1500	0.4	0.531	0.433	0.552
2phj	2wqk	1501	1501	0.828	0.752	0.822	0.784
2phj	2wqk	1502	1502	0.858	0.827	0.865	0.837
2phj	2wqk	1503	1503	0.363	0.414	0.371	0.346
2phj	2wqk	1504	1504	0.549	0.591	0.511	0.603
2phj	2wqk	1505	1505	0.684	0.845	0.648	0.86
2phj	2wqk	1506	1506	0.329	0.399	0.304	0.49
2phj	2wqk	1509	1509	0.107	0.087	0.017	0.093
2phj	2wqk	1513	1513	0.819	0.929	0.853	0.884
2phj	2wqk	1514	1514	0.207	0.282	0.202	0.275
2phj	2wqk	1516	1516	0.887	0.987	0.946	0.979
2phj	2wqk	1517	1517	0.822	0.61	0.821	0.612
2phj	2wqk	1518	1518	0.871	0.896	0.879	0.9
2phj	2wqk	1519	1519	0.014	0.001	0.013	0.0
2phj	2wqk	1520	1520	0.205	0.205	0.205	0.251
2phj	2wqk	1521	1521	0.379	0.438	0.372	0.5
2phj	2wqk	1522	1522	1.0	0	1.0	0
2phj	2wqk	1523	1523	0.371	0.419	0.422	0.46
2phj	2wqk	1524	1524	0.019	0.057	0.019	0.038
2phj	2wqk	1525	1525	0.024	0.121	0.021	0.04
2phj	2wqk	1526	1526	0.0	0.069	0.0	0.037
2phj	2wqk	1527	1527	0.174	0.253	0.259	0.32
2phj	2wqk	1528	1528	0.124	0.116	0.15	0.152
2phj	2wqk	1529	1529	0.042	0.144	0.06	0.066
2phj	2wqk	1530	1530	0.574	0.589	0.539	0.65
2phj	2wqk	1531	1531	0.533	0.565	0.522	0.731
2phj	2wqk	1532	1532	0.891	0.918	0.896	0.921
2phj	2wqk	1533	1533	0.446	0.597	0.516	0.647
2phj	2wqk	1534	1534	0.553	0.455	0.53	0.666
2phj	2wqk	1535	1535	0.554	0.463	0.54	0.534
2phj	2wqk	1536	1536	0.268	0.228	0.284	0.243
2phj	2wqk	1537	1537	0.229	0.226	0.238	0.199
2phj	2wqk	1538	1538	0.419	0.489	0.435	0.456
2phj	2wqk	1539	1539	0.224	0.348	0.238	0.441
2phj	2wqk	1540	1540	0.562	0.668	0.567	0.695
2phj	2wqk	1541	1541	0.416	0.442	0.451	0.536
2phj	2wqk	1542	1542	0.172	0.156	0.154	0.135
2phj	2wqk	1543	1543	0.597	0.782	0.599	0.782
2phj	2wqk	1544	1544	0.015	0.013	0.031	0.041
2phj	2wqk	1545	1545	0.0	0.0	0.0	0.0
2phj	2wqk	1546	1546	0.0	0.0	0.0	0.0
2phj	2wqk	1547	1547	0.0	0.0	0.0	0.0
2phj	2wqk	1548	1548	0.0	0.012	0.0	0.046
2phj	2wqk	1549	1549	0.024	0.041	0.025	0.031
2phj	2wqk	1550	1550	0.01	0.019	0.006	0.014
2phj	2wqk	1551	1551	0.101	0.121	0.123	0.146
2phj	2wqk	1552	1552	0.398	0.492	0.398	0.492
2phj	2wqk	1553	1553	0.9	0.7	0.9	0.7
2phj	2wqk	1554	1554	0.102	0.123	0.052	0.04
2phj	2wqk	1555	1555	0.281	0.255	0.267	0.232
2phj	2wqk	1557	1557	0.099	0.116	0.063	0.072
2phj	2wqk	1558	1558	0.45	0.531	0.434	0.407
2phj	2wqk	1559	1559	0.01	0.008	0.007	0.009
2phj	2wqk	1560	1560	0.468	0.471	0.485	0.437
2phj	2wqk	1561	1561	0.239	0.239	0.299	0.292
2phj	2wqk	1562	1562	0.021	0.05	0.021	0.05
2phj	2wqk	1563	1563	0.613	0.587	0.597	0.587
2phj	2wqk	1564	1564	0.84	0.68	0.84	0.68
2phj	2wqk	1565	1565	0.478	0.48	0.478	0.48
2phj	2wqk	1566	1566	0.458	0.456	0.456	0.456
2phj	2wqk	1567	1567	0.466	0.541	0.502	0.416
2phj	2wqk	1568	1568	0.273	0.31	0.246	0.285
2phj	2wqk	1569	1569	0.586	0.613	0.605	0.681
2phj	2wqk	1570	1570	0.0	0.02	0.002	0.005
2phj	2wqk	1571	1571	0.014	0.12	0.026	0.081
2phj	2wqk	1572	1572	0.362	0.359	0.359	0.372
2phj	2wqk	1573	1573	0.0	0.014	0.0	0.0
2phj	2wqk	1574	1574	0.806	0.916	0.845	0.776
2phj	2wqk	1575	1575	0.494	0.543	0.499	0.548
2phj	2wqk	1576	1576	0.656	0.767	0.662	0.682
2phj	2wqk	1577	1577	0.56	0.637	0.558	0.641
2phj	2wqk	1578	1578	0.851	0.842	0.864	0.841
2phj	2wqk	1579	1579	0.139	0.233	0.109	0.119
2phj	2wqk	1580	1580	0.222	0.123	0.274	0.332
2phj	2wqk	1581	1581	0.685	0.867	0.685	0.867
2phj	2wqk	1582	1582	0.645	0.576	0.641	0.507
2phj	2wqk	1583	1583	0.67	0.757	0.658	0.86
2phj	2wqk	1584	1584	0.633	0.0	0.633	0.0
2phj	2wqk	1585	1585	0.316	0.299	0.289	0.335
2phj	2wqk	1586	1586	0.0	0.239	0.009	0.297
2phj	2wqk	1587	1587	0.0	0.0	0.0	0.0
2phj	2wqk	1588	1588	0.2	0.276	0.186	0.244
2phj	2wqk	1589	1589	0.117	0.166	0.137	0.194
2phj	2wqk	1590	1590	0.674	0.738	0.665	0.684
2phj	2wqk	1591	1591	0.832	0.923	0.833	0.923
2phj	2wqk	1592	1592	0.543	0.534	0.533	0.542
2phj	2wqk	1593	1593	0.88	0.873	0.881	0.873
2phj	2wqk	1594	1594	0.132	0.171	0.121	0.188
2phj	2wqk	1595	1595	0.31	0.317	0.314	0.462
2phj	2wqk	1596	1596	0.508	0.526	0.486	0.375
2phj	2wqk	1597	1597	0.539	0.565	0.596	0.855
2phj	2wqk	1598	1598	0.455	0.555	0.496	0.657
2phj	2wqk	1599	1599	0.397	0.466	0.417	0.495
2phj	2wqk	1600	1600	0.568	0.749	0.57	0.761
2phj	2wqk	1601	1601	0.629	0.617	0.646	0.656
2phj	2wqk	1602	1602	0.649	0.734	0.631	0.505
2phj	2wqk	1603	1603	0.46	0.648	0.461	0.684
2phj	2wqk	1604	1604	0.905	0.917	0.912	0.891
2phj	2wqk	1605	1605	0.618	0.295	0.583	0.15
2phj	2wqk	1606	1606	1.0	0.733	1.0	0.8
2phj	2wqk	1607	1607	0.8	0.68	0.812	0.684
2phj	2wqk	1608	1608	0.553	0.49	0.554	0.49
2phj	2wqk	1609	1609	0.846	0.762	0.848	0.752
2phj	2wqk	1610	1610	0.595	0.479	0.604	0.483
2phj	2wqk	1611	1611	0.511	0.772	0.456	0.291
2phj	2wqk	1612	1612	0.455	0.419	0.465	0.36
2phj	2wqk	1613	1613	0.32	0.389	0.336	0.481
2phj	2wqk	1614	1614	0.649	0.636	0.697	0.795
2phj	2wqk	1615	1615	0.806	0.557	0.856	0.815
2phj	2wqk	1616	1616	0.612	0.528	0.583	0.656
2phj	2wqk	1617	1617	0.577	0.585	0.551	0.665
2phj	2wqk	1618	1618	0.251	0.343	0.265	0.341
2phj	2wqk	1619	1619	0.631	0.795	0.639	0.799
2phj	2wqk	1620	1620	0.727	0.635	0.724	0.635
2phj	2wqk	1621	1621	0.554	0.658	0.564	0.601
2phj	2wqk	1622	1622	0.162	0.225	0.171	0.286
2phj	2wqk	1623	1623	0.176	0.126	0.184	0.151
2phj	2wqk	1624	1624	0.342	0.284	0.348	0.297
2phj	2wqk	1625	1625	0.383	0.374	0.332	0.249
2phj	2wqk	1626	1626	0.515	0.509	0.544	0.347
2phj	2wqk	1627	1627	0.822	0.819	0.821	0.817
2phj	2wqk	1628	1628	0.818	0.788	0.812	0.711
2phj	2wqk	1629	1629	0.384	0.568	0.427	0.652
2phj	2wqk	1630	1630	0.057	0.133	0.056	0.131
2phj	2wqk	1631	1631	0.767	0.757	0.653	0.533
2phj	2wqk	1632	1632	0.841	0.91	0.792	0.89
2phj	2wqk	1633	1633	0.0	0.0	0.0	0.0
2phj	2wqk	1634	1634	0.687	0.677	0.673	0.738
2phj	2wqk	1635	1635	0.611	0.652	0.611	0.652
2phj	2wqk	1636	1636	0.667	0.666	0.638	0.734
2phj	2wqk	1637	1637	0.471	0.513	0.482	0.53
2phj	2wqk	1638	1638	0.0	0.0	0.0	0.005
2phj	2wqk	1639	1639	0.669	0.719	0.696	0.695
2phj	2wqk	1640	1640	0.5	0.609	0.472	0.596
2phj	2wqk	1641	1641	0.21	0.593	0.253	0.66
2phj	2wqk	1642	1642	0.0	0.0	0.004	0.005
2phj	2wqk	1643	1643	0.0	0.0	0.0	0.0
2phj	2wqk	1644	1644	0.017	0.0	0.034	0.019
2phj	2wqk	1645	1645	0.563	0.692	0.562	0.592
2phj	2wqk	1646	1646	0.151	0.144	0.168	0.159
2phj	2wqk	1647	1647	0.059	0.061	0.062	0.06
2phj	2wqk	1648	1648	0.344	0.294	0.394	0.335
2phj	2wqk	1649	1649	0.0	0.0	0.0	0.0
2phj	2wqk	1650	1650	0.606	0.486	0.592	0.839
2phj	2wqk	1651	1651	0.896	0.844	0.829	0.852
2phj	2wqk	1652	1652	0.398	0.48	0.43	0.616
2phj	2wqk	1653	1653	0.013	0.032	0.0	0.05
2phj	2wqk	1654	1654	0.032	0.056	0.041	0.1
2phj	2wqk	1655	1655	0.212	0.218	0.227	0.207
2phj	2wqk	1656	1656	0.03	0.012	0.04	0.03
2phj	2wqk	1657	1657	0.01	0.071	0.0	0.033
2phj	2wqk	1658	1658	0.478	0.638	0.442	0.643
2phj	2wqk	1659	1659	0.437	0.453	0.476	0.421
2phj	2wqk	1660	1660	0.155	0.134	0.153	0.134
2phj	2wqk	1661	1661	0.506	0.487	0.506	0.488
2phj	2wqk	1662	1662	0.579	0.632	0.581	0.549
2phj	2wqk	1663	1663	0.022	0.031	0.018	0.075
2phj	2wqk	1664	1664	0.0	0.047	0.0	0.031
2phj	2wqk	1665	1665	0.0	0.009	0.0	0.008
2phj	2wqk	1666	1666	0.063	0.058	0.096	0.101
2phj	2wqk	1667	1667	0.385	0.396	0.385	0.396
2phj	2wqk	1668	1668	0.839	0.79	0.839	0.79
2phj	2wqk	1669	1669	0.315	0.284	0.309	0.415
2phj	2wqk	1670	1670	0.683	0.839	0.697	0.73
2phj	2wqk	1671	1671	0.802	0.691	0.822	0.688
2phj	2wqk	1672	1672	0.036	0.158	0.05	0.052
2phj	2wqk	1673	1673	0.334	0.173	0.292	0.475
2phj	2wqk	1674	1674	0.315	0.362	0.294	0.44
2phj	2wqk	1675	1675	0.238	0.324	0.28	0.427
2phj	2wqk	1676	1676	0.883	0.823	0.909	0.875
2phj	2wqk	1677	1677	0.663	0.685	0.663	0.685
2phj	2wqk	1678	1678	0.0	0.0	0.001	0.004
2phj	2wqk	1679	1679	0.422	0.348	0.454	0.52
2phj	2wqk	1680	1680	0.257	0.152	0.25	0.127
2phj	2wqk	1681	1681	0.294	0.371	0.303	0.402
2phj	2wqk	1682	1682	0.31	0.383	0.325	0.419
2phj	2wqk	1683	1683	0.0	0.0	0.0	0.0
2phj	2wqk	1684	1684	0.87	0.691	0.87	0.691
2phj	2wqk	1685	1685	0.925	0.388	0.925	0.388
2phj	2wqk	1686	1686	0.197	0.333	0.17	0.152
2phj	2wqk	1687	1687	0.0	0.0	0.0	0.0
2phj	2wqk	1688	1688	0.113	0.123	0.098	0.156
2phj	2wqk	1689	1689	0.565	0.562	0.573	0.568
2phj	2wqk	1690	1690	0.323	0.359	0.34	0.43
2phj	2wqk	1691	1691	0.095	0.089	0.181	0.198
2phj	2wqk	1692	1692	0.0	0.0	0.0	0.0
2phj	2wqk	1693	1693	0.754	0.641	0.754	0.641
2phj	2wqk	1694	1694	0.635	0.656	0.627	0.569
2phj	2wqk	1695	1695	0.189	0.204	0.21	0.215
2phj	2wqk	1696	1696	0.888	0.912	0.888	0.912
2phj	2wqk	1697	1697	0.95	1.0	0.95	1.0
2phj	2wqk	1698	1698	0.388	0.376	0.419	0.402
2phj	2wqk	1699	1699	0.695	0.479	0.661	0.542
2phj	2wqk	1700	1700	0.83	0.567	0.826	0.567
2phj	2wqk	1701	1701	0.845	0.609	0.846	0.609
2phj	2wqk	1702	1702	0.015	0.055	0.052	0.112
2phj	2wqk	1703	1703	0.16	0.142	0.145	0.088
2phj	2wqk	1704	1704	0.206	0.257	0.194	0.264
2phj	2wqk	1705	1705	0.152	0.196	0.158	0.146
2phj	2wqk	1706	1706	0.03	0.156	0.034	0.048
2phj	2wqk	1707	1707	0.0	0.002	0.0	0.041
2phj	2wqk	1708	1708	0.068	0.102	0.068	0.154
2phj	2wqk	1709	1709	0.895	0.645	0.895	0.645
2phj	2wqk	1710	1710	0.648	0.532	0.651	0.532
2phj	2wqk	1711	1711	0.731	0.81	0.72	0.771
2phj	2wqk	1712	1712	0.042	0.051	0.02	0.031
2phj	2wqk	1713	1713	0.622	0.679	0.624	0.679
2phj	2wqk	1714	1714	0.679	0.614	0.679	0.614
2phj	2wqk	1715	1715	0.662	0.588	0.653	0.758
2phj	2wqk	1716	1716	0.018	0.004	0.005	0.009
2phj	2wqk	1717	1717	0.039	0.093	0.042	0.097
2phj	2wqk	1718	1718	0.0	0.055	0.0	0.075
2phj	2wqk	1719	1719	0.4	0.331	0.398	0.386
2phj	2wqk	1720	1720	0.5	0.459	0.477	0.408
2phj	2wqk	1721	1721	0.25	0.424	0.248	0.193
2phj	2wqk	1722	1722	0.283	0.272	0.204	0.172
2phj	2wqk	1723	1723	0.884	0.934	0.883	0.981
2phj	2wqk	1724	1724	0.179	0.14	0.206	0.212
2phj	2wqk	1725	1725	0.075	0.211	0.109	0.093
2phj	2wqk	1726	1726	0.035	0.057	0.034	0.082
2phj	2wqk	1727	1727	0.0	0.044	0.0	0.014
2phj	2wqk	1728	1728	0.424	0.389	0.413	0.394
2phj	2wqk	1729	1729	0.044	0.075	0.047	0.239
2phj	2wqk	1730	1730	0.114	0.164	0.082	0.081
2phj	2wqk	1731	1731	0.0	0.043	0.0	0.011
2phj	2wqk	1732	1732	0.054	0.08	0.05	0.125
2phj	2wqk	1733	1733	0.169	0.175	0.156	0.167
2phj	2wqk	1734	1734	0.067	0.121	0.075	0.118
2phj	2wqk	1735	1735	0.497	0.5	0.525	0.488
2phj	2wqk	1738	1738	0.088	0.054	0.08	0.05
2phj	2wqk	1739	1739	0.575	0.697	0.593	0.611
2phj	2wqk	1740	1740	0.307	0.253	0.312	0.26
2phj	2wqk	1741	1741	0.0	0.0	0.0	0.0
2phj	2wqk	1742	1742	0.0	0.0	0.0	0.0
2phj	2wqk	1743	1743	0.415	0.502	0.383	0.416
2phj	2wqk	1744	1744	0.07	0.093	0.069	0.129
2phj	2wqk	1746	1746	0.291	0.429	0.288	0.354
2phj	2wqk	1747	1747	0.474	0.323	0.472	0.48
2phj	2wqk	1748	1748	0.469	0.281	0.48	0.336
