pred	succ	p-cen	s-cen	p_q-score	p_s-score	s_q-score	s_s-score
2dpo	3ado	1	1	1.0	0	1.0	0
2dpo	3ado	2	2	0.656	0.637	0.656	0.637
2dpo	3ado	3	3	0.143	0.12	0.123	0.174
2dpo	3ado	4	4	0.781	0.799	0.762	0.876
2dpo	3ado	5	5	0.742	0.568	0.759	0.695
2dpo	3ado	6	6	0.012	0.006	0.008	0.012
2dpo	3ado	7	7	0.498	0.488	0.44	0.467
2dpo	3ado	8	8	0.51	0.501	0.506	0.623
2dpo	3ado	9	9	0.571	0.554	0.521	0.55
2dpo	3ado	10	10	0.0	0.0	0.0	0.0
2dpo	3ado	11	11	0.0	0.001	0.0	0.003
2dpo	3ado	12	12	0.041	0.056	0.026	0.049
2dpo	3ado	13	13	0.196	0.339	0.212	0.291
2dpo	3ado	14	14	0.0	0.031	0.0	0.055
2dpo	3ado	15	15	0.0	0.0	0.0	0.0
2dpo	3ado	16	16	0.035	0.066	0.037	0.037
2dpo	3ado	17	17	0.266	0.322	0.263	0.32
2dpo	3ado	18	18	0.601	0.811	0.572	0.739
2dpo	3ado	19	19	0.353	0.454	0.342	0.556
2dpo	3ado	20	20	0.423	0.293	0.418	0.346
2dpo	3ado	21	21	0.337	0.34	0.351	0.321
2dpo	3ado	22	22	0.16	0.307	0.144	0.096
2dpo	3ado	23	23	0.017	0.027	0.0	0.005
2dpo	3ado	24	24	0.741	0.479	0.722	0.845
2dpo	3ado	25	25	0.852	0.719	0.9	0.774
2dpo	3ado	26	26	0.618	0.919	0.579	0.797
2dpo	3ado	27	27	0.556	0.674	0.583	0.714
2dpo	3ado	28	28	0.408	0.46	0.414	0.496
2dpo	3ado	29	29	0.147	0.141	0.221	0.21
2dpo	3ado	30	30	0.347	0.465	0.32	0.277
2dpo	3ado	31	31	0.369	0.351	0.343	0.458
2dpo	3ado	32	32	0.598	0.586	0.592	0.536
2dpo	3ado	33	33	0.492	0.492	0.5	0.463
2dpo	3ado	34	34	0.714	0.666	0.746	0.73
2dpo	3ado	35	35	0.679	0.636	0.701	0.647
2dpo	3ado	36	36	0.708	0.743	0.727	0.739
2dpo	3ado	37	37	0.908	0.764	0.909	0.767
2dpo	3ado	38	38	0.289	0.392	0.266	0.492
2dpo	3ado	39	39	0.082	0.087	0.129	0.12
2dpo	3ado	40	40	0.373	0.396	0.435	0.404
2dpo	3ado	41	41	0.143	0.329	0.173	0.362
2dpo	3ado	42	42	0.725	0.695	0.742	0.778
2dpo	3ado	43	43	0.783	0.773	0.77	0.726
2dpo	3ado	44	44	0.113	0.106	0.113	0.106
2dpo	3ado	45	45	0.229	0.205	0.26	0.253
2dpo	3ado	46	46	0.173	0.17	0.186	0.187
2dpo	3ado	47	47	0.598	0.709	0.599	0.608
2dpo	3ado	48	48	0.588	0.7	0.588	0.7
2dpo	3ado	49	49	0.298	0.293	0.199	0.223
2dpo	3ado	50	50	0.07	0.135	0.082	0.206
2dpo	3ado	51	51	0.0	0.0	0.0	0.0
2dpo	3ado	52	52	0.0	0.0	0.0	0.0
2dpo	3ado	53	53	0.126	0.166	0.136	0.204
2dpo	3ado	54	54	0.455	0.629	0.48	0.608
2dpo	3ado	55	55	0.344	0.343	0.317	0.329
2dpo	3ado	56	56	0.0	0.0	0.0	0.0
2dpo	3ado	57	57	0.075	0.095	0.081	0.123
2dpo	3ado	58	58	0.481	0.541	0.477	0.421
2dpo	3ado	59	59	0.311	0.366	0.28	0.387
2dpo	3ado	60	60	0.59	0.537	0.582	0.606
2dpo	3ado	61	61	0.481	0.602	0.489	0.429
2dpo	3ado	62	62	0.137	0.194	0.158	0.224
2dpo	3ado	63	63	0.555	0.638	0.563	0.592
2dpo	3ado	64	64	0.625	0.748	0.644	0.776
2dpo	3ado	65	65	0.692	0.862	0.665	0.657
2dpo	3ado	66	66	0.723	0.939	0.75	0.835
2dpo	3ado	67	67	0.545	0.607	0.525	0.573
2dpo	3ado	68	68	0.688	0.755	0.702	0.677
2dpo	3ado	69	69	0.229	0.102	0.229	0.039
2dpo	3ado	70	70	0.157	0.286	0.161	0.116
2dpo	3ado	71	71	0.155	0.148	0.157	0.169
2dpo	3ado	72	72	0.745	0.767	0.721	0.733
2dpo	3ado	73	73	0.312	0.291	0.343	0.353
2dpo	3ado	74	74	0.357	0.453	0.306	0.307
2dpo	3ado	75	75	0.694	0.625	0.679	0.82
2dpo	3ado	76	76	0.86	0.767	0.862	0.86
2dpo	3ado	77	77	0.0	0.0	0.0	0.0
2dpo	3ado	78	78	0.01	0.015	0.01	0.009
2dpo	3ado	79	79	0.311	0.466	0.28	0.531
2dpo	3ado	80	80	0.265	0.247	0.24	0.254
2dpo	3ado	81	81	0.039	0.041	0.016	0.033
2dpo	3ado	83	83	0.0	0.006	0.0	0.014
2dpo	3ado	84	84	0.465	0.492	0.47	0.523
2dpo	3ado	85	85	0.574	0.77	0.529	0.593
2dpo	3ado	86	86	0.675	0.768	0.589	0.7
2dpo	3ado	88	88	0.0	0.0	0.0	0.0
2dpo	3ado	89	89	0.049	0.211	0.031	0.067
2dpo	3ado	90	90	0.085	0.089	0.096	0.114
2dpo	3ado	91	91	0.078	0.179	0.097	0.176
2dpo	3ado	92	92	0.595	0.582	0.581	0.483
2dpo	3ado	94	94	0.643	0.751	0.629	0.617
2dpo	3ado	95	95	0.9	1.0	0.9	0.6
2dpo	3ado	96	96	0.0	0.0	0.0	0.0
2dpo	3ado	97	97	0.779	0.833	0.782	0.744
2dpo	3ado	98	98	0.677	0.653	0.69	0.741
2dpo	3ado	99	99	0.122	0.098	0.131	0.141
2dpo	3ado	100	100	0.663	0.549	0.615	0.603
2dpo	3ado	101	101	0.608	0.56	0.648	0.751
2dpo	3ado	102	102	0.438	0.462	0.408	0.396
2dpo	3ado	103	103	0.522	0.366	0.489	0.708
2dpo	3ado	104	104	0.425	0.591	0.448	0.513
2dpo	3ado	105	105	0.349	0.469	0.34	0.379
2dpo	3ado	106	106	0.449	0.561	0.48	0.644
2dpo	3ado	107	107	0.512	0.502	0.505	0.493
2dpo	3ado	108	108	0.169	0.14	0.174	0.303
2dpo	3ado	109	109	0.311	0.323	0.332	0.383
2dpo	3ado	110	110	0.247	0.349	0.29	0.341
2dpo	3ado	111	111	0.484	0.405	0.484	0.405
2dpo	3ado	112	112	0.405	0.084	0.452	0.163
2dpo	3ado	113	113	0.301	0.4	0.212	0.157
2dpo	3ado	114	114	0.391	0.416	0.394	0.44
2dpo	3ado	115	115	0.429	0.511	0.446	0.634
2dpo	3ado	116	116	0.833	0.903	0.874	0.857
2dpo	3ado	117	117	0.366	0.369	0.418	0.406
2dpo	3ado	118	118	0.216	0.352	0.208	0.313
2dpo	3ado	119	119	0.0	0.0	0.0	0.0
2dpo	3ado	120	120	0.468	0.556	0.449	0.588
2dpo	3ado	121	121	0.64	0.825	0.627	0.797
2dpo	3ado	122	122	0.061	0.059	0.036	0.041
2dpo	3ado	123	123	0.282	0.286	0.289	0.332
2dpo	3ado	124	124	0.275	0.272	0.298	0.279
2dpo	3ado	125	125	0.142	0.136	0.142	0.136
2dpo	3ado	126	126	0.612	0.816	0.631	0.459
2dpo	3ado	127	127	0.207	0.209	0.218	0.225
2dpo	3ado	128	128	0.495	0.66	0.505	0.583
2dpo	3ado	129	129	0.0	0.0	0.0	0.0
2dpo	3ado	130	130	0.0	0.0	0.0	0.0
2dpo	3ado	131	131	0.0	0.0	0.0	0.0
2dpo	3ado	132	132	0.545	0.532	0.448	0.491
2dpo	3ado	133	133	0.05	0.063	0.07	0.145
2dpo	3ado	134	134	0.0	0.0	0.0	0.0
2dpo	3ado	135	135	0.019	0.025	0.032	0.03
2dpo	3ado	136	136	0.522	0.542	0.533	0.555
2dpo	3ado	137	137	0.0	0.0	0.0	0.0
2dpo	3ado	138	138	0.0	0.0	0.0	0.0
2dpo	3ado	139	139	0.571	0.672	0.592	0.692
2dpo	3ado	140	140	0.468	0.512	0.426	0.484
2dpo	3ado	141	141	0.111	0.097	0.137	0.129
2dpo	3ado	142	142	0.0	0.0	0.0	0.0
2dpo	3ado	143	143	0.061	0.145	0.054	0.129
2dpo	3ado	144	144	0.155	0.226	0.121	0.262
2dpo	3ado	145	145	0.242	0.388	0.314	0.34
2dpo	3ado	146	146	0.0	0.0	0.004	0.007
2dpo	3ado	147	147	0.131	0.208	0.14	0.117
2dpo	3ado	148	148	0.514	0.444	0.514	0.444
2dpo	3ado	149	149	0.0	0.0	0.0	0.0
2dpo	3ado	150	150	0.0	0.0	0.0	0.0
2dpo	3ado	151	151	0.0	0.0	0.0	0.0
2dpo	3ado	152	152	0.0	0.0	0.0	0.0
2dpo	3ado	153	153	0.021	0.044	0.047	0.048
2dpo	3ado	154	154	0.0	0.0	0.004	0.01
2dpo	3ado	155	155	0.0	0.0	0.0	0.0
2dpo	3ado	156	156	0.0	0.0	0.0	0.0
2dpo	3ado	157	157	0.0	0.002	0.0	0.001
2dpo	3ado	158	158	0.224	0.231	0.224	0.231
2dpo	3ado	159	159	0.341	0.367	0.376	0.357
2dpo	3ado	160	160	0.0	0.0	0.0	0.0
2dpo	3ado	161	161	0.061	0.133	0.072	0.178
2dpo	3ado	162	162	0.003	0.052	0.0	0.021
2dpo	3ado	163	163	0.904	0.841	0.904	0.841
2dpo	3ado	164	164	0.0	0.0	0.0	0.0
2dpo	3ado	165	165	0.0	0.0	0.0	0.0
2dpo	3ado	166	166	0.0	0.0	0.0	0.0
2dpo	3ado	167	167	0.095	0.154	0.107	0.131
2dpo	3ado	168	168	0.158	0.191	0.19	0.276
2dpo	3ado	169	169	0.09	0.081	0.133	0.126
2dpo	3ado	170	170	0.172	0.151	0.181	0.143
2dpo	3ado	171	171	0.022	0.032	0.051	0.062
2dpo	3ado	172	172	0.743	0.6	0.743	0.6
2dpo	3ado	173	173	0.227	0.38	0.107	0.233
2dpo	3ado	174	174	0.0	0.0	0.0	0.0
2dpo	3ado	175	175	0.0	0.0	0.0	0.0
2dpo	3ado	176	176	0.667	0.732	0.667	0.732
2dpo	3ado	177	177	0.478	0.629	0.473	0.591
2dpo	3ado	178	178	0.0	0.0	0.0	0.0
2dpo	3ado	179	179	0.091	0.124	0.043	0.049
2dpo	3ado	180	180	0.314	0.434	0.301	0.305
2dpo	3ado	181	181	0.855	0.857	0.855	0.858
2dpo	3ado	182	182	0.0	0.0	0.0	0.0
2dpo	3ado	183	183	0.0	0.0	0.0	0.0
2dpo	3ado	184	184	0.004	0.005	0.0	0.003
2dpo	3ado	185	185	0.18	0.176	0.126	0.138
2dpo	3ado	186	186	0.501	0.542	0.506	0.55
2dpo	3ado	187	187	0.547	0.682	0.547	0.682
2dpo	3ado	188	188	0.591	0.677	0.591	0.677
2dpo	3ado	189	189	0.897	0.902	0.874	0.823
2dpo	3ado	190	190	0.576	0.663	0.564	0.713
2dpo	3ado	191	191	0.647	0.707	0.647	0.707
2dpo	3ado	192	192	0.567	0.693	0.567	0.693
2dpo	3ado	193	193	0.377	0.369	0.336	0.327
2dpo	3ado	194	194	0.153	0.212	0.184	0.2
2dpo	3ado	195	195	0.297	0.405	0.319	0.455
2dpo	3ado	196	196	0.61	0.57	0.552	0.486
2dpo	3ado	197	197	0.373	0.539	0.349	0.344
2dpo	3ado	198	198	0.601	0.277	0.567	0.319
2dpo	3ado	199	199	0.5	0.523	0.493	0.822
2dpo	3ado	200	200	0.104	0.188	0.082	0.085
2dpo	3ado	201	201	0.206	0.221	0.146	0.14
2dpo	3ado	202	202	0.456	0.494	0.5	0.536
2dpo	3ado	203	203	0.318	0.27	0.318	0.27
2dpo	3ado	204	204	0.915	0.933	0.906	0.867
2dpo	3ado	205	205	0.257	0.326	0.266	0.333
2dpo	3ado	206	206	0.484	0.464	0.52	0.433
2dpo	3ado	207	207	0.83	0.891	0.835	0.714
2dpo	3ado	208	208	0.48	0.494	0.498	0.509
2dpo	3ado	209	209	0.0	0.0	0.0	0.0
2dpo	3ado	210	210	0.396	0.431	0.381	0.575
2dpo	3ado	211	211	0.851	0.701	0.851	0.716
2dpo	3ado	212	212	0.054	0.078	0.068	0.077
2dpo	3ado	213	213	0.393	0.389	0.49	0.541
2dpo	3ado	214	214	0.657	0.636	0.579	0.569
2dpo	3ado	215	215	0.0	0.0	0.0	0.0
2dpo	3ado	216	216	0.789	0.643	0.835	0.704
2dpo	3ado	217	217	0.881	0.838	0.881	0.838
2dpo	3ado	218	218	0.0	0.008	0.0	0.006
2dpo	3ado	219	219	0.086	0.08	0.093	0.093
2dpo	3ado	220	220	0.712	0.709	0.721	0.695
2dpo	3ado	221	221	0.882	0.877	0.882	0.877
2dpo	3ado	222	222	0.1	0.141	0.162	0.149
2dpo	3ado	223	223	0.105	0.114	0.117	0.124
2dpo	3ado	224	224	0.705	0.711	0.705	0.711
2dpo	3ado	225	225	0.0	0.0	0.0	0.006
2dpo	3ado	226	226	0.017	0.029	0.006	0.018
2dpo	3ado	227	227	0.286	0.29	0.276	0.232
2dpo	3ado	228	228	0.006	0.048	0.0	0.023
2dpo	3ado	229	229	0.835	0.946	0.835	0.946
2dpo	3ado	230	230	0.068	0.081	0.134	0.123
2dpo	3ado	231	231	0.0	0.0	0.0	0.0
2dpo	3ado	232	232	0.122	0.135	0.112	0.191
2dpo	3ado	233	233	0.083	0.065	0.077	0.096
2dpo	3ado	234	234	0.203	0.293	0.185	0.246
2dpo	3ado	235	235	0.0	0.0	0.0	0.0
2dpo	3ado	236	236	0.0	0.0	0.0	0.0
2dpo	3ado	237	237	0.109	0.106	0.143	0.131
2dpo	3ado	238	238	0.0	0.0	0.0	0.0
2dpo	3ado	239	239	0.0	0.0	0.0	0.0
2dpo	3ado	240	240	0.058	0.05	0.035	0.033
2dpo	3ado	241	241	0.363	0.452	0.388	0.485
2dpo	3ado	242	242	0.318	0.279	0.326	0.306
2dpo	3ado	243	243	0.004	0.001	0.045	0.051
2dpo	3ado	244	244	0.068	0.068	0.066	0.062
2dpo	3ado	245	245	0.008	0.02	0.0	0.002
2dpo	3ado	246	246	0.03	0.046	0.026	0.039
2dpo	3ado	247	247	0.424	0.528	0.495	0.49
2dpo	3ado	248	248	0.214	0.278	0.212	0.184
2dpo	3ado	249	249	0.598	0.631	0.553	0.582
2dpo	3ado	250	250	0.218	0.47	0.17	0.263
2dpo	3ado	252	252	0.454	0.409	0.509	0.614
2dpo	3ado	253	253	0.618	0.499	0.617	0.563
2dpo	3ado	254	254	0.0	0.0	0.0	0.0
2dpo	3ado	255	255	0.693	0.74	0.651	0.806
2dpo	3ado	258	258	0.774	0.691	0.747	0.747
2dpo	3ado	259	259	0.547	0.518	0.551	0.579
2dpo	3ado	263	263	0.544	0.554	0.487	0.486
2dpo	3ado	264	264	0.18	0.198	0.135	0.096
2dpo	3ado	265	265	0.116	0.062	0.141	0.245
2dpo	3ado	266	266	0.0	0.0	0.0	0.0
2dpo	3ado	267	267	0.039	0.132	0.088	0.229
2dpo	3ado	268	268	0.273	0.214	0.307	0.316
2dpo	3ado	269	269	0.498	0.399	0.501	0.442
2dpo	3ado	270	270	0.867	0.807	0.867	0.807
2dpo	3ado	271	271	0.0	0.0	0.0	0.005
2dpo	3ado	273	273	0.487	0.493	0.432	0.439
2dpo	3ado	274	274	0.202	0.187	0.228	0.208
2dpo	3ado	275	275	0.423	0.571	0.446	0.485
2dpo	3ado	276	276	0.203	0.4	0.262	0.277
2dpo	3ado	277	277	0.0	0.167	0.012	0.006
2dpo	3ado	278	278	0.0	0.055	0.0	0.048
2dpo	3ado	279	279	0.043	0.132	0.038	0.127
2dpo	3ado	280	280	0.496	0.65	0.489	0.623
2dpo	3ado	281	281	0.629	0.729	0.604	0.707
2dpo	3ado	282	282	0.359	0.296	0.305	0.221
2dpo	3ado	283	283	0.695	0.706	0.677	0.695
2dpo	3ado	284	284	0.779	0.546	0.822	0.652
2dpo	3ado	285	285	0.606	0.653	0.606	0.653
2dpo	3ado	286	286	0.0	0.0	0.0	0.0
2dpo	3ado	287	287	0.535	0.55	0.515	0.578
2dpo	3ado	288	288	0.442	0.577	0.434	0.381
2dpo	3ado	289	289	0.122	0.143	0.131	0.151
2dpo	3ado	290	290	0.251	0.271	0.259	0.204
2dpo	3ado	291	291	0.923	0.808	0.923	0.808
2dpo	3ado	292	292	0.733	0.587	0.733	0.587
2dpo	3ado	293	293	0.536	0.449	0.536	0.449
2dpo	3ado	294	294	0.308	0.42	0.271	0.286
2dpo	3ado	295	295	0.894	0.957	0.894	0.963
2dpo	3ado	296	296	0.068	0.068	0.05	0.056
2dpo	3ado	297	297	0.059	0.109	0.06	0.057
2dpo	3ado	298	298	0.0	0.0	0.0	0.0
2dpo	3ado	299	299	0.0	0.023	0.0	0.028
2dpo	3ado	300	300	0.0	0.054	0.0	0.142
2dpo	3ado	301	301	0.598	0.627	0.565	0.568
2dpo	3ado	302	302	0.588	0.637	0.588	0.637
2dpo	3ado	303	303	0.0	0	0.0	0
2dpo	3ado	304	304	1.0	1.0	1.0	1.0
2dpo	3ado	305	305	0.19	0.171	0.181	0.245
2dpo	3ado	306	306	0.456	0.39	0.475	0.745
2dpo	3ado	307	307	0.715	0.78	0.715	0.78
2dpo	3ado	308	308	0.28	0.322	0.22	0.278
2dpo	3ado	309	309	0.071	0.089	0.081	0.117
2dpo	3ado	310	310	0.493	0.416	0.495	0.42
2dpo	3ado	311	311	0.5	0.736	0.5	0.736
2dpo	3ado	312	312	0.0	0.0	0.0	0.0
2dpo	3ado	313	313	0.02	0.037	0.03	0.1
2dpo	3ado	314	314	0.461	0.48	0.421	0.412
2dpo	3ado	315	315	0.685	0.637	0.685	0.637
2dpo	3ado	316	316	0.754	0.72	0.754	0.72
2dpo	3ado	317	317	0.633	0.577	0.627	0.552
2dpo	3ado	318	318	1.0	0	1.0	0
2dpo	3ado	319	319	0.933	0.0	0.933	0.0
2dpo	3ado	320	320	0.6	0.603	0.637	0.834
2dpo	3ado	321	321	0.289	0.427	0.338	0.337
2dpo	3ado	322	322	0.858	0.675	0.856	0.662
2dpo	3ado	323	323	0.189	0.191	0.21	0.22
2dpo	3ado	324	324	0.0	0.0	0.005	0.008
2dpo	3ado	325	325	0.0	0.0	0.0	0.001
2dpo	3ado	326	326	0.328	0.327	0.274	0.215
2dpo	3ado	327	327	0.436	0.51	0.413	0.362
2dpo	3ado	328	328	0.188	0.19	0.223	0.199
2dpo	3ado	329	329	0.0	0.0	0.0	0.0
2dpo	3ado	330	330	0.678	0.666	0.671	0.635
2dpo	3ado	331	331	0.426	0.407	0.388	0.335
2dpo	3ado	332	332	0.0	0.0	0.0	0.0
2dpo	3ado	333	333	0.0	0.0	0.0	0.0
2dpo	3ado	334	334	0.0	0.029	0.0	0.007
2dpo	3ado	335	335	0.228	0.315	0.197	0.313
2dpo	3ado	336	336	0.255	0.199	0.279	0.186
2dpo	3ado	337	337	0.0	0.0	0.0	0.0
2dpo	3ado	338	338	0.0	0.026	0.002	0.04
2dpo	3ado	339	339	0.115	0.12	0.074	0.084
2dpo	3ado	340	340	0.195	0.3	0.19	0.265
2dpo	3ado	341	341	0.011	0.084	0.025	0.112
2dpo	3ado	342	342	0.476	0.548	0.476	0.548
2dpo	3ado	343	343	0.177	0.181	0.136	0.149
2dpo	3ado	344	344	0.0	0.122	0.022	0.115
2dpo	3ado	345	345	0.004	0.003	0.0	0.0
2dpo	3ado	346	346	0.575	0.651	0.583	0.628
2dpo	3ado	347	347	0.0	0.0	0.01	0.013
2dpo	3ado	348	348	0.0	0.0	0.0	0.0
2dpo	3ado	349	349	0.0	0.0	0.0	0.0
2dpo	3ado	350	350	0.033	0.065	0.015	0.023
2dpo	3ado	351	351	0.0	0.0	0.0	0.0
2dpo	3ado	352	352	0.133	0.124	0.098	0.104
2dpo	3ado	353	353	0.0	0.0	0.0	0.0
2dpo	3ado	354	354	0.0	0.0	0.0	0.0
2dpo	3ado	355	355	0.074	0.165	0.071	0.147
2dpo	3ado	356	356	0.082	0.076	0.044	0.036
2dpo	3ado	357	357	0.104	0.134	0.127	0.108
2dpo	3ado	358	358	0.695	0.699	0.649	0.697
2dpo	3ado	359	359	0.082	0.136	0.113	0.178
2dpo	3ado	360	360	0.915	0.667	0.915	0.667
2dpo	3ado	361	361	0.13	0.136	0.125	0.113
2dpo	3ado	362	362	0.084	0.072	0.084	0.094
2dpo	3ado	363	363	0.078	0.135	0.084	0.069
2dpo	3ado	364	364	0.0	0.0	0.0	0.0
2dpo	3ado	365	365	0.0	0.0	0.0	0.0
2dpo	3ado	366	366	0.169	0.157	0.173	0.162
2dpo	3ado	367	367	0.227	0.157	0.241	0.228
2dpo	3ado	368	368	0.0	0.0	0.0	0.0
2dpo	3ado	369	369	0.0	0.0	0.0	0.0
2dpo	3ado	370	370	0.106	0.206	0.102	0.136
2dpo	3ado	371	371	0.0	0.039	0.0	0.023
2dpo	3ado	372	372	0.269	0.199	0.256	0.25
2dpo	3ado	373	373	0.512	0.647	0.512	0.528
2dpo	3ado	374	374	0.751	0.865	0.789	0.882
2dpo	3ado	375	375	0.311	0.297	0.273	0.26
2dpo	3ado	376	376	0.034	0.083	0.012	0.012
2dpo	3ado	377	377	0.261	0.27	0.259	0.293
2dpo	3ado	378	378	0.0	0.0	0.0	0.001
2dpo	3ado	379	379	0.223	0.267	0.235	0.206
2dpo	3ado	380	380	0.0	0.002	0.0	0.002
2dpo	3ado	381	381	0.115	0.109	0.099	0.138
2dpo	3ado	382	382	0.134	0.209	0.133	0.201
2dpo	3ado	383	383	0.0	0.0	0.0	0.007
2dpo	3ado	384	384	0.107	0.13	0.082	0.1
2dpo	3ado	385	385	0.113	0.115	0.128	0.196
2dpo	3ado	386	386	0.508	0.527	0.491	0.748
2dpo	3ado	387	387	0.438	0.414	0.431	0.389
2dpo	3ado	388	388	0.68	0.71	0.689	0.934
2dpo	3ado	389	389	0.158	0.196	0.205	0.199
2dpo	3ado	390	390	0.45	0.562	0.446	0.578
2dpo	3ado	391	391	0.891	0.919	0.905	0.901
2dpo	3ado	392	392	0.87	0.899	0.905	0.903
2dpo	3ado	393	393	0.485	0.506	0.532	0.604
2dpo	3ado	394	394	0.556	0.577	0.525	0.5
2dpo	3ado	395	395	0.721	0.589	0.721	0.589
2dpo	3ado	396	396	1.0	0.7	1.0	0.7
2dpo	3ado	397	397	0.0	0.0	0.0	0.0
2dpo	3ado	398	398	0.261	0.283	0.27	0.292
2dpo	3ado	399	399	0.043	0.077	0.036	0.058
2dpo	3ado	400	400	0.332	0.402	0.289	0.33
2dpo	3ado	401	401	0.0	0.0	0.0	0.0
2dpo	3ado	402	402	0.581	0.629	0.581	0.629
2dpo	3ado	403	403	0.198	0.245	0.173	0.275
2dpo	3ado	404	404	0.44	0.427	0.44	0.427
2dpo	3ado	405	405	0.314	0.257	0.301	0.287
2dpo	3ado	406	406	0.0	0.0	0.0	0.0
2dpo	3ado	407	407	0.162	0.188	0.175	0.182
2dpo	3ado	408	408	0.683	0.596	0.656	0.508
2dpo	3ado	409	409	0.026	0.038	0.039	0.073
2dpo	3ado	410	410	0.765	0.71	0.706	0.726
2dpo	3ado	411	411	0.416	0.411	0.416	0.411
2dpo	3ado	412	412	0.568	0.572	0.568	0.572
2dpo	3ado	413	413	0.272	0.276	0.259	0.262
2dpo	3ado	414	414	0.754	0.725	0.719	0.677
2dpo	3ado	415	415	0.382	0.372	0.384	0.369
2dpo	3ado	416	416	0.257	0.261	0.244	0.267
2dpo	3ado	417	417	0.9	0.882	0.9	0.882
2dpo	3ado	418	418	0.778	0.833	0.778	0.833
2dpo	3ado	419	419	0.119	0.131	0.058	0.081
2dpo	3ado	420	420	0.684	0.751	0.698	0.893
2dpo	3ado	421	421	0.764	0.713	0.702	0.67
2dpo	3ado	422	422	0.36	0.369	0.325	0.344
2dpo	3ado	423	423	1.0	0	1.0	0
2dpo	3ado	424	424	0.425	0.491	0.425	0.491
2dpo	3ado	425	425	0.572	0.559	0.587	0.596
2dpo	3ado	426	426	0.781	0.463	0.781	0.463
2dpo	3ado	427	427	1.0	0	1.0	0
2dpo	3ado	428	428	0.412	0.257	0.394	0.291
2dpo	3ado	429	429	0.0	0.0	0.0	0.0
2dpo	3ado	430	430	0.22	0.231	0.228	0.238
2dpo	3ado	431	431	0.335	0.375	0.306	0.342
2dpo	3ado	432	432	0.736	0.674	0.798	0.777
2dpo	3ado	433	433	0.077	0.048	0.045	0.045
2dpo	3ado	434	434	0.063	0.076	0.099	0.107
2dpo	3ado	435	435	0.267	0.248	0.227	0.221
2dpo	3ado	436	436	0.357	0.405	0.392	0.445
2dpo	3ado	437	437	0.435	0.556	0.454	0.447
2dpo	3ado	438	438	0.038	0.035	0.047	0.04
2dpo	3ado	439	439	0.231	0.302	0.241	0.308
2dpo	3ado	440	440	0.468	0.661	0.478	0.658
2dpo	3ado	441	441	0.572	0.59	0.568	0.585
2dpo	3ado	442	442	0.044	0.143	0.056	0.069
2dpo	3ado	443	443	0.0	0.0	0.0	0.002
2dpo	3ado	444	444	0.0	0.013	0.0	0.0
2dpo	3ado	445	445	0.049	0.152	0.043	0.124
2dpo	3ado	446	446	0.303	0.336	0.383	0.3
2dpo	3ado	447	447	0.217	0.263	0.21	0.28
2dpo	3ado	448	448	0.0	0.0	0.0	0.0
2dpo	3ado	449	449	0.0	0.0	0.0	0.0
2dpo	3ado	450	450	0.0	0.0	0.0	0.0
2dpo	3ado	451	451	0.499	0.547	0.46	0.559
2dpo	3ado	452	452	0.099	0.157	0.086	0.201
2dpo	3ado	453	453	0.328	0.456	0.363	0.108
2dpo	3ado	454	454	0.431	0.433	0.431	0.433
2dpo	3ado	455	455	0.676	0.669	0.676	0.669
2dpo	3ado	456	456	0.052	0.002	0.077	0.031
2dpo	3ado	457	457	0.265	0.266	0.271	0.275
2dpo	3ado	458	458	0.537	0.699	0.527	0.686
2dpo	3ado	459	459	0.201	0.202	0.186	0.184
2dpo	3ado	460	460	0.671	0.688	0.68	0.597
2dpo	3ado	461	461	0.756	0.772	0.775	0.773
2dpo	3ado	462	462	0.026	0.017	0.048	0.03
2dpo	3ado	463	463	0.119	0.113	0.088	0.104
2dpo	3ado	464	464	0.388	0.718	0.424	0.715
2dpo	3ado	465	465	0.682	0.713	0.593	0.521
2dpo	3ado	466	466	0.729	0.675	0.729	0.675
2dpo	3ado	467	467	0.703	0.634	0.703	0.634
2dpo	3ado	468	468	0.861	0.811	0.861	0.811
2dpo	3ado	469	469	1.0	0	1.0	0
2dpo	3ado	470	470	0.0	0.0	0.0	0.002
2dpo	3ado	471	471	0.577	0.812	0.596	0.756
2dpo	3ado	472	472	0.566	0.493	0.58	0.594
2dpo	3ado	473	473	0.826	0.851	0.821	0.846
2dpo	3ado	474	474	0.199	0.195	0.201	0.214
2dpo	3ado	475	475	0.009	0.067	0.019	0.089
2dpo	3ado	476	476	0.033	0.07	0.022	0.018
2dpo	3ado	477	477	0.138	0.183	0.13	0.45
2dpo	3ado	478	478	0.044	0.173	0.053	0.157
2dpo	3ado	479	479	0.047	0.038	0.048	0.053
2dpo	3ado	480	480	0.567	0.621	0.58	0.503
2dpo	3ado	481	481	0.646	0.698	0.617	0.781
2dpo	3ado	482	482	0.863	0.749	0.886	0.681
2dpo	3ado	483	483	0.49	0.231	0.478	0.194
2dpo	3ado	484	484	0.349	0.277	0.332	0.39
2dpo	3ado	485	485	0.454	0.541	0.433	0.483
2dpo	3ado	486	486	0.426	0.531	0.402	0.477
2dpo	3ado	487	487	0.118	0.029	0.119	0.071
2dpo	3ado	488	488	0.191	0.411	0.16	0.187
2dpo	3ado	489	489	0.066	0.234	0.073	0.101
2dpo	3ado	490	490	0.191	0.274	0.202	0.233
2dpo	3ado	491	491	0.506	0.532	0.521	0.543
2dpo	3ado	492	492	0.006	0.022	0.002	0.044
2dpo	3ado	493	493	0.0	0.0	0.0	0.0
2dpo	3ado	494	494	0.289	0.325	0.257	0.271
2dpo	3ado	495	495	0.417	0.506	0.482	0.67
2dpo	3ado	496	496	0.622	0.942	0.635	0.946
2dpo	3ado	497	497	0.763	0.826	0.763	0.826
2dpo	3ado	498	498	0.575	0.559	0.603	0.595
2dpo	3ado	499	499	0.8	0.845	0.8	0.845
2dpo	3ado	500	500	0.907	0.92	0.907	0.92
2dpo	3ado	501	501	0.334	0.307	0.314	0.324
2dpo	3ado	502	502	0.049	0.052	0.049	0.052
2dpo	3ado	503	503	0.086	0.193	0.091	0.186
2dpo	3ado	504	504	0.511	0.524	0.526	0.568
2dpo	3ado	505	505	0.734	0.72	0.725	0.712
2dpo	3ado	506	506	0.912	0.912	0.956	0.9
2dpo	3ado	507	507	1.0	0	1.0	0
2dpo	3ado	508	508	0.768	0.747	0.768	0.747
2dpo	3ado	509	509	0.7	0.683	0.7	0.683
2dpo	3ado	510	510	0.522	0.56	0.522	0.56
2dpo	3ado	511	511	0.967	0.667	0.967	0.667
2dpo	3ado	512	512	0.0	0.012	0.006	0.033
2dpo	3ado	513	513	0.532	0.486	0.528	0.524
2dpo	3ado	514	514	0.824	0.938	0.812	0.882
2dpo	3ado	515	515	0.781	0.788	0.756	0.806
2dpo	3ado	516	516	0.06	0.042	0.082	0.081
2dpo	3ado	517	517	0.014	0.046	0.015	0.092
2dpo	3ado	518	518	0.294	0.188	0.289	0.368
2dpo	3ado	519	519	0.0	0.002	0.0	0.0
2dpo	3ado	520	520	0.183	0.23	0.19	0.169
2dpo	3ado	521	521	0.043	0.061	0.018	0.056
2dpo	3ado	522	522	0.556	0.713	0.581	0.663
2dpo	3ado	523	523	0.85	0.792	0.85	0.792
2dpo	3ado	524	524	0.0	0.003	0.0	0.0
2dpo	3ado	525	525	0.035	0.042	0.038	0.043
2dpo	3ado	526	526	0.143	0.162	0.113	0.128
2dpo	3ado	527	527	0.0	0.029	0.0	0.005
2dpo	3ado	528	528	0.259	0.39	0.291	0.398
2dpo	3ado	529	529	0.0	0.0	0.0	0.0
2dpo	3ado	530	530	0.416	0.435	0.44	0.574
2dpo	3ado	531	531	0.613	0.644	0.593	0.692
2dpo	3ado	532	532	0.423	0.548	0.384	0.465
2dpo	3ado	533	533	0.0	0.0	0.0	0.0
2dpo	3ado	534	534	0.087	0.198	0.089	0.15
2dpo	3ado	535	535	0.2	0.258	0.203	0.382
2dpo	3ado	536	536	0.43	0.427	0.416	0.413
2dpo	3ado	537	537	0.256	0.22	0.319	0.251
2dpo	3ado	538	538	0.0	0.0	0.0	0.0
2dpo	3ado	539	539	0.028	0.059	0.025	0.026
2dpo	3ado	540	540	0.48	0.441	0.457	0.335
2dpo	3ado	541	541	0.034	0.138	0.044	0.111
2dpo	3ado	542	542	0.654	0.676	0.65	0.726
2dpo	3ado	543	543	0.0	0.0	0.0	0.0
2dpo	3ado	544	544	0.429	0.499	0.402	0.474
2dpo	3ado	545	545	0.007	0.02	0.026	0.028
2dpo	3ado	546	546	0.763	0.776	0.758	0.777
2dpo	3ado	547	547	0.0	0.0	0.0	0.0
2dpo	3ado	548	548	1.0	0.0	1.0	0.0
2dpo	3ado	549	549	0.55	0.575	0.55	0.575
2dpo	3ado	550	550	0.235	0.256	0.283	0.311
2dpo	3ado	551	551	0.5	0.473	0.5	0.473
2dpo	3ado	552	552	0.555	0.555	0.555	0.555
2dpo	3ado	553	553	0.04	0.057	0.04	0.057
2dpo	3ado	554	554	0.106	0.092	0.088	0.095
2dpo	3ado	555	555	0.386	0.384	0.386	0.501
2dpo	3ado	556	556	0.217	0.217	0.216	0.271
2dpo	3ado	557	557	0.378	0.369	0.367	0.355
2dpo	3ado	558	558	0.56	0.58	0.535	0.574
2dpo	3ado	559	559	0.664	0.668	0.664	0.668
2dpo	3ado	560	560	0.646	0.635	0.665	0.647
2dpo	3ado	561	561	1.0	1.0	1.0	1.0
2dpo	3ado	562	562	0.745	0.948	0.766	0.953
2dpo	3ado	563	563	0.822	0.17	0.822	0.17
2dpo	3ado	564	564	0.0	0.0	0.0	0.0
2dpo	3ado	565	565	0.045	0.048	0.033	0.033
2dpo	3ado	566	566	0.708	0.763	0.711	0.658
2dpo	3ado	567	567	0.402	0.376	0.394	0.458
2dpo	3ado	568	568	0.0	0.0	0.0	0.0
2dpo	3ado	569	569	0.257	0.368	0.229	0.248
2dpo	3ado	570	570	0.613	0.587	0.582	0.543
2dpo	3ado	571	571	0.019	0.049	0.026	0.075
2dpo	3ado	572	572	0.317	0.292	0.24	0.246
2dpo	3ado	573	573	0.598	0.581	0.62	0.611
2dpo	3ado	574	574	0.502	0.459	0.502	0.459
2dpo	3ado	575	575	0.453	0.475	0.409	0.393
2dpo	3ado	576	576	0.0	0.0	0.0	0.003
2dpo	3ado	577	577	0.458	0.348	0.5	0.428
2dpo	3ado	578	578	0.59	0.642	0.619	0.669
2dpo	3ado	579	579	0.368	0.44	0.289	0.334
2dpo	3ado	580	580	0.0	0.0	0.0	0.0
2dpo	3ado	581	581	0.692	0.803	0.685	0.583
2dpo	3ado	582	582	0.0	0.01	0.0	0.015
2dpo	3ado	583	583	0.461	0.46	0.503	0.508
2dpo	3ado	584	584	1.0	0	1.0	0
2dpo	3ado	585	585	0.238	0.236	0.254	0.253
2dpo	3ado	586	586	0.0	0.0	0.0	0.0
2dpo	3ado	587	587	0.0	0.0	0.0	0.0
2dpo	3ado	588	588	0.0	0.0	0.0	0.0
2dpo	3ado	589	589	0.724	0.701	0.724	0.701
2dpo	3ado	590	590	0.352	0.378	0.347	0.501
2dpo	3ado	591	591	0.764	0.75	0.764	0.75
2dpo	3ado	592	592	0.0	0.0	0.0	0.0
2dpo	3ado	593	593	0.049	0.048	0.043	0.049
2dpo	3ado	594	594	0.124	0.151	0.08	0.111
2dpo	3ado	595	595	0.471	0.448	0.417	0.543
2dpo	3ado	596	596	0.0	0.0	0.0	0.0
2dpo	3ado	597	597	0.0	0.0	0.0	0.0
2dpo	3ado	598	598	0.02	0.037	0.033	0.03
2dpo	3ado	599	599	0.405	0.399	0.405	0.399
2dpo	3ado	600	600	0.032	0.03	0.008	0.008
2dpo	3ado	601	601	0.0	0.0	0.0	0.0
2dpo	3ado	602	602	0.033	0.017	0.026	0.022
2dpo	3ado	603	603	0.115	0.155	0.142	0.164
2dpo	3ado	604	604	0.241	0.199	0.275	0.314
2dpo	3ado	605	605	0.129	0.059	0.121	0.511
2dpo	3ado	606	606	0.185	0.199	0.201	0.206
2dpo	3ado	607	607	0.292	0.36	0.293	0.323
2dpo	3ado	608	608	0.0	0.0	0.0	0.0
2dpo	3ado	609	609	0.503	0.441	0.481	0.378
2dpo	3ado	610	610	0.586	0.586	0.586	0.586
2dpo	3ado	611	611	0.691	0.719	0.672	0.765
2dpo	3ado	612	612	0.393	0.504	0.388	0.511
2dpo	3ado	613	613	0.282	0.24	0.238	0.236
2dpo	3ado	614	614	0.32	0.444	0.306	0.457
2dpo	3ado	615	615	0.835	0.94	0.835	0.94
2dpo	3ado	616	616	0.797	0.806	0.764	0.755
2dpo	3ado	617	617	0.831	0.815	0.831	0.815
2dpo	3ado	618	618	0.849	0.964	0.849	0.964
2dpo	3ado	619	619	0.895	0.737	0.895	0.737
2dpo	3ado	620	620	0.171	0.189	0.193	0.206
2dpo	3ado	621	621	0.349	0.337	0.372	0.361
2dpo	3ado	622	622	0.205	0.171	0.233	0.248
2dpo	3ado	623	623	0.749	0.706	0.791	0.795
2dpo	3ado	624	624	0.589	0.606	0.676	0.669
2dpo	3ado	625	625	0.412	0.623	0.416	0.534
2dpo	3ado	626	626	0.388	0.426	0.388	0.426
2dpo	3ado	627	627	0.9	0.833	0.9	0.833
2dpo	3ado	628	628	0.0	0.0	0.0	0.0
2dpo	3ado	629	629	0.0	0.0	0.0	0.0
2dpo	3ado	630	630	0.199	0.169	0.251	0.238
2dpo	3ado	631	631	0.401	0.472	0.378	0.492
2dpo	3ado	632	632	0.053	0.081	0.045	0.124
2dpo	3ado	633	633	0.01	0.037	0.024	0.007
2dpo	3ado	634	634	0.051	0.039	0.04	0.041
2dpo	3ado	635	635	0.261	0.2	0.251	0.242
2dpo	3ado	636	636	0.087	0.079	0.096	0.101
2dpo	3ado	637	637	0.157	0.136	0.114	0.148
2dpo	3ado	638	638	0.0	0.116	0.0	0.012
2dpo	3ado	639	639	0.0	0.005	0.0	0.007
2dpo	3ado	640	640	0.026	0.033	0.031	0.074
2dpo	3ado	641	641	0.06	0.081	0.045	0.048
2dpo	3ado	642	642	0.0	0.002	0.0	0.004
2dpo	3ado	643	643	0.102	0.14	0.108	0.027
2dpo	3ado	644	644	0.382	0.502	0.388	0.524
2dpo	3ado	645	645	0.674	0.734	0.756	0.78
2dpo	3ado	646	646	0.409	0.422	0.409	0.422
2dpo	3ado	647	647	0.338	0.287	0.368	0.251
2dpo	3ado	648	648	0.237	0.187	0.26	0.21
2dpo	3ado	649	649	0.192	0.266	0.196	0.248
2dpo	3ado	650	650	0.278	0.582	0.271	0.286
2dpo	3ado	651	651	0.467	0.579	0.486	0.332
2dpo	3ado	652	652	0.768	0.773	0.758	0.905
2dpo	3ado	653	653	1.0	0	0.9	0.4
2dpo	3ado	654	654	0.353	0.442	0.329	0.417
2dpo	3ado	655	655	0.837	0.956	0.846	0.959
2dpo	3ado	656	656	0.612	0.55	0.607	0.959
2dpo	3ado	657	657	0.557	0.567	0.557	0.567
2dpo	3ado	658	658	0.408	0.425	0.393	0.36
2dpo	3ado	659	659	0.0	0.0	0.0	0.0
2dpo	3ado	660	660	0.616	0.472	0.595	0.606
2dpo	3ado	661	661	0.094	0.117	0.074	0.065
2dpo	3ado	662	662	0.0	0.018	0.0	0.004
2dpo	3ado	663	663	0.0	0.006	0.0	0.004
2dpo	3ado	664	664	0.043	0.249	0.051	0.204
2dpo	3ado	665	665	0.287	0.233	0.281	0.627
2dpo	3ado	666	666	0.216	0.367	0.212	0.311
2dpo	3ado	667	667	0.242	0.328	0.185	0.268
2dpo	3ado	668	668	0.014	0.014	0.036	0.028
2dpo	3ado	669	669	0.5	0.499	0.503	0.499
2dpo	3ado	670	670	0.779	0.789	0.779	0.789
2dpo	3ado	671	671	0.0	0.0	0.0	0.0
2dpo	3ado	672	672	0.048	0.128	0.045	0.053
2dpo	3ado	673	673	0.206	0.349	0.189	0.223
2dpo	3ado	674	674	0.252	0.32	0.253	0.364
2dpo	3ado	675	675	0.147	0.157	0.11	0.111
2dpo	3ado	676	676	0.0	0.0	0.0	0.0
2dpo	3ado	677	677	0.0	0.0	0.0	0.0
2dpo	3ado	678	678	0.229	0.213	0.236	0.224
2dpo	3ado	679	679	0.321	0.39	0.318	0.381
2dpo	3ado	680	680	0.221	0.198	0.189	0.178
2dpo	3ado	681	681	0.0	0.022	0.0	0.014
2dpo	3ado	682	682	0.552	0.604	0.525	0.486
2dpo	3ado	683	683	0.872	0.821	0.875	0.825
2dpo	3ado	684	684	0.474	0.461	0.545	0.565
2dpo	3ado	685	685	0.0	0.0	0.0	0.017
2dpo	3ado	686	686	0.099	0.105	0.117	0.125
2dpo	3ado	687	687	0.588	0.494	0.588	0.494
2dpo	3ado	688	688	0.322	0.328	0.3	0.298
2dpo	3ado	689	689	0.0	0.0	0.0	0.0
2dpo	3ado	690	690	0.0	0.0	0.0	0.0
2dpo	3ado	691	691	0.0	0.0	0.0	0.0
2dpo	3ado	692	692	0.0	0.0	0.0	0.0
2dpo	3ado	693	693	0.486	0.503	0.534	0.558
2dpo	3ado	694	694	0.586	0.649	0.624	0.702
2dpo	3ado	695	695	0.097	0.094	0.069	0.056
2dpo	3ado	696	696	0.0	0.0	0.0	0.0
2dpo	3ado	697	697	0.0	0.0	0.0	0.0
2dpo	3ado	698	698	0.314	0.303	0.313	0.407
2dpo	3ado	699	699	0.284	0.307	0.27	0.359
2dpo	3ado	700	700	0.007	0.009	0.0	0.0
2dpo	3ado	701	701	0.0	0.0	0.0	0.0
2dpo	3ado	702	702	0.9	0.69	0.907	0.697
2dpo	3ado	703	703	0.889	0.882	0.882	0.886
2dpo	3ado	704	704	0.854	0.722	0.854	0.721
2dpo	3ado	705	705	0.487	0.585	0.524	0.898
2dpo	3ado	706	706	0.415	0.434	0.415	0.434
2dpo	3ado	707	707	0.102	0.088	0.102	0.114
2dpo	3ado	708	708	0.12	0.167	0.079	0.099
2dpo	3ado	709	709	0.592	0.586	0.596	0.59
2dpo	3ado	710	710	0.009	0.009	0.004	0.006
2dpo	3ado	711	711	0.897	0.873	0.897	0.873
2dpo	3ado	712	712	0.0	0.0	0.0	0.0
2dpo	3ado	713	713	0.668	0.754	0.661	0.604
2dpo	3ado	714	714	0.941	0.633	0.891	0.765
2dpo	3ado	715	715	0.818	0.819	0.818	0.819
2dpo	3ado	716	716	0.0	0.0	0.0	0.0
2dpo	3ado	717	717	0.062	0.049	0.038	0.065
2dpo	3ado	718	718	0.0	0.0	0.0	0.0
2dpo	3ado	719	719	0.396	0.375	0.396	0.428
2dpo	3ado	720	720	0.514	0.617	0.496	0.633
2dpo	3ado	721	721	0.0	0.0	0.0	0.0
2dpo	3ado	722	722	0.072	0.084	0.071	0.119
2dpo	3ado	723	723	0.709	0.757	0.7	0.666
2dpo	3ado	724	724	0.464	0.508	0.399	0.437
2dpo	3ado	725	725	0.0	0.0	0.0	0.0
2dpo	3ado	726	726	0.344	0.453	0.355	0.419
2dpo	3ado	727	727	0.069	0.082	0.06	0.083
2dpo	3ado	728	728	0.494	0.688	0.488	0.442
2dpo	3ado	729	729	0.18	0.152	0.174	0.283
2dpo	3ado	730	730	0.253	0.245	0.294	0.315
2dpo	3ado	731	731	0.132	0.088	0.091	0.183
2dpo	3ado	732	732	0.054	0.07	0.047	0.049
2dpo	3ado	733	733	0.572	0.355	0.524	0.479
2dpo	3ado	734	734	0.005	0.013	0.0	0.063
2dpo	3ado	735	735	0.0	0.0	0.0	0.0
2dpo	3ado	736	736	0.102	0.238	0.102	0.122
2dpo	3ado	737	737	0.301	0.294	0.304	0.281
2dpo	3ado	738	738	0.204	0.225	0.205	0.211
2dpo	3ado	739	739	0.172	0.164	0.195	0.112
2dpo	3ado	740	740	0.213	0.178	0.233	0.314
2dpo	3ado	741	741	0.383	0.375	0.406	0.378
2dpo	3ado	742	742	0.555	0.778	0.545	0.648
2dpo	3ado	743	743	0.335	0.367	0.383	0.41
2dpo	3ado	744	744	0.296	0.312	0.425	0.445
2dpo	3ado	745	745	0.009	0.009	0.037	0.037
2dpo	3ado	746	746	0.397	0.647	0.373	0.598
2dpo	3ado	747	747	0.027	0.049	0.032	0.029
2dpo	3ado	748	748	0.825	0.225	0.825	0.225
2dpo	3ado	749	749	0.8	0.721	0.8	0.721
2dpo	3ado	750	750	0.085	0.082	0.135	0.136
2dpo	3ado	751	751	0.377	0.371	0.35	0.351
2dpo	3ado	752	752	0.585	0.527	0.574	0.54
2dpo	3ado	753	753	0.0	0.0	0.0	0.0
2dpo	3ado	754	754	0.0	0.019	0.0	0.211
2dpo	3ado	755	755	0.082	0.118	0.09	0.169
2dpo	3ado	756	756	0.556	0.673	0.494	0.504
2dpo	3ado	757	757	0.284	0.282	0.268	0.415
2dpo	3ado	758	758	0.199	0.158	0.192	0.281
2dpo	3ado	759	759	0.5	0.628	0.495	0.634
2dpo	3ado	760	760	1.0	0	1.0	0
2dpo	3ado	761	761	0.402	0.2	0.414	0.29
2dpo	3ado	762	762	0.0	0.0	0.0	0.002
2dpo	3ado	763	763	0.185	0.149	0.183	0.15
2dpo	3ado	764	764	0.71	0.714	0.751	0.82
2dpo	3ado	765	765	0.18	0.231	0.156	0.225
2dpo	3ado	766	766	0.0	0.0	0.0	0.0
2dpo	3ado	767	767	0.0	0.0	0.0	0.0
2dpo	3ado	768	768	0.749	0.768	0.75	0.739
2dpo	3ado	769	769	0.0	0.001	0.007	0.015
2dpo	3ado	770	770	0.0	0.0	0.0	0.0
2dpo	3ado	771	771	0.33	0.445	0.337	0.312
2dpo	3ado	772	772	0.281	0.364	0.261	0.391
2dpo	3ado	773	773	0.435	0.444	0.425	0.392
2dpo	3ado	774	774	0.359	0.469	0.418	0.393
2dpo	3ado	775	775	0.432	0.402	0.418	0.45
2dpo	3ado	776	776	0.274	0.344	0.251	0.332
2dpo	3ado	777	777	0.727	0.789	0.727	0.789
2dpo	3ado	778	778	0.791	0.807	0.84	0.996
2dpo	3ado	779	779	0.444	0.354	0.405	0.312
2dpo	3ado	780	780	0.5	0.529	0.472	0.547
2dpo	3ado	781	781	0.44	0.545	0.508	0.446
2dpo	3ado	782	782	0.672	0.735	0.672	0.735
2dpo	3ado	783	783	0.461	0.471	0.461	0.471
2dpo	3ado	784	784	0.062	0.05	0.062	0.05
2dpo	3ado	785	785	0.306	0.299	0.306	0.299
2dpo	3ado	786	786	0.362	0.343	0.396	0.373
2dpo	3ado	787	787	0.0	0.0	0.009	0.025
2dpo	3ado	788	788	0.0	0.0	0.0	0.0
2dpo	3ado	789	789	0.053	0.08	0.038	0.114
2dpo	3ado	790	790	0.281	0.36	0.281	0.36
2dpo	3ado	791	791	0.0	0.0	0.0	0.0
2dpo	3ado	792	792	0.639	0.647	0.664	0.569
2dpo	3ado	793	793	0.531	0.82	0.555	0.258
2dpo	3ado	794	794	0.803	0.776	0.822	0.899
2dpo	3ado	795	795	0.249	0.306	0.195	0.203
2dpo	3ado	796	796	0.035	0.069	0.047	0.059
2dpo	3ado	797	797	0.508	0.624	0.47	0.726
2dpo	3ado	798	798	0.77	0.73	0.77	0.73
2dpo	3ado	799	799	0.382	0.388	0.382	0.388
2dpo	3ado	800	800	0.644	0.566	0.716	0.482
2dpo	3ado	801	801	0.372	0.362	0.404	0.436
2dpo	3ado	802	802	0.25	0.251	0.25	0.112
2dpo	3ado	803	803	0.811	0.761	0.801	0.912
2dpo	3ado	804	804	0.797	0.814	0.762	0.851
2dpo	3ado	805	805	0.53	0.685	0.449	0.502
2dpo	3ado	806	806	0.66	0.697	0.681	0.51
2dpo	3ado	807	807	0.117	0.114	0.14	0.201
2dpo	3ado	808	808	0.399	0.323	0.398	0.346
2dpo	3ado	809	809	0.754	0.825	0.754	0.825
2dpo	3ado	810	810	0.805	0.758	0.8	0.75
2dpo	3ado	811	811	0.0	0.0	0.001	0.001
2dpo	3ado	812	812	0.509	0.696	0.509	0.696
2dpo	3ado	813	813	1.0	0	1.0	0
2dpo	3ado	814	814	0.876	0.832	0.876	0.832
2dpo	3ado	815	815	0.55	0.5	0.55	0.5
2dpo	3ado	816	816	0.328	0.193	0.269	0.111
2dpo	3ado	817	817	0.085	0.041	0.098	0.134
2dpo	3ado	818	818	0.037	0.034	0.034	0.016
2dpo	3ado	819	819	0.205	0.262	0.205	0.262
2dpo	3ado	820	820	0.108	0.111	0.088	0.075
2dpo	3ado	821	821	0.302	0.282	0.283	0.293
2dpo	3ado	822	822	0.662	0.685	0.662	0.685
2dpo	3ado	823	823	0.586	0.642	0.563	0.558
2dpo	3ado	824	824	0.646	0.684	0.646	0.991
2dpo	3ado	825	825	0.574	0.49	0.575	0.49
2dpo	3ado	826	826	0.286	0.262	0.286	0.262
2dpo	3ado	828	828	0.244	0.338	0.268	0.352
2dpo	3ado	829	829	0.811	0.677	0.807	0.664
2dpo	3ado	830	830	0.001	0.004	0.01	0.008
2dpo	3ado	831	831	0.0	0.0	0.0	0.0
2dpo	3ado	832	832	0.0	0.0	0.0	0.0
2dpo	3ado	833	833	0.279	0.195	0.295	0.224
2dpo	3ado	834	834	0.252	0.277	0.241	0.198
2dpo	3ado	835	835	0.0	0.0	0.0	0.0
2dpo	3ado	836	836	0.431	0.409	0.456	0.344
2dpo	3ado	837	837	0.744	0.819	0.695	0.767
2dpo	3ado	838	838	0.868	0.798	0.847	0.814
2dpo	3ado	839	839	0.863	0.84	0.863	0.84
2dpo	3ado	840	840	0.381	0.23	0.314	0.215
2dpo	3ado	841	841	0.706	0.521	0.71	0.763
2dpo	3ado	842	842	0.814	0.785	0.794	0.847
2dpo	3ado	843	843	0.884	0.911	0.868	0.766
2dpo	3ado	844	844	0.738	0.304	0.738	0.906
2dpo	3ado	845	845	0.0	0.0	0.0	0.0
2dpo	3ado	846	846	0.742	0.712	0.742	0.712
2dpo	3ado	849	849	0.494	0.437	0.459	0.461
2dpo	3ado	850	850	0.519	0.508	0.517	0.626
2dpo	3ado	851	851	0.135	0.102	0.15	0.118
2dpo	3ado	852	852	0.854	0.854	0.895	0.797
2dpo	3ado	853	853	0.145	0.14	0.118	0.094
2dpo	3ado	854	854	0.246	0.192	0.261	0.168
2dpo	3ado	855	855	0.291	0.364	0.313	0.427
2dpo	3ado	856	856	0.533	0.56	0.549	0.802
2dpo	3ado	858	858	0.484	0.623	0.473	0.646
2dpo	3ado	859	859	0.274	0.235	0.257	0.241
2dpo	3ado	860	860	1.0	0	1.0	0
2dpo	3ado	868	868	0.018	0.034	0.024	0.034
2dpo	3ado	869	869	0.558	0.537	0.528	0.514
2dpo	3ado	870	870	0.77	0.676	0.758	0.653
2dpo	3ado	871	871	0.507	0.531	0.494	0.73
2dpo	3ado	872	872	0.578	0.627	0.539	0.653
2dpo	3ado	873	873	0.356	0.35	0.357	0.35
2dpo	3ado	874	874	0.732	0.597	0.732	0.597
2dpo	3ado	875	875	0.126	0.126	0.131	0.141
2dpo	3ado	878	878	0.505	0.518	0.482	0.526
2dpo	3ado	879	879	0.541	0.598	0.53	0.713
2dpo	3ado	880	880	0.675	0.71	0.658	0.691
2dpo	3ado	881	881	0.686	0.668	0.732	0.757
2dpo	3ado	882	882	0.554	0.581	0.583	0.57
2dpo	3ado	883	883	0.527	0.5	0.541	0.523
2dpo	3ado	884	884	0.0	0.005	0.0	0.021
2dpo	3ado	885	885	0.0	0.0	0.0	0.004
2dpo	3ado	886	886	0.86	0.82	0.86	0.82
2dpo	3ado	887	887	0.0	0.0	0.0	0.0
2dpo	3ado	888	888	0.0	0.0	0.0	0.0
2dpo	3ado	889	889	0.0	0.0	0.0	0.0
2dpo	3ado	890	890	0.03	0.025	0.022	0.02
2dpo	3ado	891	891	0.0	0.0	0.0	0.002
2dpo	3ado	892	892	0.0	0.0	0.0	0.0
2dpo	3ado	893	893	0.143	0.156	0.094	0.091
2dpo	3ado	894	894	0.0	0.0	0.0	0.007
2dpo	3ado	895	895	0.437	0.627	0.429	0.435
2dpo	3ado	896	896	0.578	0.446	0.542	0.415
2dpo	3ado	897	897	0.006	0.02	0.018	0.023
2dpo	3ado	898	898	0.103	0.093	0.163	0.17
2dpo	3ado	899	899	0.892	0.764	0.902	0.665
2dpo	3ado	900	900	0.01	0.01	0.063	0.061
2dpo	3ado	901	901	0.0	0.0	0.0	0.0
2dpo	3ado	902	902	0.0	0.0	0.0	0.0
2dpo	3ado	903	903	0.248	0.293	0.207	0.224
2dpo	3ado	904	904	0.104	0.123	0.104	0.11
2dpo	3ado	905	905	0.376	0.332	0.297	0.234
2dpo	3ado	906	906	0.193	0.168	0.173	0.179
2dpo	3ado	907	907	0.0	0.0	0.0	0.0
2dpo	3ado	908	908	0.0	0.0	0.0	0.0
2dpo	3ado	909	909	0.056	0.075	0.054	0.077
2dpo	3ado	910	910	0.103	0.119	0.104	0.157
2dpo	3ado	911	911	0.034	0.036	0.038	0.03
2dpo	3ado	912	912	0.0	0.0	0.0	0.001
2dpo	3ado	913	913	0.0	0.0	0.0	0.0
2dpo	3ado	914	914	0.441	0.449	0.434	0.445
2dpo	3ado	915	915	0.811	0.691	0.811	0.691
2dpo	3ado	916	916	0.497	0.526	0.497	0.526
2dpo	3ado	917	917	0.642	0.641	0.648	0.643
2dpo	3ado	918	918	0.879	0.686	0.883	0.865
2dpo	3ado	919	919	0.333	0.276	0.335	0.268
2dpo	3ado	920	920	1.0	1.0	0.7	0.56
2dpo	3ado	921	921	0.671	0.708	0.671	0.708
2dpo	3ado	922	922	0.325	0.292	0.364	0.35
2dpo	3ado	923	923	0.092	0.117	0.136	0.141
2dpo	3ado	924	924	0.608	0.67	0.557	0.561
2dpo	3ado	925	925	0.493	0.475	0.459	0.506
2dpo	3ado	926	926	0.849	0.861	0.835	0.684
2dpo	3ado	927	927	0.305	0.314	0.312	0.339
2dpo	3ado	928	928	0.602	0.738	0.616	0.622
2dpo	3ado	929	929	0.385	0.626	0.359	0.432
2dpo	3ado	930	930	0.864	0.895	0.832	0.861
2dpo	3ado	931	931	0.691	0.606	0.685	0.782
2dpo	3ado	932	932	0.896	0.863	0.918	0.929
2dpo	3ado	933	933	0.9	0.0	0.9	0.0
2dpo	3ado	934	934	0.9	0.733	0.9	0.733
2dpo	3ado	935	935	0.217	0.028	0.177	0.028
2dpo	3ado	936	936	0.57	0.611	0.505	0.535
2dpo	3ado	937	937	0.189	0.175	0.177	0.162
2dpo	3ado	938	938	0.344	0.195	0.36	0.42
2dpo	3ado	939	939	0.563	0.853	0.559	0.853
2dpo	3ado	940	940	0.921	0.86	0.91	0.948
2dpo	3ado	941	941	0.117	0.115	0.133	0.126
2dpo	3ado	942	942	0.572	0.499	0.572	0.499
2dpo	3ado	943	943	0.658	0.645	0.658	0.645
2dpo	3ado	944	944	0.151	0.221	0.165	0.166
2dpo	3ado	945	945	0.125	0.112	0.107	0.096
2dpo	3ado	946	946	0.0	0.029	0.0	0.192
2dpo	3ado	947	947	0.133	0.166	0.165	0.222
2dpo	3ado	948	948	0.637	0.477	0.681	0.565
2dpo	3ado	949	949	0.0	0.0	0.0	0.0
2dpo	3ado	950	950	0.0	0.0	0.0	0.0
2dpo	3ado	951	951	0.0	0.008	0.0	0.004
2dpo	3ado	952	952	0.326	0.246	0.326	0.183
2dpo	3ado	953	953	0.542	0.524	0.436	0.433
2dpo	3ado	954	954	0.0	0.0	0.0	0.0
2dpo	3ado	955	955	0.0	0.002	0.0	0.006
2dpo	3ado	956	956	0.354	0.41	0.333	0.4
2dpo	3ado	957	957	0.408	0.561	0.422	0.409
2dpo	3ado	958	958	0.158	0.187	0.141	0.205
2dpo	3ado	959	959	0.096	0.088	0.137	0.148
2dpo	3ado	960	960	0.007	0.01	0.012	0.007
2dpo	3ado	961	961	0.431	0.532	0.459	0.442
2dpo	3ado	962	962	0.0	0.008	0.0	0.015
2dpo	3ado	963	963	0.0	0.0	0.035	0.029
2dpo	3ado	964	964	0.838	0.899	0.838	0.899
2dpo	3ado	965	965	0.776	0.646	0.776	0.646
2dpo	3ado	966	966	0.0	0.0	0.0	0.0
2dpo	3ado	967	967	0.0	0.0	0.0	0.0
2dpo	3ado	968	968	0.0	0.001	0.0	0.0
2dpo	3ado	969	969	0.013	0.012	0.017	0.018
2dpo	3ado	970	970	0.226	0.24	0.195	0.197
2dpo	3ado	971	971	0.908	0.973	0.908	0.973
2dpo	3ado	972	972	0.0	0.0	0.0	0.0
2dpo	3ado	973	973	0.244	0.303	0.244	0.303
2dpo	3ado	974	974	0.027	0.011	0.016	0.003
2dpo	3ado	975	975	0.808	0.838	0.808	0.838
2dpo	3ado	976	976	0.102	0.136	0.088	0.123
2dpo	3ado	977	977	0.691	0.706	0.691	0.706
2dpo	3ado	978	978	0.716	0.807	0.716	0.807
2dpo	3ado	979	979	0.0	0.0	0.0	0.0
2dpo	3ado	980	980	0.0	0.0	0.0	0.0
2dpo	3ado	981	981	0.083	0.154	0.08	0.079
2dpo	3ado	982	982	0.308	0.301	0.33	0.318
2dpo	3ado	983	983	0.142	0.143	0.17	0.186
2dpo	3ado	984	984	0.037	0.066	0.036	0.117
2dpo	3ado	985	985	0.277	0.309	0.225	0.075
2dpo	3ado	986	986	0.0	0.047	0.0	0.018
2dpo	3ado	987	987	0.096	0.072	0.106	0.092
2dpo	3ado	988	988	0.388	0.383	0.388	0.383
2dpo	3ado	989	989	0.368	0.452	0.368	0.452
2dpo	3ado	990	990	0.266	0.368	0.266	0.368
2dpo	3ado	991	991	0.0	0.0	0.0	0.0
2dpo	3ado	992	992	0.519	0.529	0.495	0.703
2dpo	3ado	993	993	0.665	0.699	0.618	0.779
2dpo	3ado	994	994	0.646	0.67	0.649	0.792
2dpo	3ado	995	995	0.5	0.5	0.5	0.5
2dpo	3ado	996	996	0.551	0.666	0.555	0.643
2dpo	3ado	997	997	0.933	0.117	0.933	0.117
2dpo	3ado	998	998	0.217	0.361	0.191	0.232
2dpo	3ado	999	999	0.933	0.967	0.933	0.967
2dpo	3ado	1000	1000	0.836	0.845	0.836	0.845
2dpo	3ado	1001	1001	0.0	0.0	0.0	0.0
2dpo	3ado	1002	1002	0.88	0.973	0.848	0.912
2dpo	3ado	1003	1003	0.534	0.555	0.534	0.555
2dpo	3ado	1004	1004	0.0	0.006	0.011	0.054
2dpo	3ado	1005	1005	0.45	0.4	0.45	0.4
2dpo	3ado	1006	1006	0.586	0.669	0.522	0.558
2dpo	3ado	1007	1007	0.771	0.776	0.771	0.776
2dpo	3ado	1008	1008	0.613	0.565	0.654	0.62
2dpo	3ado	1009	1009	0.0	0.0	0.0	0.0
2dpo	3ado	1010	1010	0.0	0.0	0.0	0.0
2dpo	3ado	1011	1011	0.302	0.32	0.339	0.251
2dpo	3ado	1012	1012	0.428	0.472	0.375	0.4
2dpo	3ado	1013	1013	0.0	0.0	0.0	0.0
2dpo	3ado	1014	1014	0.373	0.368	0.373	0.381
2dpo	3ado	1015	1015	0.0	0.0	0.0	0.0
2dpo	3ado	1016	1016	0.0	0.0	0.0	0.0
2dpo	3ado	1017	1017	0.0	0.0	0.0	0.0
2dpo	3ado	1018	1018	0.395	0.439	0.394	0.437
2dpo	3ado	1019	1019	0.205	0.319	0.19	0.241
2dpo	3ado	1020	1020	0.746	0.946	0.746	0.946
2dpo	3ado	1021	1021	0.135	0.136	0.112	0.126
2dpo	3ado	1022	1022	0.0	0.0	0.0	0.001
2dpo	3ado	1023	1023	0.0	0.0	0.0	0.009
2dpo	3ado	1024	1024	0.0	0.012	0.0	0.0
2dpo	3ado	1025	1025	0.0	0.0	0.0	0.0
2dpo	3ado	1026	1026	0.0	0.0	0.0	0.0
2dpo	3ado	1027	1027	0.353	0.357	0.382	0.371
2dpo	3ado	1028	1028	0.117	0.106	0.09	0.089
2dpo	3ado	1029	1029	0.0	0.0	0.0	0.0
2dpo	3ado	1030	1030	0.094	0.212	0.094	0.212
2dpo	3ado	1031	1031	0.927	0.8	0.927	0.8
2dpo	3ado	1032	1032	0.31	0.317	0.326	0.33
2dpo	3ado	1033	1033	0.058	0.058	0.069	0.078
2dpo	3ado	1034	1034	0.123	0.278	0.108	0.27
2dpo	3ado	1035	1035	0.365	0.385	0.325	0.314
2dpo	3ado	1036	1036	0.0	0.0	0.0	0.0
2dpo	3ado	1037	1037	0.58	0.789	0.587	0.601
2dpo	3ado	1038	1038	0.48	0.477	0.462	0.488
2dpo	3ado	1039	1039	0.0	0.0	0.0	0.0
2dpo	3ado	1040	1040	0.246	0.234	0.236	0.278
2dpo	3ado	1041	1041	0.754	0.752	0.83	0.823
2dpo	3ado	1042	1042	0.087	0.14	0.06	0.073
2dpo	3ado	1043	1043	0.069	0.052	0.08	0.07
2dpo	3ado	1044	1044	0.178	0.197	0.178	0.197
2dpo	3ado	1045	1045	0.619	0.588	0.619	0.588
2dpo	3ado	1046	1046	0.093	0.122	0.12	0.154
2dpo	3ado	1047	1047	0.0	0.0	0.0	0.0
2dpo	3ado	1048	1048	0.0	0.0	0.0	0.0
2dpo	3ado	1049	1049	0.539	0.572	0.515	0.491
2dpo	3ado	1050	1050	0.382	0.347	0.367	0.397
2dpo	3ado	1051	1051	0.0	0.0	0.0	0.0
2dpo	3ado	1052	1052	0.0	0.0	0.0	0.0
2dpo	3ado	1053	1053	0.097	0.077	0.092	0.062
2dpo	3ado	1054	1054	0.0	0.033	0.0	0.056
2dpo	3ado	1055	1055	0.054	0.16	0.056	0.162
2dpo	3ado	1056	1056	0.303	0.409	0.323	0.486
2dpo	3ado	1057	1057	0.0	0.0	0.0	0.0
2dpo	3ado	1058	1058	0.0	0.0	0.0	0.0
2dpo	3ado	1059	1059	0.143	0.134	0.105	0.121
2dpo	3ado	1060	1060	0.302	0.592	0.314	0.478
2dpo	3ado	1061	1061	0.125	0.136	0.044	0.051
2dpo	3ado	1062	1062	0.0	0.0	0.0	0.0
2dpo	3ado	1063	1063	0.082	0.069	0.089	0.068
2dpo	3ado	1064	1064	0.18	0.207	0.174	0.108
2dpo	3ado	1065	1065	0.484	0.442	0.46	0.52
2dpo	3ado	1066	1066	0.122	0.129	0.11	0.118
2dpo	3ado	1067	1067	0.688	0.846	0.708	0.803
2dpo	3ado	1068	1068	0.0	0.0	0.0	0.0
2dpo	3ado	1069	1069	0.292	0.356	0.272	0.311
2dpo	3ado	1070	1070	0.0	0.0	0.0	0.0
2dpo	3ado	1071	1071	0.435	0.425	0.475	0.331
2dpo	3ado	1072	1072	0.024	0.05	0.074	0.076
2dpo	3ado	1073	1073	0.264	0.322	0.324	0.381
2dpo	3ado	1074	1074	0.0	0.0	0.0	0.0
2dpo	3ado	1075	1075	0.0	0.0	0.0	0.0
2dpo	3ado	1079	1079	0.013	0.015	0.016	0.012
2dpo	3ado	1080	1080	0.0	0.0	0.0	0.0
2dpo	3ado	1081	1081	0.0	0.02	0.009	0.043
2dpo	3ado	1082	1082	0.0	0.0	0.0	0.0
2dpo	3ado	1083	1083	0.683	0.441	0.613	0.567
2dpo	3ado	1084	1084	0.274	0.205	0.239	0.291
2dpo	3ado	1085	1085	0.0	0.0	0.0	0.0
2dpo	3ado	1086	1086	0.0	0.0	0.0	0.0
2dpo	3ado	1087	1087	0.0	0.0	0.0	0.0
2dpo	3ado	1088	1088	0.0	0.0	0.0	0.0
2dpo	3ado	1090	1090	0.0	0.0	0.0	0.0
2dpo	3ado	1091	1091	0.0	0.0	0.0	0.0
2dpo	3ado	1092	1092	0.095	0.106	0.115	0.123
