pred	succ	p-cen	s-cen	p_q-score	p_s-score	s_q-score	s_s-score
3l83	3m3p	4	18	0.726	0.739	0.751	0.753
3l83	3m3p	5	19	0.421	0.436	0.452	0.467
3l83	3m3p	6	20	0.247	0.356	0.21	0.386
3l83	3m3p	7	21	0.121	0.109	0.126	0.13
3l83	3m3p	8	22	0.295	0.302	0.204	0.18
3l83	3m3p	10	24	0.65	0.719	0.653	0.654
3l83	3m3p	11	25	0.0	0.0	0.0	0.0
3l83	3m3p	13	27	0.0	0.0	0.0	0.0
3l83	3m3p	14	28	0.223	0.308	0.225	0.283
3l83	3m3p	15	29	0.416	0.349	0.419	0.408
3l83	3m3p	16	30	0.03	0.03	0.091	0.067
3l83	3m3p	17	31	0.0	0.0	0.0	0.0
3l83	3m3p	18	32	0.129	0.166	0.122	0.139
3l83	3m3p	19	33	0.305	0.424	0.328	0.346
3l83	3m3p	21	35	0.0	0.0	0.0	0.0
3l83	3m3p	25	39	0.647	0.651	0.65	0.59
3l83	3m3p	27	41	0.435	0.489	0.454	0.339
3l83	3m3p	28	42	0.89	0.773	0.887	0.779
3l83	3m3p	30	44	0.498	0.476	0.488	0.477
3l83	3m3p	31	45	0.319	0.338	0.374	0.395
3l83	3m3p	32	46	0.459	0.5	0.458	0.5
3l83	3m3p	33	47	0.072	0.078	0.059	0.084
3l83	3m3p	35	49	0.458	0.665	0.427	0.417
3l83	3m3p	37	51	0.69	0.705	0.751	0.589
3l83	3m3p	38	52	0.608	0.561	0.609	0.551
3l83	3m3p	39	53	1.0	1.0	1.0	1.0
3l83	3m3p	40	54	0.744	0.568	0.747	0.558
3l83	3m3p	41	55	1.0	0	1.0	0
3l83	3m3p	42	56	0.769	0.899	0.757	0.458
3l83	3m3p	43	57	0.006	0.011	0.0	0.003
3l83	3m3p	45	59	0.586	0.596	0.555	0.552
3l83	3m3p	46	60	0.43	0.284	0.426	0.468
3l83	3m3p	47	61	0.107	0.108	0.052	0.08
3l83	3m3p	49	63	0.135	0.138	0.105	0.104
3l83	3m3p	50	64	0.746	0.725	0.757	0.725
3l83	3m3p	51	65	0.111	0.023	0.11	0.448
3l83	3m3p	52	66	0.0	0.0	0.0	0.0
3l83	3m3p	53	67	0.284	0.261	0.339	0.327
3l83	3m3p	54	68	0.842	0.886	0.857	0.873
3l83	3m3p	55	69	0.291	0.288	0.242	0.234
3l83	3m3p	56	70	0.0	0.0	0.0	0.0
3l83	3m3p	57	71	0.0	0.0	0.0	0.0
3l83	3m3p	58	72	0.215	0.263	0.204	0.282
3l83	3m3p	60	74	0.578	0.635	0.555	0.623
3l83	3m3p	61	75	0.0	0.0	0.0	0.0
3l83	3m3p	62	76	0.48	0.654	0.474	0.771
3l83	3m3p	63	77	0.375	0.37	0.349	0.356
3l83	3m3p	67	81	0.354	0.36	0.407	0.418
3l83	3m3p	68	82	0.365	0.339	0.352	0.338
3l83	3m3p	70	84	0.0	0.021	0.0	0.001
3l83	3m3p	75	89	0.473	0.478	0.473	0.45
3l83	3m3p	76	90	0.721	0.752	0.735	0.615
3l83	3m3p	77	91	0.652	0.706	0.711	0.704
3l83	3m3p	82	96	0.0	0.0	0.0	0.0
3l83	3m3p	83	97	0.012	0.011	0.0	0.015
3l83	3m3p	87	101	0.051	0.039	0.052	0.061
3l83	3m3p	88	102	0.153	0.159	0.264	0.385
3l83	3m3p	89	103	0.235	0.323	0.243	0.249
3l83	3m3p	90	104	0.099	0.092	0.068	0.063
3l83	3m3p	92	106	0.541	0.619	0.48	0.427
3l83	3m3p	94	108	0.89	0.769	0.936	0.952
3l83	3m3p	95	109	0.293	0.372	0.316	0.366
3l83	3m3p	96	110	0.097	0.111	0.094	0.089
3l83	3m3p	97	111	0.861	0.939	0.885	0.895
3l83	3m3p	98	112	0.214	0.271	0.25	0.278
3l83	3m3p	99	113	0.0	0.0	0.0	0.027
3l83	3m3p	100	114	0.665	0.417	0.729	0.464
3l83	3m3p	101	115	0.799	0.743	0.743	0.667
3l83	3m3p	102	116	0.263	0.276	0.291	0.366
3l83	3m3p	103	117	0.312	0.37	0.404	0.456
3l83	3m3p	104	118	0.366	0.345	0.4	0.363
3l83	3m3p	105	119	0.707	0.683	0.701	0.714
3l83	3m3p	107	121	0.529	0.525	0.479	0.481
3l83	3m3p	108	122	0.458	0.443	0.515	0.502
3l83	3m3p	109	123	0.75	0.5	0.5	0.0
3l83	3m3p	110	124	0.554	0.508	0.702	0.707
3l83	3m3p	111	125	0.324	0.42	0.29	0.347
3l83	3m3p	112	126	0.8	0.805	0.764	0.65
3l83	3m3p	113	127	0.0	0.003	0.0	0.004
3l83	3m3p	114	128	0.125	0.293	0.122	0.177
3l83	3m3p	115	129	0.082	0.126	0.09	0.197
3l83	3m3p	117	131	0.072	0.137	0.027	0.037
3l83	3m3p	118	132	0.822	0.807	0.838	0.823
3l83	3m3p	119	133	0.704	0.779	0.712	0.767
3l83	3m3p	120	134	0.621	0.575	0.591	0.558
3l83	3m3p	121	135	0.289	0.325	0.292	0.315
3l83	3m3p	123	137	0.4	0.301	0.404	0.324
3l83	3m3p	125	139	0.109	0.117	0.11	0.095
3l83	3m3p	126	140	0.213	0.203	0.234	0.222
3l83	3m3p	128	142	0.3	0.385	0.324	0.248
3l83	3m3p	131	145	0.411	0.725	0.384	0.493
3l83	3m3p	132	146	0.689	0.774	0.716	0.821
3l83	3m3p	133	147	0.822	0.792	0.781	0.772
3l83	3m3p	136	150	0.158	0.374	0.15	0.392
3l83	3m3p	138	152	0.357	0.395	0.255	0.29
3l83	3m3p	144	158	0.149	0.144	0.119	0.116
3l83	3m3p	145	159	0.0	0.003	0.0	0.002
3l83	3m3p	146	160	0.16	0.144	0.155	0.141
3l83	3m3p	147	161	0.143	0.219	0.166	0.289
3l83	3m3p	150	164	0.561	0.713	0.553	0.715
3l83	3m3p	151	165	0.0	0.006	0.0	0.013
3l83	3m3p	153	167	0.719	0.775	0.725	0.775
3l83	3m3p	154	168	0.657	0.804	0.621	0.76
3l83	3m3p	155	169	0.339	0.299	0.34	0.261
3l83	3m3p	156	170	0.504	0.705	0.487	0.479
3l83	3m3p	157	171	0.523	0.535	0.573	0.616
3l83	3m3p	158	172	1.0	1.0	1.0	1.0
3l83	3m3p	159	173	0.875	0.814	0.829	0.578
3l83	3m3p	162	176	0.737	0.82	0.763	0.8
3l83	3m3p	163	177	0.822	0.77	0.825	0.769
3l83	3m3p	167	181	0.753	0.95	0.766	0.812
3l83	3m3p	168	182	0.432	0.505	0.426	0.507
3l83	3m3p	171	185	0.396	0.427	0.347	0.392
3l83	3m3p	177	191	0.0	0.002	0.0	0.001
3l83	3m3p	180	194	0.182	0.166	0.17	0.21
3l83	3m3p	181	195	0.0	0.0	0.0	0.0
3l83	3m3p	186	200	1.0	0	1.0	0
3l83	3m3p	187	201	1.0	0	1.0	0
3l83	3m3p	188	202	0.152	0.12	0.161	0.118
3l83	3m3p	189	203	0.363	0.519	0.386	0.519
3l83	3m3p	190	204	0.283	0.289	0.266	0.249
3l83	3m3p	193	207	0.527	0.535	0.463	0.477
3l83	3m3p	194	208	0.613	0.617	0.592	0.608
3l83	3m3p	195	209	0.484	0.451	0.513	0.499
3l83	3m3p	197	211	0.646	0.638	0.601	0.601
3l83	3m3p	198	212	0.0	0.0	0.0	0.0
3l83	3m3p	199	213	0.0	0.0	0.0	0.0
3l83	3m3p	200	214	0.078	0.108	0.079	0.057
3l83	3m3p	201	215	0.267	0.334	0.249	0.222
3l83	3m3p	202	216	0.201	0.181	0.195	0.204
3l83	3m3p	203	217	0.193	0.206	0.159	0.164
3l83	3m3p	205	219	0.0	0.0	0.0	0.0
3l83	3m3p	206	220	0.277	0.232	0.288	0.382
3l83	3m3p	207	221	0.074	0.178	0.077	0.114
3l83	3m3p	208	222	0.604	0.609	0.67	0.674
3l83	3m3p	209	223	0.744	0.683	0.822	0.742
3l83	3m3p	210	224	0.0	0.0	0.0	0.0
3l83	3m3p	211	225	0.0	0.0	0.0	0.0
3l83	3m3p	212	226	0.044	0.098	0.029	0.073
3l83	3m3p	213	227	0.15	0.216	0.203	0.258
3l83	3m3p	214	228	0.392	0.468	0.403	0.586
3l83	3m3p	215	229	0.074	0.073	0.036	0.045
3l83	3m3p	216	230	0.0	0.0	0.0	0.0
3l83	3m3p	218	232	0.077	0.029	0.078	0.123
3l83	3m3p	219	233	0.9	0.785	0.871	0.921
3l83	3m3p	221	235	0.0	0.002	0.0	0.0
3l83	3m3p	222	236	0.703	0.873	0.729	0.879
3l83	3m3p	224	238	0.023	0.019	0.008	0.006
3l83	3m3p	225	239	0.0	0.001	0.0	0.0
3l83	3m3p	226	240	0.428	0.424	0.379	0.36
3l83	3m3p	227	241	0.468	0.519	0.462	0.479
3l83	3m3p	228	242	0.761	0.537	0.758	0.841
3l83	3m3p	229	243	0.0	0.0	0.0	0.0
3l83	3m3p	230	244	0.521	0.54	0.527	0.54
3l83	3m3p	231	245	1.0	0	1.0	0
3l83	3m3p	233	247	0.351	0.352	0.295	0.293
3l83	3m3p	234	248	0.0	0.0	0.0	0.0
3l83	3m3p	235	249	0.077	0.046	0.053	0.05
3l83	3m3p	236	250	0.015	0.077	0.006	0.046
3l83	3m3p	237	251	0.335	0.461	0.304	0.493
3l83	3m3p	238	252	0.865	0.941	0.851	0.909
3l83	3m3p	239	253	0.474	0.409	0.488	0.513
3l83	3m3p	241	255	0.335	0.164	0.323	0.407
3l83	3m3p	243	257	0.0	0.0	0.0	0.002
3l83	3m3p	244	258	0.303	0.275	0.344	0.412
3l83	3m3p	249	263	0.774	0.364	0.783	0.366
3l83	3m3p	251	265	0.721	0.704	0.723	0.651
3l83	3m3p	252	266	0.212	0.203	0.227	0.205
3l83	3m3p	253	267	0.084	0.121	0.084	0.111
3l83	3m3p	254	268	0.171	0.321	0.169	0.309
3l83	3m3p	255	269	0.188	0.202	0.222	0.237
3l83	3m3p	256	270	0.408	0.377	0.437	0.472
3l83	3m3p	257	271	0.673	0.742	0.66	0.692
3l83	3m3p	258	272	0.447	0.613	0.451	0.664
3l83	3m3p	259	273	1.0	0	1.0	0
3l83	3m3p	260	274	0.282	0.271	0.361	0.297
3l83	3m3p	262	276	1.0	0	1.0	0
3l83	3m3p	263	277	0.643	0.923	0.61	0.607
3l83	3m3p	265	279	0.0	0.0	0.0	0.0
3l83	3m3p	266	280	0.015	0.143	0.026	0.08
3l83	3m3p	267	281	0.398	0.442	0.433	0.478
3l83	3m3p	268	282	0.556	0.543	0.604	0.63
3l83	3m3p	269	283	0.612	0.802	0.588	0.712
3l83	3m3p	270	284	0.524	0.519	0.525	0.529
3l83	3m3p	271	285	0.0	0.043	0.0	0.025
3l83	3m3p	273	287	0.829	0.891	0.83	0.9
3l83	3m3p	274	288	0.019	0.022	0.042	0.025
3l83	3m3p	275	289	0.0	0.0	0.0	0.001
3l83	3m3p	276	290	0.0	0.0	0.0	0.0
3l83	3m3p	277	291	0.027	0.02	0.056	0.065
3l83	3m3p	278	292	0.087	0.229	0.069	0.235
3l83	3m3p	279	293	0.725	0.743	0.729	0.718
3l83	3m3p	281	295	0.157	0.324	0.17	0.329
3l83	3m3p	282	296	0.148	0.182	0.154	0.109
3l83	3m3p	284	298	0.26	0.245	0.337	0.352
3l83	3m3p	285	299	0.47	0.686	0.405	0.628
3l83	3m3p	286	300	0.441	0.439	0.441	0.446
3l83	3m3p	288	302	0.021	0.05	0.0	0.01
3l83	3m3p	290	304	0.502	0.647	0.608	0.57
3l83	3m3p	292	306	0.391	0.348	0.455	0.597
3l83	3m3p	293	307	0.751	0.881	0.763	0.972
3l83	3m3p	294	308	0.0	0.0	0.0	0.0
3l83	3m3p	295	309	0.058	0.043	0.066	0.091
3l83	3m3p	296	310	0.126	0.125	0.135	0.121
3l83	3m3p	298	312	0.842	0.803	0.864	0.921
3l83	3m3p	299	313	0.743	0.735	0.839	0.803
3l83	3m3p	300	314	0.697	0.694	0.664	0.635
3l83	3m3p	302	316	0.162	0.198	0.116	0.4
3l83	3m3p	303	317	0.614	0.743	0.499	0.682
3l83	3m3p	304	318	0.0	0.0	0.0	0.0
3l83	3m3p	305	319	0.181	0.325	0.207	0.307
3l83	3m3p	306	320	0.63	0.676	0.627	0.673
3l83	3m3p	308	322	0.226	0.255	0.202	0.254
3l83	3m3p	309	323	0.709	0.693	0.678	0.728
3l83	3m3p	310	324	0.031	0.056	0.026	0.058
3l83	3m3p	311	325	0.092	0.106	0.101	0.104
3l83	3m3p	312	326	0.31	0.296	0.277	0.208
3l83	3m3p	313	327	0.744	0.728	0.746	0.755
3l83	3m3p	315	329	0.347	0.237	0.29	0.188
3l83	3m3p	316	330	0.262	0.299	0.258	0.297
3l83	3m3p	317	331	0.266	0.365	0.306	0.369
3l83	3m3p	318	332	0.83	0.852	0.846	0.835
3l83	3m3p	319	333	1.0	1.0	1.0	1.0
3l83	3m3p	320	334	0.0	0	0.0	0
3l83	3m3p	321	335	0.325	0.403	0.323	0.33
3l83	3m3p	322	336	0.842	0.88	0.839	0.894
3l83	3m3p	323	337	0.169	0.157	0.145	0.146
3l83	3m3p	327	341	0.388	0.659	0.4	0.592
3l83	3m3p	328	342	0.0	0.007	0.002	0.026
3l83	3m3p	329	343	0.092	0.168	0.088	0.131
3l83	3m3p	331	345	0.347	0.437	0.309	0.411
3l83	3m3p	333	347	0.256	0.303	0.241	0.236
3l83	3m3p	334	348	0.745	0.773	0.743	0.762
3l83	3m3p	335	349	0.9	0.5	0.9	0.0
3l83	3m3p	336	350	0.0	0.0	0.0	0.002
3l83	3m3p	341	355	0.266	0.265	0.264	0.253
3l83	3m3p	343	357	0.446	0.405	0.445	0.401
3l83	3m3p	344	358	0.258	0.365	0.258	0.368
3l83	3m3p	345	359	0.333	0.582	0.366	0.496
3l83	3m3p	346	360	0.612	0.76	0.583	0.724
3l83	3m3p	347	361	0.712	0.837	0.722	0.866
3l83	3m3p	348	362	0.734	0.762	0.744	0.763
3l83	3m3p	349	363	0.889	0.946	0.876	0.923
3l83	3m3p	350	364	0.878	0.822	0.867	0.822
3l83	3m3p	351	365	0.34	0.31	0.334	0.318
3l83	3m3p	352	366	0.489	0.483	0.441	0.569
3l83	3m3p	354	368	0.555	0.555	0.545	0.555
3l83	3m3p	355	369	1.0	0	1.0	0
3l83	3m3p	356	370	0.211	0.193	0.212	0.212
3l83	3m3p	358	372	0.532	0.431	0.466	0.368
3l83	3m3p	359	373	0.435	0.512	0.452	0.39
3l83	3m3p	360	374	0.184	0.256	0.234	0.267
3l83	3m3p	361	375	0.079	0.093	0.163	0.177
3l83	3m3p	363	377	0.16	0.167	0.14	0.153
3l83	3m3p	364	378	0.092	0.177	0.085	0.177
3l83	3m3p	365	379	0.641	0.65	0.64	0.686
3l83	3m3p	366	380	0.713	0.799	0.743	0.795
3l83	3m3p	367	381	0.0	0.0	0.003	0.003
3l83	3m3p	368	382	0.209	0.213	0.257	0.327
3l83	3m3p	369	383	0.138	0.115	0.133	0.115
3l83	3m3p	370	384	0.262	0.273	0.259	0.223
3l83	3m3p	372	386	0.04	0.068	0.01	0.01
3l83	3m3p	374	388	0.446	0.572	0.42	0.445
3l83	3m3p	375	389	1.0	0	1.0	0
3l83	3m3p	376	390	0.697	0.785	0.672	0.726
3l83	3m3p	377	391	0.418	0.284	0.374	0.264
3l83	3m3p	378	392	0.452	0.637	0.433	0.647
3l83	3m3p	379	393	0.471	0.323	0.394	0.332
3l83	3m3p	380	394	0.0	0.0	0.0	0.0
3l83	3m3p	381	395	0.0	0.0	0.0	0.0
3l83	3m3p	382	396	0.263	0.307	0.245	0.319
3l83	3m3p	383	397	0.168	0.151	0.151	0.187
3l83	3m3p	384	398	0.408	0.465	0.442	0.679
3l83	3m3p	385	399	0.228	0.183	0.279	0.167
3l83	3m3p	386	400	0.243	0.331	0.238	0.251
3l83	3m3p	387	401	0.488	0.563	0.422	0.493
3l83	3m3p	388	402	0.201	0.254	0.169	0.164
3l83	3m3p	391	405	1.0	0	1.0	0
3l83	3m3p	392	406	0.705	0.569	0.718	0.625
3l83	3m3p	393	407	0.178	0.185	0.167	0.176
3l83	3m3p	394	408	0.105	0.114	0.105	0.112
3l83	3m3p	395	409	0.0	0.0	0.0	0.0
3l83	3m3p	396	410	0.053	0.039	0.1	0.075
3l83	3m3p	397	411	0.4	0.476	0.423	0.486
3l83	3m3p	398	412	0.338	0.407	0.337	0.408
3l83	3m3p	399	413	0.295	0.244	0.287	0.269
3l83	3m3p	400	414	0.098	0.099	0.106	0.086
3l83	3m3p	401	415	0.0	0.02	0.0	0.012
3l83	3m3p	402	416	0.25	0.313	0.263	0.337
3l83	3m3p	403	417	0.201	0.307	0.134	0.117
3l83	3m3p	404	418	0.0	0.0	0.0	0.0
3l83	3m3p	405	419	0.335	0.336	0.366	0.379
3l83	3m3p	406	420	0.0	0.0	0.0	0.0
3l83	3m3p	407	421	0.686	0.755	0.693	0.744
3l83	3m3p	409	423	0.0	0.021	0.016	0.034
3l83	3m3p	410	424	0.021	0.012	0.012	0.011
3l83	3m3p	411	425	0.613	0.619	0.606	0.613
3l83	3m3p	412	426	0.385	0.511	0.383	0.349
3l83	3m3p	413	427	0.011	0.005	0.019	0.028
3l83	3m3p	414	428	0.715	0.721	0.7	0.713
3l83	3m3p	415	429	0.832	0.851	0.821	0.844
3l83	3m3p	416	430	0.472	0.608	0.495	0.641
3l83	3m3p	417	431	0.396	0.333	0.395	0.622
3l83	3m3p	418	432	0.282	0.545	0.296	0.492
3l83	3m3p	420	434	0.839	0.765	0.833	0.75
3l83	3m3p	421	435	0.663	0.435	0.639	0.422
3l83	3m3p	423	437	0.121	0.124	0.096	0.102
3l83	3m3p	424	438	0.805	0.8	0.784	0.8
3l83	3m3p	425	439	0.462	0.49	0.452	0.37
3l83	3m3p	426	440	0.9	0.9	0.94	0.94
3l83	3m3p	427	441	0.823	0.756	0.749	0.816
3l83	3m3p	428	442	0.643	0.752	0.624	0.719
3l83	3m3p	429	443	0.321	0.442	0.322	0.203
3l83	3m3p	430	444	0.257	0.329	0.269	0.233
3l83	3m3p	431	445	0.496	0.568	0.484	0.705
3l83	3m3p	432	446	0.86	0.89	0.851	0.895
3l83	3m3p	433	447	0.124	0.123	0.154	0.22
3l83	3m3p	434	448	0.77	0.819	0.771	0.819
3l83	3m3p	435	449	0.251	0.344	0.25	0.33
3l83	3m3p	436	450	0.464	0.505	0.452	0.514
3l83	3m3p	437	451	0.239	0.243	0.245	0.252
3l83	3m3p	439	453	0.883	0.786	0.896	0.771
3l83	3m3p	441	455	0.288	0.308	0.321	0.35
3l83	3m3p	442	456	0.199	0.203	0.204	0.275
3l83	3m3p	443	457	0.233	0.214	0.222	0.207
3l83	3m3p	444	458	0.205	0.213	0.205	0.294
3l83	3m3p	445	459	0.57	0.634	0.566	0.628
3l83	3m3p	446	460	0.61	0.602	0.561	0.569
3l83	3m3p	447	461	0.8	0.785	0.793	0.794
3l83	3m3p	449	463	0.967	0.7	0.95	0.8
3l83	3m3p	451	465	0.38	0.379	0.437	0.477
3l83	3m3p	452	466	0.746	0.721	0.734	0.715
3l83	3m3p	453	467	0.186	0.425	0.239	0.314
3l83	3m3p	456	470	0.483	0.483	0.514	0.561
3l83	3m3p	457	471	0.121	0.205	0.127	0.094
3l83	3m3p	458	472	0.814	0.772	0.805	0.777
3l83	3m3p	459	473	0.159	0.031	0.209	0.449
3l83	3m3p	460	474	0.024	0.058	0.042	0.075
3l83	3m3p	461	475	0.0	0.0	0.0	0.008
3l83	3m3p	462	476	0.151	0.221	0.179	0.212
3l83	3m3p	463	477	0.499	0.522	0.472	0.423
3l83	3m3p	464	478	0.323	0.329	0.392	0.439
3l83	3m3p	465	479	0.005	0.103	0.014	0.053
3l83	3m3p	467	481	0.213	0.207	0.22	0.233
3l83	3m3p	468	482	0.293	0.312	0.268	0.245
3l83	3m3p	470	484	0.358	0.519	0.395	0.516
3l83	3m3p	471	485	0.448	0.44	0.447	0.624
3l83	3m3p	474	488	0.836	0.922	0.842	0.936
3l83	3m3p	475	489	0.417	0.563	0.406	0.538
3l83	3m3p	476	490	0.55	0.747	0.515	0.674
3l83	3m3p	477	491	0.296	0.264	0.261	0.2
3l83	3m3p	478	492	0.575	0.59	0.552	0.527
3l83	3m3p	479	493	0.897	0.989	0.908	0.973
3l83	3m3p	480	494	0.346	0.311	0.355	0.305
3l83	3m3p	481	495	0.594	0.617	0.587	0.618
3l83	3m3p	482	496	0.618	0.629	0.615	0.631
3l83	3m3p	483	497	0.688	0.912	0.688	0.912
3l83	3m3p	484	498	0.9	0.9	0.8	0.8
3l83	3m3p	485	499	0.878	0.98	0.873	0.969
3l83	3m3p	486	500	0.719	0.868	0.741	0.748
3l83	3m3p	487	501	0.547	0.666	0.507	0.58
3l83	3m3p	488	502	0.887	0.996	0.914	0.986
3l83	3m3p	489	503	0.874	0.877	0.906	0.96
3l83	3m3p	490	504	0.612	0.742	0.634	0.694
3l83	3m3p	494	508	0.699	0.68	0.745	0.861
3l83	3m3p	495	509	0.516	0.601	0.511	0.601
3l83	3m3p	496	510	0.0	0.0	0.0	0.0
3l83	3m3p	497	511	0.113	0.118	0.091	0.133
3l83	3m3p	498	512	0.452	0.281	0.432	0.358
3l83	3m3p	499	513	0.528	0.569	0.519	0.533
3l83	3m3p	500	514	0.0	0.002	0.0	0.002
3l83	3m3p	504	518	0.218	0.207	0.193	0.187
3l83	3m3p	507	521	0.635	0.836	0.641	0.772
3l83	3m3p	508	522	0.337	0.368	0.299	0.377
3l83	3m3p	509	523	0.43	0.449	0.342	0.291
3l83	3m3p	510	524	0.63	0.687	0.665	0.702
3l83	3m3p	515	529	0.052	0.061	0.082	0.06
3l83	3m3p	516	530	0.0	0.0	0.0	0.0
3l83	3m3p	517	531	0.211	0.237	0.196	0.219
3l83	3m3p	521	535	0.804	0.56	0.767	0.578
3l83	3m3p	522	536	0.246	0.3	0.207	0.201
3l83	3m3p	524	538	0.255	0.468	0.27	0.159
3l83	3m3p	525	539	0.232	0.312	0.237	0.266
3l83	3m3p	526	540	0.242	0.463	0.236	0.23
3l83	3m3p	527	541	0.666	0.832	0.685	0.84
3l83	3m3p	528	542	0.528	0.704	0.531	0.532
3l83	3m3p	529	543	0.648	0.413	0.667	0.546
3l83	3m3p	530	544	0.392	0.543	0.416	0.505
3l83	3m3p	531	545	0.112	0.252	0.105	0.259
3l83	3m3p	532	546	0.821	0.948	0.821	0.948
3l83	3m3p	533	547	0.0	0	0.0	0
3l83	3m3p	534	548	0.717	0.671	0.693	0.645
3l83	3m3p	535	549	0.416	0.446	0.419	0.442
3l83	3m3p	537	551	0.644	0.84	0.645	0.836
3l83	3m3p	538	552	0.444	0.476	0.484	0.487
3l83	3m3p	539	553	1.0	0	1.0	0
3l83	3m3p	540	554	0.331	0.348	0.299	0.283
3l83	3m3p	541	555	0.201	0.308	0.198	0.242
3l83	3m3p	542	556	0.04	0.027	0.063	0.034
3l83	3m3p	543	557	0.344	0.362	0.345	0.362
3l83	3m3p	544	558	0.075	0.183	0.605	0.655
3l83	3m3p	545	559	0.111	0.116	0.177	0.145
3l83	3m3p	546	560	0.68	0.712	0.694	0.829
3l83	3m3p	547	561	1.0	0	1.0	0
3l83	3m3p	548	562	0.628	0.692	0.629	0.695
3l83	3m3p	549	563	0.0	0.002	0.0	0.005
3l83	3m3p	550	564	0.08	0.065	0.105	0.11
3l83	3m3p	552	566	1.0	0.867	1.0	0.833
3l83	3m3p	553	567	0.191	0.159	0.186	0.307
3l83	3m3p	554	568	0.468	0.364	0.462	0.361
3l83	3m3p	556	570	0.776	0.716	0.741	0.517
3l83	3m3p	557	571	0.765	0.812	0.812	0.801
3l83	3m3p	558	572	0.855	0.67	0.858	0.683
3l83	3m3p	559	573	0.601	0.676	0.491	0.522
3l83	3m3p	560	574	0.734	0.731	0.72	0.725
3l83	3m3p	561	575	0.07	0.065	0.066	0.063
3l83	3m3p	562	576	0.214	0.269	0.193	0.242
3l83	3m3p	563	577	0.171	0.144	0.185	0.197
3l83	3m3p	565	579	0.096	0.094	0.105	0.106
3l83	3m3p	566	580	0.0	0.0	0.0	0.0
3l83	3m3p	567	581	0.024	0.071	0.026	0.067
3l83	3m3p	568	582	0.15	0.125	0.171	0.196
3l83	3m3p	570	584	0.0	0.0	0.0	0.0
3l83	3m3p	571	585	0.0	0.009	0.0	0.049
3l83	3m3p	573	587	0.155	0.146	0.0	0.0
3l83	3m3p	574	588	0.07	0.062	0.063	0.032
3l83	3m3p	575	589	0.0	0.0	0.0	0.0
3l83	3m3p	576	590	0.216	0.181	0.212	0.182
3l83	3m3p	577	591	0.617	0.628	0.611	0.621
3l83	3m3p	578	592	0.329	0.346	0.285	0.321
3l83	3m3p	579	593	0.6	0.0	0.6	0.0
3l83	3m3p	580	594	0.096	0.092	0.069	0.066
3l83	3m3p	581	595	0.0	0.014	0.0	0.011
3l83	3m3p	582	596	0.283	0.306	0.288	0.302
3l83	3m3p	583	597	0.0	0.0	0.0	0.0
3l83	3m3p	584	598	0.0	0.0	0.0	0.0
3l83	3m3p	585	599	0.0	0.0	0.0	0.0
3l83	3m3p	586	600	0.267	0.323	0.277	0.356
3l83	3m3p	587	601	0.0	0.0	0.0	0.0
3l83	3m3p	588	602	0.0	0.0	0.0	0.0
3l83	3m3p	590	604	0.421	0.391	0.396	0.444
3l83	3m3p	593	607	0.396	0.313	0.386	0.296
3l83	3m3p	596	610	0.755	0.643	0.772	0.652
3l83	3m3p	598	612	0.743	0.904	0.81	0.925
3l83	3m3p	600	614	0.427	0.627	0.291	0.338
3l83	3m3p	601	615	0.269	0.298	0.246	0.266
3l83	3m3p	602	616	1.0	0	1.0	0
3l83	3m3p	603	617	0.904	0.888	0.878	0.94
3l83	3m3p	604	618	0.172	0.174	0.192	0.189
3l83	3m3p	608	622	0.539	0.72	0.55	0.698
3l83	3m3p	609	623	0.0	0.047	0.0	0.0
3l83	3m3p	610	624	0.123	0.193	0.105	0.239
3l83	3m3p	611	625	0.127	0.188	0.131	0.279
3l83	3m3p	612	626	0.153	0.411	0.109	0.073
3l83	3m3p	613	627	0.381	0.176	0.304	0.242
3l83	3m3p	614	628	0.9	0.858	0.941	0.788
3l83	3m3p	616	630	0.668	0.816	0.653	0.653
3l83	3m3p	617	631	0.48	0.516	0.497	0.538
3l83	3m3p	618	632	0.001	0.001	0.004	0.003
3l83	3m3p	619	633	0.218	0.176	0.225	0.231
3l83	3m3p	621	635	0.151	0.239	0.199	0.234
3l83	3m3p	622	636	0.874	0.876	0.808	0.819
3l83	3m3p	623	637	0.462	0.47	0.466	0.503
3l83	3m3p	625	639	0.461	0.498	0.511	0.522
3l83	3m3p	626	640	0.061	0.069	0.004	0.008
3l83	3m3p	627	641	0.132	0.206	0.122	0.143
3l83	3m3p	628	642	0.545	0.544	0.553	0.503
3l83	3m3p	629	643	0.0	0.0	0.0	0.0
3l83	3m3p	630	644	0.521	0.613	0.512	0.607
3l83	3m3p	632	646	0.219	0.358	0.172	0.215
3l83	3m3p	635	649	0.484	0.493	0.501	0.507
3l83	3m3p	636	650	0.775	0.787	0.787	0.787
3l83	3m3p	637	651	0.623	0.711	0.65	0.703
3l83	3m3p	638	652	0.552	0.655	0.584	0.893
3l83	3m3p	639	653	0.0	0.0	0.0	0.0
3l83	3m3p	640	654	0.363	0.392	0.375	0.353
3l83	3m3p	641	655	0.828	0.767	0.836	0.74
3l83	3m3p	642	656	0.226	0.304	0.265	0.339
3l83	3m3p	643	657	0.334	0.38	0.328	0.272
3l83	3m3p	644	658	0.267	0.288	0.309	0.494
3l83	3m3p	645	659	0.55	0.464	0.567	0.665
3l83	3m3p	646	660	0.604	0.686	0.664	0.663
3l83	3m3p	648	662	0.681	0.758	0.706	0.824
3l83	3m3p	649	663	0.0	0.0	0.0	0.0
3l83	3m3p	650	664	0.8	0.819	0.863	0.884
3l83	3m3p	652	666	0.076	0.059	0.084	0.089
3l83	3m3p	654	668	0.744	0.783	0.718	0.737
3l83	3m3p	655	669	0.769	0.695	0.736	0.648
3l83	3m3p	656	670	0.0	0.0	0.0	0.0
3l83	3m3p	657	671	0.498	0.495	0.487	0.479
3l83	3m3p	658	672	0.061	0.075	0.134	0.136
3l83	3m3p	659	673	0.0	0.0	0.0	0.0
3l83	3m3p	660	674	0.0	0.0	0.0	0.0
3l83	3m3p	661	675	0.0	0.0	0.0	0.0
3l83	3m3p	662	676	0.0	0.0	0.0	0.0
3l83	3m3p	663	677	0.139	0.195	0.125	0.138
3l83	3m3p	664	678	0.52	0.518	0.502	0.531
3l83	3m3p	665	679	0.0	0.0	0.0	0.0
3l83	3m3p	666	680	0.0	0.0	0.0	0.0
3l83	3m3p	667	681	0.0	0.004	0.0	0.0
3l83	3m3p	670	684	0.35	0.366	0.316	0.334
3l83	3m3p	671	685	0.197	0.201	0.223	0.222
3l83	3m3p	672	686	0.315	0.342	0.295	0.31
3l83	3m3p	673	687	0.112	0.09	0.088	0.071
3l83	3m3p	674	688	0.301	0.546	0.304	0.488
3l83	3m3p	677	691	0.011	0.004	0.0	0.0
3l83	3m3p	678	692	0.056	0.059	0.04	0.044
3l83	3m3p	679	693	0.454	0.539	0.499	0.6
3l83	3m3p	680	694	0.139	0.14	0.163	0.138
3l83	3m3p	681	695	0.203	0.177	0.189	0.173
3l83	3m3p	682	696	0.0	0.0	0.0	0.0
3l83	3m3p	684	698	0.361	0.359	0.333	0.35
3l83	3m3p	686	700	0.361	0.27	0.485	0.412
3l83	3m3p	688	702	0.434	0.413	0.536	0.457
3l83	3m3p	689	703	0.0	0.0	0.0	0.0
3l83	3m3p	690	704	0.102	0.081	0.141	0.188
3l83	3m3p	692	706	0.907	0.725	0.91	0.726
3l83	3m3p	693	707	0.65	0.661	0.624	0.594
3l83	3m3p	694	708	0.0	0.0	0.0	0.0
3l83	3m3p	695	709	0.067	0.078	0.056	0.148
3l83	3m3p	696	710	0.652	0.684	0.633	0.651
3l83	3m3p	697	711	0.53	0.451	0.531	0.495
3l83	3m3p	701	715	0.0	0.0	0.0	0.0
3l83	3m3p	702	716	0.0	0.0	0.018	0.019
3l83	3m3p	703	717	0.0	0.0	0.0	0.0
3l83	3m3p	704	718	0.0	0.0	0.0	0.0
3l83	3m3p	705	719	0.0	0.0	0.0	0.0
3l83	3m3p	706	720	0.681	0.726	0.686	0.639
3l83	3m3p	707	721	0.404	0.386	0.13	0.157
3l83	3m3p	708	722	0.358	0.305	0.327	0.329
3l83	3m3p	710	724	0.55	0.7	0.6	0.76
3l83	3m3p	712	726	0.0	0.0	0.0	0.0
3l83	3m3p	713	727	0.0	0.011	0.005	0.0
3l83	3m3p	714	728	0.154	0.122	0.178	0.147
3l83	3m3p	716	730	0.223	0.209	0.231	0.217
3l83	3m3p	717	731	0.872	0.741	0.905	0.846
3l83	3m3p	718	732	0.105	0.129	0.079	0.077
3l83	3m3p	719	733	0.68	0.692	0.674	0.691
3l83	3m3p	722	736	0.0	0.0	0.0	0.0
3l83	3m3p	723	737	0.0	0.0	0.01	0.017
3l83	3m3p	724	738	0.666	0.694	0.651	0.694
3l83	3m3p	725	739	0.407	0.399	0.4	0.405
3l83	3m3p	726	740	0.858	0.848	0.851	0.858
3l83	3m3p	727	741	0.0	0.0	0.0	0.0
3l83	3m3p	728	742	0.0	0.0	0.0	0.0
3l83	3m3p	729	743	0.0	0.05	0.0	0.006
3l83	3m3p	731	745	0.015	0.0	0.014	0.013
3l83	3m3p	732	746	0.0	0.0	0.0	0.01
3l83	3m3p	734	748	0.677	0.909	0.695	0.909
3l83	3m3p	735	749	0.272	0.274	0.193	0.2
3l83	3m3p	737	751	0.0	0.002	0.0	0.002
3l83	3m3p	738	752	0.082	0.114	0.1	0.078
3l83	3m3p	739	753	0.817	0.915	0.845	0.854
3l83	3m3p	740	754	0.836	0.929	0.75	0.706
3l83	3m3p	741	755	0.136	0.15	0.194	0.209
3l83	3m3p	742	756	0.0	0.005	0.0	0.002
3l83	3m3p	744	758	0.0	0.032	0.0	0.011
3l83	3m3p	745	759	0.0	0.002	0.0	0.024
3l83	3m3p	746	760	0.0	0.0	0.0	0.0
3l83	3m3p	747	761	0.073	0.125	0.109	0.125
3l83	3m3p	749	763	0.654	0.545	0.659	0.592
3l83	3m3p	751	765	0.0	0.0	0.0	0.0
3l83	3m3p	752	766	0.142	0.251	0.143	0.161
3l83	3m3p	753	767	0.208	0.263	0.273	0.273
3l83	3m3p	755	769	0.496	0.215	0.503	0.428
3l83	3m3p	758	772	0.0	0.0	0.0	0.0
3l83	3m3p	760	774	0.518	0.636	0.502	0.495
