pred	succ	p-cen	s-cen	p_q-score	p_s-score	s_q-score	s_s-score
5cf7	5nji	1	1	1.0	0	1.0	0
5cf7	5nji	2	2	1.0	0	1.0	0
5cf7	5nji	4	4	0.844	0.656	0.828	0.606
5cf7	5nji	5	5	0.513	0.481	0.457	0.39
5cf7	5nji	6	6	0.448	0.538	0.444	0.535
5cf7	5nji	7	7	0.283	0.256	0.273	0.442
5cf7	5nji	8	8	0.914	0.729	0.9	0.729
5cf7	5nji	9	9	0.312	0.02	0.31	0.311
5cf7	5nji	10	10	0.56	0.58	0.56	0.58
5cf7	5nji	11	11	0.57	0.553	0.568	0.558
5cf7	5nji	12	12	0.776	0.776	0.774	0.77
5cf7	5nji	13	13	0.0	0.0	0.0	0.0
5cf7	5nji	14	14	0.323	0.386	0.293	0.344
5cf7	5nji	15	15	0.293	0.353	0.268	0.279
5cf7	5nji	16	16	0.035	0.067	0.024	0.032
5cf7	5nji	18	18	0.117	0.154	0.133	0.167
5cf7	5nji	20	20	0.314	0.362	0.314	0.403
5cf7	5nji	21	21	0.729	0.848	0.679	0.739
5cf7	5nji	22	22	0.52	0.181	0.531	0.44
5cf7	5nji	23	23	0.278	0.337	0.273	0.167
5cf7	5nji	24	24	0.642	0.661	0.623	0.634
5cf7	5nji	25	25	0.697	0.597	0.651	0.41
5cf7	5nji	26	26	0.788	0.83	0.792	0.71
5cf7	5nji	27	27	0.323	0.334	0.328	0.334
5cf7	5nji	28	28	0.0	0.0	0.0	0.0
5cf7	5nji	29	29	0.369	0.469	0.359	0.296
5cf7	5nji	30	30	0.73	0.744	0.747	0.396
5cf7	5nji	31	31	0.09	0.12	0.091	0.045
5cf7	5nji	32	32	0.014	0.023	0.041	0.03
5cf7	5nji	33	33	0.168	0.175	0.144	0.161
5cf7	5nji	34	34	0.0	0.0	0.0	0.0
5cf7	5nji	35	35	0.0	0.0	0.0	0.0
5cf7	5nji	36	36	0.0	0.0	0.0	0.0
5cf7	5nji	38	38	0.312	0.331	0.312	0.331
5cf7	5nji	39	39	0.0	0.0	0.0	0.0
5cf7	5nji	40	40	0.148	0.159	0.135	0.125
5cf7	5nji	41	41	0.239	0.175	0.265	0.187
5cf7	5nji	42	42	0.0	0.0	0.0	0.0
5cf7	5nji	44	44	0.208	0.19	0.204	0.188
5cf7	5nji	46	46	0.291	0.277	0.292	0.275
5cf7	5nji	47	47	0.283	0.406	0.301	0.406
5cf7	5nji	48	48	0.0	0.006	0.013	0.017
5cf7	5nji	49	49	0.347	0.495	0.279	0.462
5cf7	5nji	50	50	0.295	0.297	0.323	0.394
5cf7	5nji	51	51	0.22	0.336	0.261	0.321
5cf7	5nji	52	52	0.117	0.107	0.087	0.075
5cf7	5nji	53	53	0.482	0.716	0.471	0.699
5cf7	5nji	54	54	0.845	0.282	0.845	0.282
5cf7	5nji	55	55	1.0	0.4	1.0	0.4
5cf7	5nji	56	56	0.0	0.0	0.0	0.0
5cf7	5nji	57	57	0.269	0.372	0.307	0.286
5cf7	5nji	58	58	0.21	0.189	0.227	0.216
5cf7	5nji	59	59	0.081	0.082	0.077	0.121
5cf7	5nji	60	60	0.497	0.539	0.482	0.494
5cf7	5nji	61	61	0.251	0.351	0.236	0.338
5cf7	5nji	62	62	0.395	0.612	0.401	0.494
5cf7	5nji	63	63	0.345	0.448	0.277	0.339
5cf7	5nji	64	64	0.179	0.179	0.173	0.169
5cf7	5nji	65	65	0.001	0.015	0.007	0.015
5cf7	5nji	66	66	0.13	0.129	0.129	0.13
5cf7	5nji	67	67	0.112	0.229	0.096	0.091
5cf7	5nji	68	68	0.384	0.586	0.359	0.526
5cf7	5nji	69	69	0.652	0.82	0.634	0.702
5cf7	5nji	70	70	0.0	0.0	0.0	0.0
5cf7	5nji	71	71	0.208	0.307	0.186	0.196
5cf7	5nji	72	72	0.033	0.031	0.033	0.01
5cf7	5nji	73	73	0.031	0.016	0.032	0.016
5cf7	5nji	74	74	0.534	0.586	0.594	0.685
5cf7	5nji	75	75	0.0	0.0	0.0	0.0
5cf7	5nji	76	76	0.035	0.049	0.022	0.057
5cf7	5nji	77	77	0.143	0.192	0.163	0.135
5cf7	5nji	78	78	0.176	0.379	0.194	0.349
5cf7	5nji	79	79	0.193	0.262	0.181	0.206
5cf7	5nji	80	80	0.767	0.818	0.744	0.799
5cf7	5nji	81	81	1.0	1.0	0.933	1.0
5cf7	5nji	84	84	0.295	0.13	0.267	0.154
5cf7	5nji	85	85	0.409	0.433	0.42	0.361
5cf7	5nji	86	86	0.247	0.209	0.296	0.297
5cf7	5nji	88	88	0.336	0.354	0.396	0.319
5cf7	5nji	89	89	0.154	0.24	0.12	0.08
5cf7	5nji	91	91	0.509	0.784	0.528	0.749
5cf7	5nji	92	92	0.288	0.241	0.289	0.421
5cf7	5nji	93	93	0.0	0.02	0.0	0.011
5cf7	5nji	95	95	0.445	0.02	0.43	0.46
5cf7	5nji	98	98	0.803	0.02	0.796	0.809
5cf7	5nji	99	99	0.278	0.02	0.32	0.267
5cf7	5nji	100	100	0.033	0.117	0.031	0.008
5cf7	5nji	101	101	0.105	0.138	0.143	0.136
5cf7	5nji	102	102	0.735	0.887	0.75	0.887
5cf7	5nji	103	103	0.199	0.169	0.195	0.18
5cf7	5nji	104	104	0.249	0.259	0.235	0.274
5cf7	5nji	105	105	1.0	1.0	1.0	1.0
5cf7	5nji	106	106	0.196	0.184	0.209	0.193
5cf7	5nji	107	107	0.594	0.805	0.596	0.807
5cf7	5nji	108	108	0.78	0.808	0.781	0.808
5cf7	5nji	109	109	0.0	0.0	0.0	0.0
5cf7	5nji	110	110	0.478	0.531	0.482	0.58
5cf7	5nji	111	111	1.0	0	1.0	0
5cf7	5nji	112	112	0.0	0.0	0.0	0.0
5cf7	5nji	113	113	0.301	0.402	0.28	0.349
5cf7	5nji	114	114	0.469	0.465	0.511	0.533
5cf7	5nji	115	115	0.033	0.161	0.021	0.028
5cf7	5nji	117	117	0.0	0.0	0.0	0.0
5cf7	5nji	118	118	0.031	0.061	0.035	0.057
5cf7	5nji	119	119	0.199	0.317	0.198	0.273
5cf7	5nji	120	120	0.214	0.182	0.237	0.374
5cf7	5nji	121	121	0.293	0.529	0.303	0.388
5cf7	5nji	122	122	0.827	0.866	0.833	0.866
5cf7	5nji	123	123	0.521	0.568	0.534	0.568
5cf7	5nji	124	124	0.501	0.577	0.507	0.708
5cf7	5nji	125	125	0.912	0.7	0.935	0.77
5cf7	5nji	126	126	0.751	0.734	0.815	0.797
5cf7	5nji	127	127	0.407	0.495	0.384	0.211
5cf7	5nji	128	128	0.0	0.0	0.0	0.0
5cf7	5nji	129	129	0.037	0.034	0.02	0.019
5cf7	5nji	130	130	0.44	0.544	0.443	0.619
5cf7	5nji	131	131	0.267	0.3	0.287	0.321
5cf7	5nji	132	132	0.0	0.0	0.0	0.0
5cf7	5nji	133	133	0.342	0.198	0.381	0.24
5cf7	5nji	134	134	0.417	0.509	0.462	0.58
5cf7	5nji	135	135	0.389	0.349	0.375	0.504
5cf7	5nji	136	136	0.0	0.003	0.0	0.004
5cf7	5nji	137	137	0.026	0.047	0.031	0.038
5cf7	5nji	138	138	0.512	0.473	0.573	0.614
5cf7	5nji	139	139	0.396	0.364	0.38	0.354
5cf7	5nji	140	140	0.0	0.0	0.0	0.0
5cf7	5nji	142	142	0.304	0.294	0.309	0.299
5cf7	5nji	143	143	0.115	0.08	0.1	0.104
5cf7	5nji	144	144	0.326	0.338	0.329	0.327
5cf7	5nji	145	145	0.709	0.787	0.7	0.787
5cf7	5nji	146	146	0.878	0.708	0.879	0.717
5cf7	5nji	147	147	0.756	0.79	0.76	0.791
5cf7	5nji	148	148	0.797	0.907	0.787	0.907
5cf7	5nji	149	149	0.208	0.211	0.154	0.171
5cf7	5nji	150	150	0.593	0.65	0.601	0.647
5cf7	5nji	151	151	0.908	0.944	0.904	0.869
5cf7	5nji	152	152	0.0	0.018	0.0	0.023
5cf7	5nji	154	154	0.952	0.981	0.952	0.981
5cf7	5nji	155	155	0.06	0.035	0.176	0.208
5cf7	5nji	156	156	0.087	0.167	0.108	0.169
5cf7	5nji	157	157	0.0	0.0	0.0	0.0
5cf7	5nji	158	158	0.646	0.474	0.665	0.579
5cf7	5nji	159	159	0.893	0.691	0.938	0.719
5cf7	5nji	160	160	0.575	0.612	0.547	0.577
5cf7	5nji	161	161	0.302	0.307	0.191	0.182
5cf7	5nji	162	162	0.0	0.0	0.0	0.0
5cf7	5nji	163	163	0.129	0.126	0.132	0.101
5cf7	5nji	164	164	0.242	0.337	0.26	0.342
5cf7	5nji	166	166	0.575	0.601	0.557	0.525
5cf7	5nji	167	167	0.415	0.51	0.461	0.486
5cf7	5nji	168	168	0.879	0.495	0.811	0.963
5cf7	5nji	169	169	0.0	0.0	0.0	0.0
5cf7	5nji	170	170	0.02	0.09	0.004	0.016
5cf7	5nji	171	171	0.089	0.172	0.072	0.129
5cf7	5nji	172	172	0.505	0.481	0.502	0.455
5cf7	5nji	173	173	0.652	0.664	0.585	0.555
5cf7	5nji	174	174	0.623	0.585	0.626	0.585
5cf7	5nji	175	175	0.299	0.351	0.341	0.376
5cf7	5nji	176	176	0.023	0.099	0.02	0.075
5cf7	5nji	177	177	0.84	0.6	0.8	0.525
5cf7	5nji	178	178	0.637	0.787	0.637	0.787
5cf7	5nji	179	179	0.0	0.0	0.0	0.0
5cf7	5nji	180	180	0.16	0.296	0.148	0.297
5cf7	5nji	181	181	0.5	0.527	0.495	0.52
5cf7	5nji	182	182	0.059	0.173	0.056	0.168
5cf7	5nji	183	183	0.0	0.0	0.0	0.0
5cf7	5nji	184	184	0.423	0.382	0.393	0.467
5cf7	5nji	185	185	1.0	0	1.0	0
5cf7	5nji	186	186	0.0	0.0	0.0	0.0
5cf7	5nji	187	187	0.052	0.064	0.054	0.066
5cf7	5nji	189	189	0.0	0.001	0.0	0.003
5cf7	5nji	190	190	0.604	0.762	0.571	0.482
5cf7	5nji	191	191	0.9	0.88	0.889	0.833
5cf7	5nji	192	192	0.665	0.45	0.703	0.509
5cf7	5nji	193	193	0.333	0.405	0.321	0.379
5cf7	5nji	194	194	0.9	0.863	0.93	0.94
5cf7	5nji	198	198	0.253	0.172	0.254	0.283
5cf7	5nji	200	200	0.439	0.333	0.648	0.585
5cf7	5nji	203	203	0.491	0.447	0.493	0.599
5cf7	5nji	206	206	0.852	0.793	0.849	0.796
5cf7	5nji	207	207	0.26	0.218	0.331	0.266
5cf7	5nji	208	208	0.868	0.881	0.828	0.799
5cf7	5nji	209	209	0.756	0.798	0.768	0.723
5cf7	5nji	211	211	0.603	0.797	0.573	0.56
5cf7	5nji	212	212	0.586	0.727	0.598	0.555
5cf7	5nji	213	213	0.754	0.838	0.75	0.838
5cf7	5nji	214	214	0.912	0.725	0.912	0.725
5cf7	5nji	215	215	0.837	0.894	0.833	0.928
5cf7	5nji	216	216	0.835	0.911	0.83	0.912
5cf7	5nji	217	217	1.0	0	1.0	0
5cf7	5nji	218	218	0.123	0.185	0.117	0.129
5cf7	5nji	219	219	0.228	0.414	0.263	0.485
5cf7	5nji	220	220	0.026	0.018	0.228	0.177
5cf7	5nji	221	221	1.0	0	1.0	0
5cf7	5nji	222	222	0.02	0.024	0.04	0.043
5cf7	5nji	223	223	0.0	0.0	0.0	0.0
5cf7	5nji	224	224	0.0	0.0	0.0	0.0
5cf7	5nji	225	225	0.105	0.118	0.126	0.146
5cf7	5nji	226	226	0.514	0.54	0.53	0.63
5cf7	5nji	227	227	0.531	0.688	0.583	0.71
5cf7	5nji	228	228	0.429	0.445	0.38	0.46
5cf7	5nji	229	229	0.773	0.778	0.765	0.778
5cf7	5nji	230	230	0.133	0.138	0.111	0.156
5cf7	5nji	231	231	0.061	0.043	0.078	0.064
5cf7	5nji	232	232	0.487	0.545	0.495	0.5
5cf7	5nji	233	233	0.679	0.635	0.674	0.646
5cf7	5nji	234	234	0.0	0.005	0.0	0.001
5cf7	5nji	235	235	0.0	0.008	0.0	0.02
5cf7	5nji	236	236	0.371	0.303	0.362	0.379
5cf7	5nji	237	237	0.378	0.503	0.376	0.503
5cf7	5nji	238	238	0.019	0.029	0.028	0.077
5cf7	5nji	240	240	0.291	0.432	0.164	0.186
5cf7	5nji	241	241	0.718	0.799	0.723	0.744
5cf7	5nji	242	242	0.046	0.082	0.039	0.012
5cf7	5nji	243	243	0.0	0.0	0.0	0.0
5cf7	5nji	244	244	0.0	0.0	0.0	0.0
5cf7	5nji	245	245	0.73	0.829	0.649	0.499
5cf7	5nji	246	246	0.154	0.248	0.158	0.205
5cf7	5nji	247	247	0.061	0.027	0.13	0.027
5cf7	5nji	248	248	0.217	0.333	0.26	0.202
5cf7	5nji	252	252	0.639	0.658	0.617	0.597
5cf7	5nji	254	254	0.771	0.646	0.767	0.624
5cf7	5nji	255	255	0.38	0.438	0.354	0.464
5cf7	5nji	256	256	0.292	0.369	0.304	0.294
5cf7	5nji	257	257	0.075	0.077	0.069	0.101
5cf7	5nji	258	258	0.212	0.135	0.201	0.133
5cf7	5nji	259	259	0.326	0.334	0.306	0.251
5cf7	5nji	260	260	0.022	0.038	0.018	0.038
5cf7	5nji	261	261	0.277	0.356	0.274	0.335
5cf7	5nji	262	262	0.214	0.318	0.157	0.386
5cf7	5nji	263	263	0.151	0.123	0.145	0.23
5cf7	5nji	264	264	0.0	0.0	0.0	0.0
5cf7	5nji	265	265	0.417	0.416	0.435	0.534
5cf7	5nji	266	266	0.0	0.0	0.0	0.0
5cf7	5nji	267	267	0.0	0.0	0.0	0.0
5cf7	5nji	269	269	0.393	0.331	0.326	0.247
5cf7	5nji	270	270	0.0	0.003	0.0	0.004
5cf7	5nji	271	271	0.876	0.852	0.818	0.924
5cf7	5nji	272	272	0.424	0.431	0.421	0.431
5cf7	5nji	273	273	0.127	0.134	0.119	0.133
5cf7	5nji	274	274	0.5	0.5	0.5	0.5
5cf7	5nji	275	275	0.695	0.804	0.718	0.816
5cf7	5nji	276	276	0.0	0.0	0.0	0.0
5cf7	5nji	278	278	0.694	0.619	0.699	0.687
5cf7	5nji	279	279	0.0	0.002	0.008	0.015
5cf7	5nji	280	280	0.0	0.0	0.0	0.0
5cf7	5nji	281	281	0.693	0.715	0.642	0.606
5cf7	5nji	282	282	0.64	0.684	0.588	0.627
5cf7	5nji	283	283	0.411	0.378	0.346	0.389
5cf7	5nji	284	284	0.0	0.0	0.0	0.0
5cf7	5nji	285	285	0.0	0.029	0.009	0.055
5cf7	5nji	286	286	0.068	0.172	0.072	0.118
5cf7	5nji	287	287	0.0	0.083	0.001	0.033
5cf7	5nji	288	288	0.245	0.202	0.202	0.195
5cf7	5nji	289	289	0.0	0.0	0.0	0.0
5cf7	5nji	290	290	0.338	0.351	0.322	0.383
5cf7	5nji	291	291	0.532	0.595	0.51	0.537
5cf7	5nji	292	292	0.414	0.457	0.419	0.603
5cf7	5nji	293	293	0.0	0.0	0.0	0.0
5cf7	5nji	294	294	0.539	0.677	0.481	0.554
5cf7	5nji	295	295	0.481	0.566	0.513	0.591
5cf7	5nji	296	296	0.296	0.418	0.318	0.423
5cf7	5nji	297	297	0.095	0.11	0.052	0.084
5cf7	5nji	298	298	0.093	0.091	0.11	0.073
5cf7	5nji	299	299	0.155	0.248	0.122	0.138
5cf7	5nji	300	300	0.089	0.076	0.105	0.111
5cf7	5nji	301	301	0.0	0.0	0.0	0.0
5cf7	5nji	302	302	0.119	0.112	0.109	0.096
5cf7	5nji	303	303	0.141	0.149	0.136	0.138
5cf7	5nji	304	304	0.737	0.951	0.689	0.94
5cf7	5nji	305	305	0.178	0.371	0.163	0.142
5cf7	5nji	306	306	0.401	0.552	0.414	0.271
5cf7	5nji	307	307	0.588	0.622	0.488	0.506
5cf7	5nji	308	308	0.0	0.0	0.0	0.0
5cf7	5nji	309	309	0.0	0.0	0.0	0.0
5cf7	5nji	310	310	0.704	0.794	0.709	0.588
5cf7	5nji	311	311	0.266	0.332	0.256	0.162
5cf7	5nji	313	313	0.327	0.335	0.279	0.28
5cf7	5nji	314	314	0.0	0.0	0.0	0.001
5cf7	5nji	315	315	0.753	0.799	0.777	0.735
5cf7	5nji	316	316	0.509	0.631	0.56	0.548
5cf7	5nji	318	318	0.221	0.0	0.23	0.205
5cf7	5nji	319	319	0.803	0.959	0.744	0.894
5cf7	5nji	320	320	0.728	0.831	0.715	0.865
5cf7	5nji	322	322	0.248	0.393	0.276	0.472
5cf7	5nji	323	323	0.53	0.746	0.507	0.635
5cf7	5nji	324	324	0.284	0.325	0.274	0.254
5cf7	5nji	325	325	0.684	0.735	0.686	0.739
5cf7	5nji	326	326	0.085	0.161	0.088	0.18
5cf7	5nji	327	327	0.32	0.303	0.318	0.316
5cf7	5nji	328	328	0.355	0.418	0.357	0.42
5cf7	5nji	329	329	0.664	0.68	0.677	0.65
5cf7	5nji	330	330	0.039	0.034	0.018	0.023
5cf7	5nji	331	331	0.602	0.58	0.626	0.576
5cf7	5nji	332	332	0.617	0.668	0.617	0.67
5cf7	5nji	333	333	0.023	0.023	0.042	0.036
5cf7	5nji	334	334	0.0	0.0	0.0	0.0
5cf7	5nji	335	335	0.436	0.463	0.433	0.529
5cf7	5nji	336	336	0.097	0.099	0.027	0.082
5cf7	5nji	337	337	0.327	0.34	0.266	0.275
5cf7	5nji	338	338	0.687	0.881	0.655	0.868
5cf7	5nji	339	339	0.845	0.838	0.843	0.836
5cf7	5nji	340	340	0.534	0.57	0.543	0.57
5cf7	5nji	341	341	0.0	0.0	0.0	0.0
5cf7	5nji	342	342	0.103	0.102	0.1	0.102
5cf7	5nji	343	343	0.108	0.171	0.129	0.15
5cf7	5nji	344	344	0.0	0.018	0.004	0.022
5cf7	5nji	345	345	0.113	0.19	0.256	0.263
5cf7	5nji	346	346	0.035	0.032	0.074	0.046
5cf7	5nji	348	348	0.464	0.541	0.452	0.553
5cf7	5nji	349	349	0.813	0.796	0.814	0.796
5cf7	5nji	350	350	0.229	0.205	0.274	0.23
5cf7	5nji	352	352	0.078	0.187	0.108	0.172
5cf7	5nji	354	354	0.654	0.729	0.677	0.736
5cf7	5nji	355	355	0.599	0.859	0.592	0.865
5cf7	5nji	372	365	0.0	0.0	0.0	0.0
5cf7	5nji	374	367	0.574	0.522	0.587	0.523
5cf7	5nji	375	368	0.16	0.15	0.154	0.223
5cf7	5nji	376	369	0.0	0.0	0.0	0.0
5cf7	5nji	378	371	0.678	0.678	0.669	0.665
5cf7	5nji	379	372	0.212	0.325	0.182	0.191
5cf7	5nji	381	374	0.89	0.662	0.872	0.706
5cf7	5nji	382	375	0.059	0.068	0.076	0.128
5cf7	5nji	383	376	0.95	1.0	1.0	0
5cf7	5nji	384	377	0.336	0.158	0.343	0.287
5cf7	5nji	385	378	0.239	0.159	0.217	0.137
5cf7	5nji	386	379	0.314	0.481	0.354	0.354
5cf7	5nji	388	381	0.554	0.546	0.583	0.558
5cf7	5nji	389	382	0.52	0.543	0.514	0.467
5cf7	5nji	390	383	0.0	0.0	0.0	0.0
5cf7	5nji	391	384	0.441	0.471	0.458	0.49
5cf7	5nji	392	385	0.84	0.54	0.84	0.54
5cf7	5nji	393	386	0.325	0.426	0.345	0.431
5cf7	5nji	394	387	0.201	0.117	0.195	0.119
5cf7	5nji	395	388	0.045	0.037	0.03	0.034
5cf7	5nji	396	389	0.58	0.68	0.592	0.793
5cf7	5nji	397	390	0.286	0.336	0.319	0.346
5cf7	5nji	398	391	0.636	0.745	0.603	0.536
5cf7	5nji	399	392	0.871	0.87	0.847	0.846
5cf7	5nji	401	394	0.607	0.664	0.605	0.624
5cf7	5nji	402	395	0.16	0.058	0.159	0.073
5cf7	5nji	404	397	0.547	0.683	0.552	0.452
5cf7	5nji	405	398	0.797	0.848	0.77	0.815
5cf7	5nji	406	399	0.705	0.618	0.642	0.634
5cf7	5nji	407	400	0.914	0.92	0.918	0.922
5cf7	5nji	408	401	0.43	0.518	0.422	0.44
5cf7	5nji	409	402	0.679	0.733	0.682	0.735
5cf7	5nji	410	403	0.727	0.609	0.686	0.764
5cf7	5nji	411	404	0.075	0.094	0.095	0.117
5cf7	5nji	412	405	0.217	0.232	0.207	0.229
5cf7	5nji	413	406	0.188	0.239	0.221	0.33
5cf7	5nji	414	407	0.272	0.257	0.271	0.235
5cf7	5nji	415	408	0.475	0.533	0.461	0.523
5cf7	5nji	417	410	1.0	0.95	1.0	0.0
5cf7	5nji	418	411	0.921	0.614	0.907	0.743
5cf7	5nji	419	412	1.0	0	1.0	0.0
5cf7	5nji	420	413	0.913	0.945	0.933	0.744
5cf7	5nji	421	414	0.862	0.369	0.89	0.279
5cf7	5nji	422	415	0.929	0.637	0.869	0.471
5cf7	5nji	423	416	0.914	0.548	0.925	0.578
5cf7	5nji	425	418	0.837	0.795	0.891	0.717
5cf7	5nji	426	419	0.656	0.674	0.667	0.673
5cf7	5nji	428	421	0.033	0.095	0.063	0.143
5cf7	5nji	429	422	0.165	0.175	0.256	0.288
5cf7	5nji	433	426	0.17	0.272	0.184	0.286
5cf7	5nji	434	427	0.286	0.3	0.305	0.38
5cf7	5nji	435	428	0.765	0.774	0.756	0.781
5cf7	5nji	436	429	0.192	0.165	0.164	0.192
5cf7	5nji	437	430	0.296	0.296	0.321	0.306
5cf7	5nji	439	432	0.0	0.0	0.0	0.0
5cf7	5nji	440	433	0.309	0.28	0.313	0.254
5cf7	5nji	441	434	0.481	0.474	0.472	0.389
5cf7	5nji	442	435	0.418	0.51	0.444	0.53
5cf7	5nji	443	436	0.377	0.359	0.33	0.325
5cf7	5nji	444	437	0.0	0.0	0.0	0.0
5cf7	5nji	445	438	0.0	0.0	0.0	0.0
5cf7	5nji	447	440	0.169	0.351	0.193	0.16
5cf7	5nji	448	441	0.0	0.001	0.009	0.004
5cf7	5nji	449	442	0.271	0.273	0.267	0.301
5cf7	5nji	450	443	0.767	0.78	0.774	0.785
5cf7	5nji	451	444	0.0	0.0	0.0	0.0
5cf7	5nji	454	447	0.656	0.514	0.69	0.674
5cf7	5nji	456	449	0.8	0.702	0.818	0.74
5cf7	5nji	457	450	0.222	0.21	0.198	0.18
5cf7	5nji	458	451	0.012	0.016	0.016	0.02
5cf7	5nji	459	452	0.123	0.201	0.11	0.179
5cf7	5nji	460	453	0.0	0.0	0.0	0.0
5cf7	5nji	461	454	0.35	0.3	0.336	0.298
5cf7	5nji	462	455	0.508	0.732	0.498	0.557
5cf7	5nji	463	456	0.508	0.509	0.517	0.525
5cf7	5nji	464	457	0.793	0.821	0.745	0.8
5cf7	5nji	465	458	0.873	0.929	0.823	0.881
5cf7	5nji	466	459	0.723	0.731	0.721	0.731
5cf7	5nji	467	460	0.0	0.0	0.0	0.0
5cf7	5nji	468	461	0.0	0.009	0.004	0.015
5cf7	5nji	469	462	0.024	0.05	0.046	0.068
5cf7	5nji	470	463	0.542	0.559	0.541	0.588
5cf7	5nji	471	464	0.0	0.0	0.0	0.0
5cf7	5nji	472	465	0.135	0.202	0.152	0.205
5cf7	5nji	473	466	0.215	0.171	0.2	0.239
5cf7	5nji	474	467	0.746	0.735	0.791	0.887
5cf7	5nji	475	468	0.514	0.535	0.576	0.6
5cf7	5nji	477	470	0.0	0.0	0.0	0.0
5cf7	5nji	478	471	0.203	0.243	0.215	0.274
5cf7	5nji	479	472	0.603	0.552	0.66	0.5
5cf7	5nji	480	473	0.331	0.331	0.234	0.237
5cf7	5nji	481	474	0.156	0.194	0.169	0.201
5cf7	5nji	482	475	0.385	0.363	0.363	0.399
5cf7	5nji	483	476	0.0	0.0	0.0	0.0
5cf7	5nji	485	478	0.718	0.725	0.78	0.789
5cf7	5nji	486	479	0.488	0.592	0.451	0.556
5cf7	5nji	487	480	0.732	0.66	0.748	0.707
5cf7	5nji	488	481	0.204	0.241	0.24	0.306
5cf7	5nji	489	482	0.309	0.359	0.305	0.369
5cf7	5nji	490	483	0.631	0.731	0.623	0.731
5cf7	5nji	491	484	0.295	0.33	0.283	0.321
5cf7	5nji	492	485	0.755	0.787	0.727	0.756
5cf7	5nji	493	486	0.031	0.043	0.044	0.052
5cf7	5nji	494	487	0.469	0.59	0.529	0.637
5cf7	5nji	495	488	0.825	0.665	0.811	0.79
5cf7	5nji	496	489	0.612	0.544	0.641	0.578
5cf7	5nji	497	490	0.985	0.946	0.985	0.946
5cf7	5nji	498	491	0.499	0.394	0.521	0.43
5cf7	5nji	499	492	1.0	0	1.0	0
5cf7	5nji	500	493	0.589	0.722	0.583	0.722
5cf7	5nji	501	494	0.941	0.894	0.941	0.894
5cf7	5nji	502	495	0.605	0.693	0.622	0.62
5cf7	5nji	503	496	0.452	0.494	0.451	0.506
5cf7	5nji	504	497	0.56	0.641	0.577	0.647
5cf7	5nji	505	498	0.904	0.918	0.9	0.85
5cf7	5nji	506	499	0.648	0.742	0.656	0.742
5cf7	5nji	507	500	0.149	0.107	0.132	0.23
5cf7	5nji	508	501	0.764	0.79	0.755	0.787
5cf7	5nji	509	502	0.875	0.817	0.893	0.907
5cf7	5nji	510	503	0.0	0.0	0.0	0.0
5cf7	5nji	511	504	0.16	0.136	0.149	0.1
5cf7	5nji	512	505	0.028	0.116	0.031	0.12
5cf7	5nji	514	507	0.344	0.359	0.386	0.446
5cf7	5nji	515	508	0.435	0.477	0.444	0.412
5cf7	5nji	516	509	0.288	0.315	0.323	0.354
5cf7	5nji	517	510	0.379	0.327	0.299	0.376
5cf7	5nji	518	511	0.397	0.419	0.329	0.343
5cf7	5nji	519	512	0.556	0.781	0.587	0.893
5cf7	5nji	520	513	0.806	0.792	0.746	0.638
5cf7	5nji	522	515	0.001	0.031	0.014	0.039
5cf7	5nji	523	516	0.066	0.17	0.074	0.134
5cf7	5nji	524	517	0.206	0.262	0.202	0.278
5cf7	5nji	525	518	0.704	0.72	0.648	0.656
5cf7	5nji	526	519	0.616	0.664	0.621	0.664
5cf7	5nji	527	520	0.0	0.0	0.0	0.0
5cf7	5nji	528	521	0.096	0.145	0.103	0.249
5cf7	5nji	529	522	0.047	0.055	0.059	0.086
5cf7	5nji	530	523	0.122	0.137	0.162	0.168
5cf7	5nji	531	524	0.237	0.228	0.199	0.239
5cf7	5nji	532	525	0.471	0.555	0.472	0.532
5cf7	5nji	533	526	0.673	0.631	0.668	0.631
5cf7	5nji	534	527	0.231	0.453	0.26	0.365
5cf7	5nji	536	529	0.856	0.929	0.871	0.928
5cf7	5nji	537	530	0.499	0.351	0.513	0.442
5cf7	5nji	539	532	0.596	0.7	0.6	0.7
5cf7	5nji	540	533	0.636	0.795	0.646	0.734
5cf7	5nji	541	534	0.655	0.22	0.708	0.515
5cf7	5nji	542	535	0.0	0.0	0.0	0.0
5cf7	5nji	543	536	0.0	0.0	0.0	0.0
5cf7	5nji	544	537	0.306	0.41	0.359	0.392
5cf7	5nji	545	538	0.693	0.724	0.738	0.665
5cf7	5nji	546	539	0.261	0.274	0.33	0.386
5cf7	5nji	547	540	0.939	0.895	0.923	0.909
5cf7	5nji	548	541	0.385	0.457	0.421	0.477
5cf7	5nji	549	542	0.498	0.461	0.467	0.474
5cf7	5nji	550	543	0.087	0.169	0.087	0.2
5cf7	5nji	551	544	0.933	0.867	0.933	0.867
5cf7	5nji	552	545	0.496	0.67	0.509	0.694
5cf7	5nji	553	546	0.128	0.247	0.119	0.208
5cf7	5nji	554	547	0.501	0.566	0.547	0.574
5cf7	5nji	555	548	0.613	0.693	0.59	0.637
5cf7	5nji	556	549	0.63	0.802	0.656	0.723
5cf7	5nji	557	550	0.7	0.772	0.703	0.772
5cf7	5nji	558	551	0.0	0.0	0.0	0.0
5cf7	5nji	559	552	0.236	0.367	0.212	0.441
5cf7	5nji	561	554	0.204	0.281	0.186	0.203
5cf7	5nji	562	555	0.558	0.517	0.516	0.52
5cf7	5nji	563	556	0.366	0.433	0.345	0.465
5cf7	5nji	565	558	0.815	0.915	0.819	0.915
5cf7	5nji	566	559	0.0	0.003	0.0	0.026
5cf7	5nji	568	561	0.134	0.156	0.119	0.113
5cf7	5nji	569	562	0.061	0.118	0.059	0.127
5cf7	5nji	570	563	0.241	0.466	0.246	0.356
5cf7	5nji	572	565	0.612	0.615	0.491	0.487
5cf7	5nji	574	567	0.77	0.716	0.764	0.718
5cf7	5nji	576	569	0.725	0.818	0.72	0.815
5cf7	5nji	577	570	0.715	0.695	0.698	0.672
5cf7	5nji	578	571	0.427	0.731	0.396	0.44
5cf7	5nji	579	572	0.092	0.027	0.065	0.02
5cf7	5nji	580	573	0.46	0.453	0.456	0.41
5cf7	5nji	581	574	0.034	0.05	0.018	0.051
5cf7	5nji	582	575	0.725	0.76	0.747	0.719
5cf7	5nji	583	576	0.356	0.514	0.309	0.419
5cf7	5nji	584	577	0.792	0.818	0.751	0.812
5cf7	5nji	585	578	0.553	0.56	0.566	0.574
5cf7	5nji	586	579	0.042	0.004	0.047	0.0
5cf7	5nji	587	580	0.845	0.783	0.835	0.789
5cf7	5nji	589	582	0.766	0.669	0.764	0.664
5cf7	5nji	590	583	0.281	0.466	0.284	0.474
5cf7	5nji	591	584	0.069	0.085	0.026	0.038
5cf7	5nji	592	585	0.48	0.264	0.509	0.359
5cf7	5nji	594	587	0.781	0.767	0.832	0.85
5cf7	5nji	595	588	0.073	0.07	0.107	0.108
5cf7	5nji	597	590	0.866	0.707	0.791	0.608
5cf7	5nji	598	591	0.871	0.82	0.805	0.775
5cf7	5nji	599	592	0.556	0.426	0.476	0.45
5cf7	5nji	601	594	0.91	0.802	0.894	0.882
5cf7	5nji	602	595	0.619	0.704	0.663	0.72
5cf7	5nji	604	597	0.9	0.931	0.86	0.93
5cf7	5nji	605	598	0.772	0.889	0.761	0.889
5cf7	5nji	608	601	0.061	0.128	0.035	0.062
5cf7	5nji	610	603	0.178	0.154	0.185	0.226
5cf7	5nji	611	604	0.526	0.409	0.542	0.417
5cf7	5nji	612	605	1.0	1.0	1.0	1.0
5cf7	5nji	613	606	0.804	0.891	0.774	0.868
5cf7	5nji	614	607	0.457	0.45	0.392	0.384
5cf7	5nji	617	610	0.575	0.6	0.575	0.6
5cf7	5nji	618	611	0.76	0.723	0.588	0.541
5cf7	5nji	619	612	0.446	0.499	0.392	0.462
5cf7	5nji	620	613	0.831	0.855	0.812	0.855
5cf7	5nji	622	615	0.859	0.846	0.809	0.812
5cf7	5nji	623	616	0.143	0.106	0.171	0.118
5cf7	5nji	624	617	0.225	0.219	0.241	0.211
5cf7	5nji	625	618	0.127	0.215	0.125	0.207
5cf7	5nji	626	619	0.432	0.395	0.435	0.51
5cf7	5nji	627	620	0.78	0.768	0.778	0.77
5cf7	5nji	628	621	1.0	0	1.0	0
5cf7	5nji	629	622	0.187	0.186	0.2	0.206
5cf7	5nji	630	623	0.041	0.055	0.068	0.052
5cf7	5nji	631	624	0.468	0.665	0.466	0.417
5cf7	5nji	632	625	0.331	0.412	0.296	0.313
5cf7	5nji	633	626	0.556	0.703	0.562	0.597
5cf7	5nji	634	627	0.854	0.841	0.803	0.791
5cf7	5nji	636	629	0.461	0.481	0.48	0.489
5cf7	5nji	637	630	0.0	0.0	0.0	0.0
5cf7	5nji	638	631	0.0	0.0	0.0	0.0
5cf7	5nji	640	633	0.124	0.184	0.097	0.121
5cf7	5nji	641	634	0.393	0.365	0.382	0.4
5cf7	5nji	642	635	0.119	0.155	0.083	0.125
5cf7	5nji	643	636	0.112	0.089	0.133	0.123
5cf7	5nji	644	637	1.0	0	1.0	0
5cf7	5nji	645	638	0.143	0.113	0.169	0.207
5cf7	5nji	646	639	0.364	0.371	0.348	0.438
5cf7	5nji	647	640	0.083	0.188	0.093	0.13
5cf7	5nji	649	642	0.84	0.821	0.811	0.692
5cf7	5nji	650	643	0.0	0.0	0.0	0.0
5cf7	5nji	651	644	0.04	0.046	0.082	0.073
5cf7	5nji	652	645	0.198	0.355	0.185	0.21
5cf7	5nji	653	646	0.55	0.509	0.559	0.676
5cf7	5nji	654	647	0.73	0.652	0.71	0.818
5cf7	5nji	655	648	0.178	0.251	0.192	0.255
5cf7	5nji	656	649	0.496	0.594	0.494	0.589
5cf7	5nji	657	650	0.178	0.164	0.162	0.179
5cf7	5nji	658	651	0.145	0.212	0.138	0.124
5cf7	5nji	659	652	0.678	0.596	0.702	0.792
5cf7	5nji	660	653	0.452	0.486	0.46	0.47
5cf7	5nji	661	654	0.121	0.084	0.146	0.13
5cf7	5nji	662	655	0.564	0.548	0.6	0.742
5cf7	5nji	663	656	0.362	0.347	0.374	0.34
5cf7	5nji	664	657	0.636	0.542	0.641	0.542
5cf7	5nji	665	658	0.096	0.097	0.13	0.12
5cf7	5nji	667	660	0.518	0.676	0.504	0.516
5cf7	5nji	668	661	0.565	0.434	0.548	0.618
5cf7	5nji	669	662	0.448	0.503	0.393	0.407
5cf7	5nji	670	663	0.411	0.437	0.385	0.416
5cf7	5nji	671	664	0.043	0.037	0.055	0.073
5cf7	5nji	672	665	0.008	0.01	0.005	0.005
5cf7	5nji	673	666	0.0	0.005	0.0	0.005
5cf7	5nji	674	667	0.0	0.0	0.0	0.0
5cf7	5nji	675	668	0.0	0.0	0.0	0.0
5cf7	5nji	676	669	0.403	0.414	0.369	0.356
5cf7	5nji	677	670	0.539	0.521	0.556	0.56
5cf7	5nji	678	671	0.28	0.285	0.198	0.212
5cf7	5nji	679	672	0.0	0.0	0.0	0.0
5cf7	5nji	680	673	0.311	0.28	0.343	0.334
5cf7	5nji	681	674	0.452	0.323	0.5	0.646
5cf7	5nji	682	675	0.074	0.074	0.092	0.16
5cf7	5nji	683	676	0.803	0.789	0.783	0.775
5cf7	5nji	684	677	0.755	0.613	0.776	0.754
5cf7	5nji	685	678	0.926	0.798	0.916	0.643
5cf7	5nji	686	679	0.767	0.709	0.775	0.694
5cf7	5nji	687	680	0.934	0.764	0.926	0.647
5cf7	5nji	688	681	0.833	0.705	0.829	0.679
5cf7	5nji	689	682	0.716	0.725	0.702	0.758
5cf7	5nji	691	684	0.0	0.0	0.0	0.0
5cf7	5nji	693	686	0.075	0.099	0.101	0.094
5cf7	5nji	694	687	0.239	0.262	0.254	0.223
5cf7	5nji	696	689	0.0	0.0	0.0	0.0
5cf7	5nji	697	690	0.514	0.672	0.437	0.418
5cf7	5nji	698	691	0.682	0.795	0.612	0.657
5cf7	5nji	699	692	0.0	0.015	0.0	0.012
5cf7	5nji	700	693	0.08	0.1	0.157	0.142
5cf7	5nji	702	695	0.002	0.027	0.0	0.011
5cf7	5nji	704	697	0.714	0.818	0.685	0.71
5cf7	5nji	705	698	0.541	0.535	0.552	0.558
5cf7	5nji	706	699	0.887	0.793	0.849	0.643
5cf7	5nji	707	700	0.373	0.403	0.377	0.443
5cf7	5nji	709	702	0.077	0.06	0.109	0.109
5cf7	5nji	710	703	0.519	0.525	0.474	0.388
5cf7	5nji	711	704	0.142	0.349	0.127	0.317
5cf7	5nji	712	705	0.73	0.72	0.74	0.708
5cf7	5nji	713	706	0.592	0.668	0.577	0.639
5cf7	5nji	714	707	0.492	0.527	0.442	0.584
5cf7	5nji	715	708	0.854	0.716	0.843	0.701
5cf7	5nji	716	709	0.736	0.865	0.768	0.864
5cf7	5nji	717	710	0.566	0.697	0.557	0.698
5cf7	5nji	718	711	0.296	0.229	0.281	0.227
5cf7	5nji	719	712	0.137	0.217	0.121	0.17
5cf7	5nji	720	713	0.0	0.0	0.0	0.0
5cf7	5nji	721	714	0.0	0.012	0.0	0.009
5cf7	5nji	722	715	0.893	0.875	0.823	0.871
5cf7	5nji	723	716	0.348	0.396	0.349	0.396
5cf7	5nji	724	717	0.8	1.0	0.8	1.0
5cf7	5nji	725	718	0.29	0.329	0.28	0.284
5cf7	5nji	726	719	0.41	0.478	0.417	0.527
5cf7	5nji	727	720	0.38	0.37	0.442	0.434
5cf7	5nji	728	721	0.0	0.03	0.0	0.055
5cf7	5nji	729	722	0.594	0.137	0.574	0.156
5cf7	5nji	730	723	0.847	0.788	0.853	0.826
5cf7	5nji	731	724	0.194	0.173	0.21	0.273
5cf7	5nji	732	725	0.82	0.83	0.82	0.83
5cf7	5nji	733	726	0.787	0.826	0.801	0.807
5cf7	5nji	734	727	0.0	0.0	0.0	0.0
5cf7	5nji	735	728	0.844	0.915	0.866	0.852
5cf7	5nji	736	729	0.24	0.248	0.225	0.227
5cf7	5nji	737	730	0.407	0.237	0.412	0.492
5cf7	5nji	738	731	0.104	0.286	0.115	0.309
5cf7	5nji	739	732	0.204	0.224	0.25	0.214
5cf7	5nji	740	733	0.255	0.235	0.274	0.305
5cf7	5nji	742	735	0.06	0.069	0.043	0.039
5cf7	5nji	743	736	0.343	0.369	0.355	0.376
5cf7	5nji	744	737	0.756	0.677	0.754	0.68
5cf7	5nji	745	738	0.043	0.049	0.028	0.028
5cf7	5nji	746	739	0.536	0.582	0.497	0.518
5cf7	5nji	747	740	0.27	0.382	0.307	0.261
5cf7	5nji	748	741	0.419	0.378	0.434	0.407
5cf7	5nji	749	742	0.781	0.837	0.755	0.793
5cf7	5nji	750	743	0.072	0.059	0.062	0.078
5cf7	5nji	751	744	0.72	0.826	0.748	0.902
5cf7	5nji	752	745	0.52	0.631	0.537	0.675
5cf7	5nji	753	746	0.239	0.268	0.246	0.308
5cf7	5nji	754	747	0.514	0.479	0.567	0.634
5cf7	5nji	755	748	0.382	0.506	0.388	0.479
5cf7	5nji	756	749	0.61	0.587	0.578	0.507
5cf7	5nji	757	750	0.76	0.725	0.754	0.714
5cf7	5nji	758	751	0.418	0.438	0.434	0.454
5cf7	5nji	761	754	0.6	0.653	0.63	0.68
5cf7	5nji	762	755	0.787	0.703	0.838	0.804
5cf7	5nji	763	756	0.383	0.293	0.392	0.635
5cf7	5nji	764	757	0.266	0.282	0.256	0.221
5cf7	5nji	765	758	0.251	0.221	0.243	0.242
5cf7	5nji	766	759	0.071	0.08	0.053	0.052
5cf7	5nji	767	760	0.588	0.544	0.655	0.869
5cf7	5nji	768	761	0.284	0.213	0.276	0.261
5cf7	5nji	769	762	0.733	0.824	0.745	0.698
5cf7	5nji	770	763	0.142	0.198	0.146	0.222
5cf7	5nji	771	764	0.035	0.05	0.053	0.036
5cf7	5nji	772	765	0.252	0.271	0.227	0.247
5cf7	5nji	773	766	0.282	0.37	0.25	0.36
5cf7	5nji	774	767	0.438	0.442	0.443	0.439
5cf7	5nji	775	768	1.0	0	1.0	0
5cf7	5nji	776	769	0.363	0.355	0.361	0.371
5cf7	5nji	777	770	0.863	0.739	0.875	0.796
5cf7	5nji	778	771	0.597	0.944	0.637	0.909
5cf7	5nji	779	772	0.387	0.529	0.382	0.08
5cf7	5nji	781	774	0.0	0.003	0.023	0.006
5cf7	5nji	782	775	0.616	0.634	0.646	0.64
5cf7	5nji	783	776	0.246	0.372	0.268	0.388
5cf7	5nji	784	777	0.0	0.001	0.0	0.008
5cf7	5nji	785	778	0.409	0.64	0.397	0.443
5cf7	5nji	786	779	0.689	0.72	0.376	0.444
5cf7	5nji	787	780	0.359	0.306	0.312	0.357
5cf7	5nji	788	781	0.094	0.153	0.119	0.22
5cf7	5nji	789	782	0.0	0.0	0.0	0.0
5cf7	5nji	790	783	0.0	0.012	0.0	0.001
5cf7	5nji	791	784	0.046	0.072	0.0	0.101
5cf7	5nji	792	785	0.095	0.059	0.093	0.129
5cf7	5nji	793	786	0.01	0.01	0.021	0.043
5cf7	5nji	794	787	0.326	0.454	0.345	0.432
5cf7	5nji	795	788	0.374	0.357	0.388	0.37
5cf7	5nji	796	789	0.567	0.653	0.509	0.47
5cf7	5nji	797	790	0.766	0.574	0.785	0.528
5cf7	5nji	798	791	0.136	0.128	0.257	0.272
5cf7	5nji	799	792	0.427	0.534	0.419	0.595
5cf7	5nji	800	793	0.444	0.426	0.438	0.406
5cf7	5nji	802	795	0.0	0.0	0.0	0.0
5cf7	5nji	804	797	0.019	0.045	0.0	0.01
5cf7	5nji	805	798	0.107	0.149	0.111	0.218
5cf7	5nji	806	799	0.04	0.03	0.045	0.036
5cf7	5nji	807	800	0.322	0.425	0.327	0.427
5cf7	5nji	808	801	0.223	0.392	0.205	0.521
5cf7	5nji	809	802	0.117	0.232	0.101	0.051
5cf7	5nji	810	803	0.0	0.0	0.0	0.0
5cf7	5nji	811	804	0.0	0.025	0.0	0.009
5cf7	5nji	812	805	0.658	0.481	0.663	0.627
5cf7	5nji	813	806	0.137	0.118	0.116	0.147
5cf7	5nji	814	807	0.467	0.567	0.411	0.439
5cf7	5nji	815	808	0.018	0.019	0.009	0.019
5cf7	5nji	816	809	0.0	0.0	0.0	0.0
5cf7	5nji	817	810	0.083	0.084	0.086	0.087
5cf7	5nji	818	811	0.0	0.001	0.0	0.0
5cf7	5nji	819	812	0.306	0.352	0.323	0.365
5cf7	5nji	820	813	0.161	0.111	0.173	0.204
5cf7	5nji	821	814	0.214	0.223	0.188	0.204
5cf7	5nji	822	815	0.351	0.371	0.29	0.296
5cf7	5nji	823	816	0.95	0.65	0.95	1.0
5cf7	5nji	824	817	0.133	0.155	0.117	0.157
5cf7	5nji	826	819	0.459	0.499	0.425	0.529
5cf7	5nji	827	820	0.489	0.543	0.512	0.505
5cf7	5nji	828	821	0.249	0.246	0.276	0.287
5cf7	5nji	829	822	0.184	0.229	0.15	0.139
5cf7	5nji	830	823	0.431	0.51	0.399	0.434
5cf7	5nji	831	824	0.354	0.39	0.407	0.419
5cf7	5nji	832	825	0.833	0.783	0.93	0.876
5cf7	5nji	833	826	0.365	0.43	0.339	0.246
5cf7	5nji	834	827	0.0	0.071	0.012	0.003
5cf7	5nji	835	828	0.0	0.0	0.0	0.004
5cf7	5nji	836	829	0.318	0.445	0.337	0.518
5cf7	5nji	837	830	0.519	0.474	0.552	0.732
5cf7	5nji	838	831	0.0	0.0	0.0	0.0
5cf7	5nji	839	832	0.0	0.0	0.0	0.002
5cf7	5nji	840	833	0.135	0.213	0.108	0.147
5cf7	5nji	841	834	0.0	0.046	0.0	0.038
5cf7	5nji	842	835	0.289	0.418	0.269	0.29
5cf7	5nji	843	836	0.0	0.0	0.0	0.0
5cf7	5nji	844	837	0.297	0.477	0.358	0.51
5cf7	5nji	846	839	0.338	0.286	0.384	0.4
5cf7	5nji	847	840	0.0	0.0	0.0	0.0
5cf7	5nji	848	841	0.011	0.019	0.012	0.018
5cf7	5nji	850	843	0.06	0.081	0.023	0.026
5cf7	5nji	851	844	0.132	0.11	0.157	0.228
5cf7	5nji	852	845	0.481	0.509	0.521	0.543
5cf7	5nji	853	846	0.147	0.223	0.149	0.223
5cf7	5nji	854	847	0.054	0.089	0.029	0.092
5cf7	5nji	855	848	0.419	0.554	0.366	0.36
5cf7	5nji	856	849	0.527	0.583	0.55	0.566
5cf7	5nji	857	850	0.615	0.737	0.589	0.729
5cf7	5nji	858	851	0.436	0.591	0.476	0.562
5cf7	5nji	859	852	0.128	0.372	0.109	0.161
5cf7	5nji	860	853	0.028	0.085	0.018	0.068
5cf7	5nji	861	854	0.607	0.828	0.708	0.708
5cf7	5nji	862	855	0.0	0.008	0.0	0.021
5cf7	5nji	863	856	0.046	0.114	0.059	0.112
5cf7	5nji	864	857	0.731	0.652	0.74	0.661
5cf7	5nji	865	858	0.591	0.625	0.577	0.692
5cf7	5nji	867	860	0.185	0.196	0.165	0.177
5cf7	5nji	869	862	0.391	0.58	0.402	0.436
5cf7	5nji	873	866	0.0	0.091	0.0	0.06
5cf7	5nji	875	868	0.026	0.021	0.023	0.05
