pred	succ	p-cen	s-cen	p_q-score	p_s-score	s_q-score	s_s-score
6c0c	6cd7	1	1	0.607	0.568	0.607	0.568
6c0c	6cd7	2	2	0.858	0.858	0.858	0.858
6c0c	6cd7	3	3	0.368	0.417	0.366	0.342
6c0c	6cd7	4	4	0.27	0.289	0.248	0.322
6c0c	6cd7	5	5	0.358	0.495	0.361	0.526
6c0c	6cd7	6	6	1.0	0	1.0	0
6c0c	6cd7	7	7	0.051	0.046	0.003	0.004
6c0c	6cd7	8	8	0.355	0.45	0.348	0.409
6c0c	6cd7	9	9	0.487	0.478	0.507	0.492
6c0c	6cd7	10	10	0.728	0.726	0.728	0.726
6c0c	6cd7	11	11	0.222	0.235	0.221	0.244
6c0c	6cd7	12	12	0.323	0.335	0.356	0.39
6c0c	6cd7	13	13	0.487	0.482	0.546	0.694
6c0c	6cd7	14	14	0.261	0.185	0.252	0.19
6c0c	6cd7	15	15	0.06	0.158	0.027	0.06
6c0c	6cd7	16	16	0.647	0.635	0.632	0.845
6c0c	6cd7	17	17	0.5	0.472	0.475	0.432
6c0c	6cd7	18	18	0.643	0.386	0.643	0.386
6c0c	6cd7	19	19	0.118	0.115	0.057	0.059
6c0c	6cd7	20	20	0.0	0.0	0.0	0.0
6c0c	6cd7	21	21	0.0	0.0	0.0	0.0
6c0c	6cd7	22	22	0.0	0.0	0.0	0.0
6c0c	6cd7	23	23	0.722	0.751	0.734	0.774
6c0c	6cd7	24	24	0.303	0.281	0.264	0.256
6c0c	6cd7	25	25	0.826	0.622	0.9	0.729
6c0c	6cd7	26	26	0.308	0.321	0.246	0.228
6c0c	6cd7	27	27	0.21	0.224	0.197	0.189
6c0c	6cd7	28	28	0.608	0.591	0.608	0.591
6c0c	6cd7	29	29	0.118	0.1	0.119	0.118
6c0c	6cd7	30	30	0.0	0.0	0.0	0.0
6c0c	6cd7	31	31	0.0	0.0	0.0	0.0
6c0c	6cd7	32	32	0.547	0.565	0.547	0.565
6c0c	6cd7	33	33	0.053	0.055	0.108	0.107
6c0c	6cd7	34	34	0.0	0.002	0.0	0.011
6c0c	6cd7	35	35	0.114	0.173	0.131	0.196
6c0c	6cd7	36	36	0.673	0.675	0.669	0.639
6c0c	6cd7	37	37	0.032	0.037	0.048	0.043
6c0c	6cd7	38	38	0.0	0.0	0.0	0.0
6c0c	6cd7	39	39	0.091	0.114	0.103	0.103
6c0c	6cd7	40	40	0.288	0.137	0.293	0.419
6c0c	6cd7	41	41	0.302	0.299	0.247	0.249
6c0c	6cd7	42	42	0.0	0.0	0.0	0.0
6c0c	6cd7	43	43	0.0	0.001	0.0	0.003
6c0c	6cd7	44	44	0.0	0.001	0.0	0.001
6c0c	6cd7	45	45	0.0	0.001	0.0	0.0
6c0c	6cd7	46	46	0.0	0.002	0.0	0.0
6c0c	6cd7	47	47	0.264	0.277	0.37	0.37
6c0c	6cd7	48	48	0.39	0.513	0.39	0.513
6c0c	6cd7	49	49	0.0	0.0	0.0	0.0
6c0c	6cd7	50	50	0.0	0.0	0.0	0.0
6c0c	6cd7	51	51	0.0	0.0	0.0	0.009
6c0c	6cd7	52	52	0.333	0.368	0.371	0.469
6c0c	6cd7	53	53	0.047	0.105	0.037	0.092
6c0c	6cd7	54	54	0.249	0.358	0.258	0.207
6c0c	6cd7	55	55	0.0	0.0	0.0	0.0
6c0c	6cd7	56	56	0.588	0.524	0.577	0.609
6c0c	6cd7	57	57	0.68	0.74	0.68	0.848
6c0c	6cd7	58	58	0.0	0.0	0.007	0.004
6c0c	6cd7	59	59	0.0	0.0	0.0	0.0
6c0c	6cd7	60	60	0.0	0.0	0.0	0.0
6c0c	6cd7	61	61	0.348	0.315	0.193	0.158
6c0c	6cd7	62	62	0.0	0.0	0.0	0.0
6c0c	6cd7	63	63	0.143	0.044	0.126	0.067
6c0c	6cd7	64	64	0.113	0.159	0.094	0.158
6c0c	6cd7	65	65	0.453	0.361	0.443	0.418
6c0c	6cd7	66	66	0.333	0.625	0.369	0.337
6c0c	6cd7	67	67	0.0	0.0	0.0	0.0
6c0c	6cd7	68	68	0.583	0.626	0.605	0.699
6c0c	6cd7	69	69	0.187	0.181	0.24	0.232
6c0c	6cd7	70	70	0.721	0.7	0.721	0.7
6c0c	6cd7	71	71	0.594	0.796	0.594	0.796
6c0c	6cd7	72	72	0.81	0.83	0.758	0.775
6c0c	6cd7	73	73	0.526	0.508	0.417	0.394
6c0c	6cd7	74	74	0.891	0.751	0.891	0.751
6c0c	6cd7	75	75	0.0	0.055	0.0	0.016
6c0c	6cd7	76	76	0.595	0.796	0.579	0.549
6c0c	6cd7	77	77	0.708	0.713	0.69	0.702
6c0c	6cd7	78	78	0.0	0.0	0.0	0.0
6c0c	6cd7	79	79	0.5	0.542	0.501	0.548
6c0c	6cd7	80	80	0.389	0.452	0.389	0.452
6c0c	6cd7	81	81	0.83	0.865	0.812	0.858
6c0c	6cd7	82	82	0.0	0.0	0.0	0.0
6c0c	6cd7	83	83	0.184	0.242	0.157	0.175
6c0c	6cd7	84	84	0.035	0.1	0.018	0.028
6c0c	6cd7	85	85	0.35	0.322	0.343	0.434
6c0c	6cd7	86	86	0.244	0.228	0.2	0.21
6c0c	6cd7	87	87	0.045	0.083	0.047	0.102
6c0c	6cd7	88	88	0.186	0.192	0.186	0.192
6c0c	6cd7	89	89	0.25	0.22	0.25	0.22
6c0c	6cd7	90	90	0.0	0.0	0.0	0.0
6c0c	6cd7	91	91	0.54	0.632	0.533	0.605
6c0c	6cd7	92	92	0.563	0.577	0.507	0.547
6c0c	6cd7	93	93	0.284	0.261	0.289	0.336
6c0c	6cd7	94	94	0.096	0.086	0.117	0.194
6c0c	6cd7	95	95	0.041	0.058	0.034	0.056
6c0c	6cd7	96	96	0.39	0.297	0.39	0.297
6c0c	6cd7	97	97	0.329	0.307	0.338	0.398
6c0c	6cd7	98	98	0.284	0.28	0.248	0.324
6c0c	6cd7	99	99	0.17	0.146	0.132	0.137
6c0c	6cd7	100	100	0.404	0.441	0.426	0.475
6c0c	6cd7	101	101	0.18	0.225	0.226	0.273
6c0c	6cd7	102	102	0.386	0.418	0.392	0.433
6c0c	6cd7	103	103	0.024	0.038	0.045	0.061
6c0c	6cd7	104	104	0.35	0.328	0.331	0.341
6c0c	6cd7	105	105	0.115	0.119	0.129	0.158
6c0c	6cd7	106	106	0.36	0.313	0.287	0.246
6c0c	6cd7	107	107	0.777	0.67	0.795	0.897
6c0c	6cd7	108	108	0.584	0.532	0.584	0.713
6c0c	6cd7	109	109	0.324	0.418	0.314	0.402
6c0c	6cd7	110	110	0.277	0.301	0.247	0.276
6c0c	6cd7	111	111	0.634	0.798	0.665	0.638
6c0c	6cd7	112	112	0.731	0.746	0.721	0.737
6c0c	6cd7	113	113	0.042	0.053	0.085	0.095
6c0c	6cd7	114	114	0.374	0.436	0.318	0.361
6c0c	6cd7	115	115	0.097	0.167	0.094	0.268
6c0c	6cd7	116	116	0.514	0.429	0.511	0.415
6c0c	6cd7	117	117	0.233	0.286	0.204	0.216
6c0c	6cd7	118	118	0.786	0.705	0.786	0.705
6c0c	6cd7	119	119	1.0	0	1.0	0
6c0c	6cd7	120	120	0.268	0.43	0.256	0.318
6c0c	6cd7	121	121	0.841	0.837	0.843	0.914
6c0c	6cd7	122	122	0.461	0.323	0.441	0.289
6c0c	6cd7	123	123	0.456	0.472	0.435	0.417
6c0c	6cd7	124	124	0.239	0.422	0.269	0.435
6c0c	6cd7	125	125	0.563	0.607	0.563	0.639
6c0c	6cd7	126	126	0.114	0.045	0.147	0.237
6c0c	6cd7	127	127	0.233	0.26	0.265	0.298
6c0c	6cd7	128	128	0.071	0.057	0.071	0.057
6c0c	6cd7	129	129	0.516	0.53	0.433	0.399
6c0c	6cd7	130	130	0.42	0.498	0.44	0.462
6c0c	6cd7	131	131	0.563	0.821	0.554	0.558
6c0c	6cd7	132	132	0.693	0.714	0.71	0.836
6c0c	6cd7	133	133	0.502	0.699	0.521	0.476
6c0c	6cd7	134	134	0.151	0.232	0.118	0.108
6c0c	6cd7	135	135	0.52	0.552	0.535	0.579
6c0c	6cd7	136	136	0.474	0.642	0.433	0.617
6c0c	6cd7	137	137	0.115	0.078	0.132	0.123
6c0c	6cd7	138	138	0.413	0.568	0.452	0.471
6c0c	6cd7	139	139	0.361	0.578	0.391	0.233
6c0c	6cd7	140	140	0.296	0.283	0.325	0.272
6c0c	6cd7	141	141	0.092	0.112	0.063	0.08
6c0c	6cd7	142	142	0.189	0.332	0.157	0.102
6c0c	6cd7	143	143	0.0	0.0	0.0	0.02
6c0c	6cd7	144	144	0.365	0.494	0.378	0.404
6c0c	6cd7	145	145	0.245	0.279	0.276	0.429
6c0c	6cd7	146	146	0.675	0.828	0.664	0.673
6c0c	6cd7	148	148	0.612	0.586	0.603	0.586
6c0c	6cd7	149	149	0.046	0.057	0.051	0.062
6c0c	6cd7	150	150	0.656	0.408	0.667	0.42
6c0c	6cd7	151	151	0.369	0.439	0.377	0.461
6c0c	6cd7	152	152	0.746	0.641	0.746	0.641
6c0c	6cd7	153	153	0.107	0.104	0.133	0.141
6c0c	6cd7	154	154	0.524	0.467	0.611	0.56
6c0c	6cd7	155	155	0.842	0.736	0.829	0.809
6c0c	6cd7	156	156	0.563	0.546	0.56	0.477
6c0c	6cd7	157	157	0.019	0.02	0.026	0.032
6c0c	6cd7	158	158	0.822	0.736	0.825	0.739
6c0c	6cd7	159	159	0.088	0.096	0.081	0.084
6c0c	6cd7	160	160	0.326	0.39	0.355	0.329
6c0c	6cd7	161	161	0.031	0.066	0.025	0.014
6c0c	6cd7	162	162	0.444	0.508	0.439	0.443
6c0c	6cd7	163	163	0.443	0.556	0.486	0.478
6c0c	6cd7	164	164	0.404	0.505	0.366	0.378
6c0c	6cd7	165	165	0.496	0.515	0.465	0.464
6c0c	6cd7	166	166	0.626	0.636	0.621	0.545
6c0c	6cd7	167	167	0.292	0.363	0.293	0.401
6c0c	6cd7	168	168	0.009	0.024	0.009	0.024
6c0c	6cd7	169	169	0.0	0.0	0.0	0.0
6c0c	6cd7	170	170	0.135	0.088	0.135	0.088
6c0c	6cd7	171	171	0.273	0.183	0.273	0.183
6c0c	6cd7	172	172	0.235	0.266	0.213	0.189
6c0c	6cd7	173	173	0.862	0.934	0.862	0.934
6c0c	6cd7	174	174	0.669	0.683	0.669	0.683
6c0c	6cd7	175	175	0.247	0.324	0.235	0.311
6c0c	6cd7	176	176	0.975	0.963	0.975	0.963
6c0c	6cd7	177	177	0.756	0.737	0.778	0.764
6c0c	6cd7	178	178	0.232	0.41	0.236	0.234
6c0c	6cd7	179	179	0.089	0.103	0.094	0.086
6c0c	6cd7	180	180	0.136	0.153	0.12	0.352
6c0c	6cd7	181	181	0.733	0.804	0.752	0.594
6c0c	6cd7	182	182	0.154	0.152	0.115	0.135
6c0c	6cd7	183	183	0.755	0.668	0.797	0.765
6c0c	6cd7	184	184	0.95	1.0	0.95	1.0
6c0c	6cd7	185	185	0.12	0.136	0.056	0.06
6c0c	6cd7	186	186	0.273	0.305	0.295	0.288
6c0c	6cd7	187	187	0.602	0.585	0.601	0.679
6c0c	6cd7	188	188	0.502	0.507	0.447	0.434
6c0c	6cd7	189	189	0.584	0.623	0.584	0.623
6c0c	6cd7	190	190	0.503	0.644	0.503	0.644
6c0c	6cd7	191	191	0.459	0.414	0.441	0.462
6c0c	6cd7	192	192	0.0	0.264	0.0	0.109
6c0c	6cd7	193	193	0.0	0.0	0.0	0.0
6c0c	6cd7	194	194	0.506	0.572	0.519	0.563
6c0c	6cd7	195	195	0.407	0.517	0.388	0.605
6c0c	6cd7	196	196	0.016	0.018	0.009	0.009
6c0c	6cd7	197	197	0.218	0.24	0.228	0.237
6c0c	6cd7	198	198	0.477	0.669	0.477	0.669
6c0c	6cd7	199	199	0.107	0.122	0.157	0.283
6c0c	6cd7	200	200	0.0	0.0	0.0	0.0
6c0c	6cd7	201	201	0.641	0.68	0.601	0.769
6c0c	6cd7	202	202	0.673	0.614	0.717	0.7
6c0c	6cd7	203	203	0.0	0.0	0.0	0.0
6c0c	6cd7	204	204	0.0	0.0	0.0	0.0
6c0c	6cd7	205	205	0.285	0.397	0.275	0.403
6c0c	6cd7	206	206	0.156	0.2	0.143	0.243
6c0c	6cd7	207	207	0.754	0.767	0.772	0.738
6c0c	6cd7	208	208	0.0	0.0	0.0	0.0
6c0c	6cd7	209	209	0.177	0.261	0.185	0.268
6c0c	6cd7	210	210	0.755	0.787	0.755	0.787
6c0c	6cd7	211	211	0.0	0.0	0.0	0.0
6c0c	6cd7	212	212	0.186	0.204	0.191	0.137
6c0c	6cd7	213	213	0.799	0.87	0.814	0.836
6c0c	6cd7	214	214	0.568	0.603	0.679	0.714
6c0c	6cd7	215	215	0.204	0.195	0.185	0.15
6c0c	6cd7	216	216	0.39	0.568	0.402	0.467
6c0c	6cd7	217	217	0.639	0.588	0.64	0.645
6c0c	6cd7	218	218	0.0	0.0	0.0	0.0
6c0c	6cd7	219	219	0.0	0.0	0.0	0.0
6c0c	6cd7	220	220	0.777	0.825	0.746	0.726
6c0c	6cd7	221	221	0.114	0.078	0.101	0.074
6c0c	6cd7	222	222	0.0	0.0	0.0	0.0
6c0c	6cd7	223	223	0.0	0.0	0.0	0.0
6c0c	6cd7	224	224	0.288	0.313	0.288	0.313
6c0c	6cd7	225	225	0.055	0.062	0.086	0.069
6c0c	6cd7	226	226	0.054	0.09	0.041	0.043
6c0c	6cd7	227	227	0.236	0.347	0.235	0.309
6c0c	6cd7	228	228	0.265	0.314	0.262	0.341
6c0c	6cd7	229	229	0.3	0.317	0.284	0.324
6c0c	6cd7	230	230	0.065	0.058	0.134	0.092
6c0c	6cd7	231	231	0.0	0.0	0.0	0.0
6c0c	6cd7	232	232	0.0	0.0	0.0	0.0
6c0c	6cd7	233	233	0.535	0.631	0.568	0.779
6c0c	6cd7	234	234	0.245	0.4	0.286	0.348
6c0c	6cd7	235	235	0.0	0.0	0.0	0.0
6c0c	6cd7	236	236	0.0	0.0	0.0	0.0
6c0c	6cd7	237	237	0.0	0.0	0.0	0.0
6c0c	6cd7	238	238	0.103	0.113	0.092	0.078
6c0c	6cd7	239	239	0.027	0.049	0.026	0.023
6c0c	6cd7	240	240	0.0	0.001	0.0	0.012
6c0c	6cd7	241	241	0.0	0.0	0.0	0.0
6c0c	6cd7	242	242	0.35	0.401	0.392	0.446
6c0c	6cd7	243	243	0.058	0.051	0.04	0.01
6c0c	6cd7	244	244	0.816	0.862	0.823	0.857
6c0c	6cd7	245	245	0.507	0.538	0.476	0.476
6c0c	6cd7	246	246	0.023	0.022	0.029	0.039
6c0c	6cd7	247	247	0.0	0.0	0.0	0.067
6c0c	6cd7	248	248	0.077	0.112	0.055	0.131
6c0c	6cd7	249	249	0.049	0.08	0.037	0.088
6c0c	6cd7	250	250	0.748	0.698	0.791	0.664
6c0c	6cd7	251	251	0.575	0.529	0.575	0.529
6c0c	6cd7	252	252	0.0	0.0	0.0	0.048
6c0c	6cd7	253	253	0.776	0.843	0.761	0.787
6c0c	6cd7	254	254	0.689	0.623	0.689	0.623
6c0c	6cd7	255	255	0.016	0.009	0.024	0.021
6c0c	6cd7	256	256	0.0	0.001	0.0	0.0
6c0c	6cd7	257	257	0.0	0.0	0.0	0.0
6c0c	6cd7	258	258	0.085	0.115	0.084	0.107
6c0c	6cd7	259	259	0.567	0.56	0.546	0.629
6c0c	6cd7	260	260	0.128	0.151	0.116	0.145
6c0c	6cd7	261	261	0.753	0.845	0.724	0.81
6c0c	6cd7	262	262	0.0	0.0	0.0	0.0
6c0c	6cd7	263	263	0.077	0.126	0.103	0.107
6c0c	6cd7	264	264	0.0	0.097	0.0	0.085
6c0c	6cd7	265	265	0.394	0.545	0.318	0.506
6c0c	6cd7	266	266	0.795	0.852	0.864	0.86
6c0c	6cd7	267	267	0.811	0.809	0.831	0.718
6c0c	6cd7	268	268	0.046	0.048	0.046	0.048
6c0c	6cd7	269	269	0.237	0.234	0.234	0.232
6c0c	6cd7	270	270	0.19	0.338	0.163	0.284
6c0c	6cd7	271	271	0.2	0.168	0.238	0.168
6c0c	6cd7	272	272	0.566	0.483	0.642	0.594
6c0c	6cd7	273	273	0.145	0.163	0.145	0.163
6c0c	6cd7	274	274	0.448	0.488	0.448	0.488
6c0c	6cd7	275	275	0.342	0.337	0.332	0.324
6c0c	6cd7	276	276	0.656	0.511	0.661	0.457
6c0c	6cd7	277	277	0.156	0.269	0.173	0.289
6c0c	6cd7	278	278	0.694	0.713	0.779	0.766
6c0c	6cd7	279	279	0.813	0.676	0.851	0.709
6c0c	6cd7	280	280	0.134	0.16	0.09	0.089
6c0c	6cd7	281	281	0.304	0.12	0.292	0.169
6c0c	6cd7	282	282	0.311	0.355	0.35	0.295
6c0c	6cd7	283	283	0.0	0.0	0.0	0.0
6c0c	6cd7	284	284	0.201	0.187	0.209	0.19
6c0c	6cd7	285	285	0.195	0.332	0.195	0.332
6c0c	6cd7	286	286	0.332	0.359	0.343	0.503
6c0c	6cd7	287	287	0.0	0.0	0.0	0.0
6c0c	6cd7	288	288	0.167	0.147	0.106	0.088
6c0c	6cd7	289	289	0.442	0.465	0.439	0.44
6c0c	6cd7	290	290	0.001	0.032	0.0	0.029
6c0c	6cd7	291	291	0.078	0.08	0.112	0.134
6c0c	6cd7	292	292	0.435	0.424	0.435	0.424
6c0c	6cd7	293	293	1.0	0	1.0	0
6c0c	6cd7	294	294	0.789	0.768	0.789	0.768
6c0c	6cd7	295	295	0.544	0.503	0.544	0.503
6c0c	6cd7	296	296	0.105	0.148	0.088	0.128
6c0c	6cd7	297	297	0.14	0.179	0.14	0.179
6c0c	6cd7	298	298	0.858	0.871	0.9	0.92
6c0c	6cd7	299	299	0.472	0.421	0.501	0.584
6c0c	6cd7	300	300	0.743	0.707	0.743	0.707
6c0c	6cd7	301	301	0.304	0.365	0.287	0.45
6c0c	6cd7	302	302	0.279	0.273	0.279	0.273
6c0c	6cd7	303	303	0.851	0.916	0.789	0.849
6c0c	6cd7	304	304	0.332	0.216	0.341	0.161
6c0c	6cd7	305	305	0.8	0.485	0.8	0.485
6c0c	6cd7	306	306	0.183	0.204	0.223	0.259
6c0c	6cd7	307	307	0.25	0.302	0.248	0.241
6c0c	6cd7	308	308	0.81	0.887	0.763	0.728
6c0c	6cd7	309	309	0.371	0.569	0.371	0.569
6c0c	6cd7	310	310	0.196	0.287	0.196	0.287
6c0c	6cd7	311	311	0.026	0.011	0.035	0.022
6c0c	6cd7	312	312	0.484	0.52	0.484	0.52
6c0c	6cd7	313	313	0.724	0.781	0.724	0.781
6c0c	6cd7	314	314	0.183	0.164	0.228	0.327
6c0c	6cd7	315	315	0.412	0.322	0.427	0.346
6c0c	6cd7	316	316	0.597	0.733	0.681	0.726
6c0c	6cd7	317	317	0.786	0.88	0.829	0.73
6c0c	6cd7	318	318	0.75	0.7	0.786	0.743
6c0c	6cd7	319	319	0.439	0.545	0.415	0.504
6c0c	6cd7	320	320	0.634	0.748	0.575	0.713
6c0c	6cd7	321	321	0.026	0.04	0.057	0.014
6c0c	6cd7	322	322	0.0	0.002	0.0	0.002
6c0c	6cd7	323	323	0.308	0.442	0.312	0.527
6c0c	6cd7	324	324	0.525	0.609	0.572	0.545
6c0c	6cd7	325	325	0.131	0.136	0.104	0.082
6c0c	6cd7	326	326	0.134	0.141	0.134	0.141
6c0c	6cd7	327	327	0.62	0.878	0.612	0.696
6c0c	6cd7	328	328	0.44	0.56	0.466	0.743
6c0c	6cd7	329	329	0.147	0.151	0.17	0.236
6c0c	6cd7	330	330	0.23	0.254	0.193	0.198
6c0c	6cd7	331	331	0.39	0.397	0.345	0.484
6c0c	6cd7	332	332	0.869	0.985	0.886	0.986
6c0c	6cd7	333	333	0.887	0.945	0.817	0.848
6c0c	6cd7	334	334	0.515	0.604	0.531	0.672
6c0c	6cd7	335	335	0.745	0.547	0.793	0.574
6c0c	6cd7	336	336	0.424	0.543	0.446	0.791
6c0c	6cd7	337	337	0.041	0.031	0.058	0.059
6c0c	6cd7	338	338	0.945	0.945	0.945	0.945
6c0c	6cd7	339	339	0.265	0.243	0.273	0.275
6c0c	6cd7	340	340	0.646	0.659	0.66	0.743
6c0c	6cd7	341	341	0.222	0.32	0.177	0.191
6c0c	6cd7	342	342	0.024	0.027	0.029	0.068
6c0c	6cd7	343	343	0.061	0.047	0.035	0.026
6c0c	6cd7	344	344	0.0	0.001	0.0	0.0
6c0c	6cd7	345	345	0.033	0.035	0.033	0.027
6c0c	6cd7	346	346	0.049	0.074	0.049	0.092
6c0c	6cd7	347	347	0.584	0.548	0.625	0.699
6c0c	6cd7	348	348	0.027	0.037	0.023	0.086
6c0c	6cd7	349	349	0.131	0.116	0.177	0.181
6c0c	6cd7	350	350	0.212	0.208	0.211	0.218
6c0c	6cd7	351	351	0.563	0.399	0.606	0.453
6c0c	6cd7	352	352	0.313	0.411	0.379	0.475
6c0c	6cd7	353	353	0.563	0.622	0.568	0.615
6c0c	6cd7	354	354	0.886	0.6	0.852	0.797
6c0c	6cd7	355	355	0.029	0.083	0.023	0.06
6c0c	6cd7	356	356	0.0	0.009	0.0	0.013
6c0c	6cd7	357	357	0.035	0.054	0.044	0.163
6c0c	6cd7	358	358	0.0	0.013	0.0	0.025
6c0c	6cd7	359	359	0.383	0.149	0.349	0.341
6c0c	6cd7	360	360	0.394	0.464	0.406	0.103
6c0c	6cd7	361	361	0.0	0.005	0.0	0.008
6c0c	6cd7	362	362	0.0	0.059	0.0	0.066
6c0c	6cd7	363	363	0.863	0.852	0.873	0.891
6c0c	6cd7	364	364	0.174	0.274	0.213	0.247
6c0c	6cd7	365	365	0.275	0.363	0.235	0.343
6c0c	6cd7	366	366	0.49	0.531	0.502	0.501
6c0c	6cd7	367	367	0.309	0.313	0.28	0.366
6c0c	6cd7	368	368	0.144	0.121	0.146	0.116
6c0c	6cd7	369	369	0.345	0.314	0.341	0.433
6c0c	6cd7	370	370	0.368	0.375	0.368	0.52
6c0c	6cd7	371	371	0.0	0.0	0.0	0.0
6c0c	6cd7	372	372	0.0	0.0	0.0	0.0
6c0c	6cd7	373	373	0.632	0.713	0.632	0.713
6c0c	6cd7	374	374	0.048	0.059	0.09	0.106
6c0c	6cd7	375	375	0.844	0.8	0.879	0.825
6c0c	6cd7	376	376	0.334	0.35	0.393	0.498
6c0c	6cd7	377	377	0.017	0.019	0.017	0.019
6c0c	6cd7	378	378	0.495	0.454	0.489	0.387
6c0c	6cd7	379	379	0.762	0.698	0.766	0.753
6c0c	6cd7	380	380	0.68	0.821	0.674	0.645
6c0c	6cd7	381	381	0.026	0.036	0.093	0.11
6c0c	6cd7	382	382	0.0	0.0	0.0	0.0
6c0c	6cd7	383	383	0.158	0.143	0.192	0.286
6c0c	6cd7	384	384	0.676	0.641	0.758	0.63
6c0c	6cd7	385	385	0.397	0.309	0.329	0.454
6c0c	6cd7	386	386	0.0	0.0	0.0	0.0
6c0c	6cd7	387	387	0.0	0.005	0.0	0.0
6c0c	6cd7	388	388	0.364	0.522	0.364	0.522
6c0c	6cd7	389	389	0.148	0.164	0.153	0.215
6c0c	6cd7	390	390	0.18	0.216	0.208	0.24
6c0c	6cd7	391	391	0.042	0.034	0.042	0.034
6c0c	6cd7	392	392	0.837	0.933	0.837	0.933
6c0c	6cd7	393	393	0.458	0.455	0.392	0.382
6c0c	6cd7	394	394	0.0	0.0	0.0	0.0
6c0c	6cd7	395	395	0.0	0.0	0.0	0.0
6c0c	6cd7	396	396	0.02	0.027	0.028	0.034
6c0c	6cd7	397	397	0.131	0.133	0.235	0.238
6c0c	6cd7	398	398	0.0	0.0	0.0	0.0
6c0c	6cd7	399	399	0.0	0.0	0.0	0.0
6c0c	6cd7	400	400	0.466	0.475	0.524	0.649
6c0c	6cd7	401	401	0.229	0.467	0.239	0.375
6c0c	6cd7	402	402	0.37	0.409	0.464	0.525
6c0c	6cd7	403	403	0.364	0.355	0.39	0.377
6c0c	6cd7	404	404	0.251	0.257	0.246	0.268
6c0c	6cd7	405	405	0.124	0.125	0.139	0.118
6c0c	6cd7	406	406	0.169	0.112	0.178	0.107
6c0c	6cd7	407	407	0.187	0.074	0.187	0.126
6c0c	6cd7	408	408	0.286	0.251	0.286	0.251
6c0c	6cd7	409	409	0.0	0.0	0.0	0.0
6c0c	6cd7	410	410	0.479	0.579	0.471	0.461
6c0c	6cd7	411	411	0.761	0.74	0.759	0.835
6c0c	6cd7	412	412	0.543	0.483	0.573	0.479
6c0c	6cd7	413	413	0.005	0.006	0.016	0.018
6c0c	6cd7	414	414	0.713	0.785	0.713	0.785
6c0c	6cd7	415	415	0.931	0.923	0.931	0.923
6c0c	6cd7	416	416	0.107	0.108	0.119	0.118
6c0c	6cd7	417	417	0.304	0.408	0.328	0.507
6c0c	6cd7	418	418	0.369	0.477	0.34	0.554
6c0c	6cd7	419	419	0.285	0.046	0.282	0.351
6c0c	6cd7	420	420	0.063	0.066	0.141	0.15
6c0c	6cd7	421	421	0.0	0.0	0.0	0.0
6c0c	6cd7	422	422	0.033	0.085	0.001	0.023
6c0c	6cd7	423	423	0.095	0.092	0.12	0.119
6c0c	6cd7	424	424	0.0	0.0	0.0	0.0
6c0c	6cd7	425	425	0.535	0.479	0.561	0.523
6c0c	6cd7	426	426	0.0	0.0	0.0	0.0
6c0c	6cd7	427	427	0.509	0.491	0.491	0.631
6c0c	6cd7	428	428	0.375	0.459	0.357	0.436
6c0c	6cd7	429	429	0.42	0.419	0.456	0.364
6c0c	6cd7	430	430	0.356	0.367	0.337	0.332
6c0c	6cd7	431	431	0.303	0.295	0.252	0.259
6c0c	6cd7	432	432	0.0	0.0	0.0	0.0
6c0c	6cd7	433	433	0.017	0.045	0.023	0.036
6c0c	6cd7	434	434	0.172	0.195	0.172	0.195
6c0c	6cd7	435	435	0.22	0.243	0.22	0.243
6c0c	6cd7	436	436	0.245	0.47	0.268	0.509
6c0c	6cd7	437	437	0.0	0.0	0.0	0.0
6c0c	6cd7	438	438	0.034	0.013	0.031	0.03
6c0c	6cd7	439	439	0.0	0.0	0.0	0.0
6c0c	6cd7	440	440	0.183	0.174	0.149	0.15
6c0c	6cd7	441	441	0.0	0.0	0.0	0.0
6c0c	6cd7	442	442	0.0	0.0	0.0	0.0
6c0c	6cd7	443	443	0.275	0.292	0.286	0.268
6c0c	6cd7	444	444	0.183	0.258	0.201	0.212
6c0c	6cd7	445	445	0.152	0.139	0.124	0.106
6c0c	6cd7	446	446	0.531	0.645	0.535	0.614
6c0c	6cd7	447	447	0.0	0.0	0.0	0.0
6c0c	6cd7	448	448	0.324	0.307	0.321	0.274
6c0c	6cd7	449	449	0.128	0.185	0.08	0.086
6c0c	6cd7	450	450	0.22	0.232	0.22	0.232
6c0c	6cd7	451	451	0.0	0.0	0.0	0.0
6c0c	6cd7	452	452	0.0	0.0	0.0	0.0
6c0c	6cd7	453	453	0.66	0.647	0.635	0.753
6c0c	6cd7	454	454	0.382	0.39	0.411	0.402
6c0c	6cd7	455	455	0.0	0.0	0.0	0.0
6c0c	6cd7	456	456	0.131	0.158	0.162	0.232
6c0c	6cd7	457	457	0.777	0.871	0.754	0.633
6c0c	6cd7	458	458	0.157	0.278	0.174	0.16
6c0c	6cd7	459	459	0.123	0.163	0.073	0.096
6c0c	6cd7	460	460	0.549	0.521	0.589	0.594
6c0c	6cd7	461	461	0.883	0.85	0.947	0.921
6c0c	6cd7	462	462	0.0	0.0	0.0	0.0
6c0c	6cd7	463	463	0.0	0.002	0.0	0.002
6c0c	6cd7	464	464	0.039	0.037	0.01	0.014
6c0c	6cd7	465	465	0.831	0.799	0.829	0.891
6c0c	6cd7	466	466	0.228	0.259	0.244	0.251
6c0c	6cd7	467	467	0.0	0.0	0.0	0.0
6c0c	6cd7	468	468	0.263	0.257	0.239	0.405
6c0c	6cd7	469	469	0.047	0.054	0.053	0.098
6c0c	6cd7	470	470	0.778	0.775	0.811	0.785
6c0c	6cd7	471	471	0.8	0.801	0.8	0.801
6c0c	6cd7	472	472	1.0	1.0	1.0	1.0
6c0c	6cd7	473	473	0.044	0.023	0.023	0.053
6c0c	6cd7	474	474	0.0	0.0	0.0	0.0
6c0c	6cd7	475	475	0.216	0.222	0.195	0.189
6c0c	6cd7	476	476	0.263	0.293	0.23	0.302
6c0c	6cd7	477	477	0.0	0.0	0.0	0.0
6c0c	6cd7	478	478	0.002	0.005	0.014	0.011
6c0c	6cd7	479	479	0.336	0.396	0.372	0.304
6c0c	6cd7	480	480	0.151	0.174	0.164	0.201
6c0c	6cd7	481	481	0.025	0.01	0.006	0.006
6c0c	6cd7	482	482	0.796	0.842	0.763	0.82
6c0c	6cd7	483	483	0.272	0.296	0.264	0.288
6c0c	6cd7	484	484	0.007	0.035	0.004	0.006
6c0c	6cd7	485	485	0.271	0.256	0.266	0.235
6c0c	6cd7	486	486	0.24	0.356	0.232	0.371
6c0c	6cd7	487	487	0.273	0.405	0.263	0.359
6c0c	6cd7	488	488	0.407	0.464	0.407	0.47
6c0c	6cd7	489	489	0.898	0.914	0.869	0.87
6c0c	6cd7	490	490	0.66	0.694	0.652	0.68
6c0c	6cd7	491	491	0.489	0.503	0.464	0.393
6c0c	6cd7	492	492	0.71	0.701	0.71	0.701
6c0c	6cd7	493	493	0.726	0.731	0.703	0.7
6c0c	6cd7	494	494	0.904	0.735	0.904	0.735
6c0c	6cd7	495	495	0.54	0.421	0.54	0.421
6c0c	6cd7	496	496	0.401	0.578	0.397	0.44
6c0c	6cd7	497	497	0.002	0.011	0.02	0.022
6c0c	6cd7	498	498	0.034	0.085	0.044	0.041
6c0c	6cd7	499	499	0.038	0.074	0.034	0.029
6c0c	6cd7	500	500	0.406	0.375	0.434	0.321
6c0c	6cd7	501	501	0.428	0.278	0.389	0.481
6c0c	6cd7	502	502	0.066	0.103	0.08	0.167
6c0c	6cd7	503	503	0.286	0.279	0.265	0.275
6c0c	6cd7	504	504	0.452	0.48	0.431	0.522
6c0c	6cd7	505	505	0.0	0.0	0.0	0.0
6c0c	6cd7	506	506	0.725	0.858	0.737	0.827
6c0c	6cd7	507	507	0.793	0.782	0.793	0.782
6c0c	6cd7	508	508	0.0	0.0	0.0	0.0
6c0c	6cd7	509	509	0.0	0.0	0.0	0.0
6c0c	6cd7	510	510	0.375	0.47	0.384	0.369
6c0c	6cd7	511	511	0.366	0.355	0.346	0.284
6c0c	6cd7	512	512	0.553	0.618	0.531	0.456
6c0c	6cd7	513	513	0.0	0.0	0.0	0.0
6c0c	6cd7	514	514	0.641	0.611	0.641	0.611
6c0c	6cd7	515	515	0.819	0.863	0.819	0.863
6c0c	6cd7	516	516	0.101	0.156	0.131	0.134
6c0c	6cd7	517	517	0.502	0.496	0.46	0.529
6c0c	6cd7	518	518	0.037	0.113	0.047	0.07
6c0c	6cd7	519	519	0.196	0.188	0.188	0.224
6c0c	6cd7	520	520	0.631	0.588	0.637	0.526
6c0c	6cd7	521	521	0.409	0.54	0.434	0.495
6c0c	6cd7	522	522	0.322	0.569	0.263	0.233
6c0c	6cd7	523	523	0.751	0.793	0.734	0.824
6c0c	6cd7	524	524	0.714	0.779	0.717	0.725
6c0c	6cd7	525	525	0.0	0.0	0.0	0.0
6c0c	6cd7	526	526	0.874	0.937	0.874	0.937
6c0c	6cd7	527	527	0.814	0.747	0.817	0.756
6c0c	6cd7	528	528	0.046	0.038	0.008	0.004
6c0c	6cd7	529	529	0.443	0.441	0.408	0.409
6c0c	6cd7	530	530	0.382	0.412	0.351	0.387
6c0c	6cd7	531	531	0.528	0.598	0.538	0.614
6c0c	6cd7	532	532	0.0	0.0	0.0	0.0
6c0c	6cd7	533	533	0.024	0.026	0.02	0.017
6c0c	6cd7	534	534	0.011	0.012	0.0	0.0
6c0c	6cd7	535	535	0.609	0.56	0.566	0.571
6c0c	6cd7	536	536	0.057	0.075	0.092	0.078
6c0c	6cd7	537	537	0.0	0.0	0.0	0.0
6c0c	6cd7	538	538	0.097	0.147	0.092	0.106
6c0c	6cd7	539	539	0.023	0.089	0.026	0.069
6c0c	6cd7	540	540	0.007	0.021	0.0	0.071
6c0c	6cd7	541	541	0.248	0.257	0.255	0.262
6c0c	6cd7	542	542	0.007	0.013	0.026	0.023
6c0c	6cd7	543	543	0.0	0.0	0.0	0.0
6c0c	6cd7	544	544	0.192	0.356	0.218	0.344
6c0c	6cd7	545	545	0.117	0.276	0.14	0.202
6c0c	6cd7	546	546	0.473	0.677	0.473	0.677
6c0c	6cd7	547	547	0.0	0.0	0.0	0.0
6c0c	6cd7	548	548	0.0	0.005	0.011	0.028
6c0c	6cd7	549	549	0.527	0.511	0.534	0.591
6c0c	6cd7	550	550	0.0	0.0	0.0	0.0
6c0c	6cd7	551	551	0.0	0.0	0.0	0.0
6c0c	6cd7	552	552	0.0	0.0	0.0	0.0
6c0c	6cd7	553	553	0.809	0.744	0.809	0.84
6c0c	6cd7	554	554	0.305	0.363	0.259	0.283
6c0c	6cd7	555	555	0.535	0.543	0.539	0.546
6c0c	6cd7	556	556	0.334	0.376	0.308	0.307
6c0c	6cd7	557	557	0.0	0.0	0.0	0.0
6c0c	6cd7	558	558	0.278	0.295	0.294	0.323
6c0c	6cd7	559	559	0.819	0.802	0.819	0.802
6c0c	6cd7	560	560	0.0	0.0	0.0	0.0
6c0c	6cd7	561	561	0.0	0.001	0.0	0.0
6c0c	6cd7	562	562	0.0	0.0	0.0	0.0
6c0c	6cd7	563	563	0.0	0.034	0.0	0.027
6c0c	6cd7	564	564	0.154	0.274	0.138	0.193
6c0c	6cd7	565	565	0.076	0.105	0.058	0.137
6c0c	6cd7	566	566	0.0	0.0	0.0	0.0
6c0c	6cd7	567	567	0.0	0.0	0.0	0.0
6c0c	6cd7	568	568	0.0	0.0	0.0	0.0
6c0c	6cd7	569	569	0.166	0.226	0.149	0.332
6c0c	6cd7	570	570	0.447	0.442	0.474	0.424
6c0c	6cd7	571	571	0.231	0.229	0.243	0.252
6c0c	6cd7	572	572	0.0	0.0	0.0	0.0
6c0c	6cd7	573	573	0.0	0.0	0.0	0.0
6c0c	6cd7	574	574	0.319	0.474	0.29	0.456
6c0c	6cd7	575	575	0.088	0.215	0.074	0.056
6c0c	6cd7	576	576	0.243	0.312	0.224	0.334
6c0c	6cd7	577	577	0.074	0.089	0.022	0.061
6c0c	6cd7	578	578	0.031	0.05	0.022	0.032
6c0c	6cd7	579	579	0.033	0.055	0.025	0.049
6c0c	6cd7	580	580	0.03	0.119	0.019	0.144
6c0c	6cd7	581	581	0.202	0.29	0.208	0.358
6c0c	6cd7	582	582	0.455	0.424	0.443	0.399
6c0c	6cd7	583	583	0.0	0.0	0.0	0.0
6c0c	6cd7	584	584	0.061	0.122	0.114	0.197
6c0c	6cd7	585	585	0.0	0.052	0.0	0.035
6c0c	6cd7	586	586	0.451	0.468	0.451	0.468
6c0c	6cd7	587	587	0.796	0.748	0.709	0.771
6c0c	6cd7	588	588	0.238	0.333	0.238	0.333
6c0c	6cd7	589	589	0.091	0.096	0.079	0.082
6c0c	6cd7	590	590	0.0	0.0	0.0	0.0
6c0c	6cd7	591	591	0.0	0.0	0.0	0.0
6c0c	6cd7	592	592	0.762	0.676	0.761	0.574
6c0c	6cd7	593	593	0.316	0.435	0.338	0.5
6c0c	6cd7	594	594	0.0	0.001	0.0	0.0
6c0c	6cd7	595	595	0.573	0.575	0.591	0.566
6c0c	6cd7	596	596	0.561	0.558	0.533	0.487
6c0c	6cd7	597	597	0.316	0.442	0.298	0.355
6c0c	6cd7	598	598	0.646	0.601	0.632	0.696
6c0c	6cd7	599	599	0.227	0.21	0.221	0.206
6c0c	6cd7	600	600	0.346	0.273	0.315	0.495
6c0c	6cd7	601	601	0.778	0.749	0.749	0.751
6c0c	6cd7	602	602	0.0	0.0	0.0	0.0
6c0c	6cd7	603	603	0.462	0.518	0.441	0.531
6c0c	6cd7	604	604	0.761	0.549	0.703	0.797
6c0c	6cd7	605	605	0.8	1.0	0.8	1.0
6c0c	6cd7	606	606	0.016	0.014	0.0	0.004
6c0c	6cd7	607	607	0.356	0.495	0.367	0.525
6c0c	6cd7	608	608	0.365	0.465	0.4	0.565
6c0c	6cd7	609	609	0.826	0.943	0.83	0.925
6c0c	6cd7	610	610	0.006	0.005	0.009	0.02
6c0c	6cd7	611	611	0.0	0.0	0.0	0.0
6c0c	6cd7	612	612	0.022	0.04	0.019	0.051
6c0c	6cd7	613	613	0.105	0.143	0.109	0.33
6c0c	6cd7	614	614	0.71	0.772	0.71	0.772
6c0c	6cd7	615	615	0.65	0.681	0.658	0.697
6c0c	6cd7	616	616	0.0	0.003	0.0	0.0
6c0c	6cd7	617	617	0.0	0.0	0.0	0.006
6c0c	6cd7	618	618	0.0	0.033	0.0	0.026
6c0c	6cd7	619	619	0.123	0.143	0.104	0.103
6c0c	6cd7	620	620	0.111	0.185	0.136	0.211
6c0c	6cd7	621	621	0.834	0.785	0.843	0.828
6c0c	6cd7	622	622	0.616	0.595	0.585	0.567
6c0c	6cd7	623	623	0.774	0.744	0.758	0.754
6c0c	6cd7	624	624	0.123	0.038	0.117	0.154
6c0c	6cd7	625	625	0.442	0.506	0.485	0.685
6c0c	6cd7	626	626	0.62	0.759	0.566	0.688
6c0c	6cd7	627	627	0.0	0.0	0.0	0.0
6c0c	6cd7	628	628	0.406	0.34	0.385	0.35
6c0c	6cd7	629	629	0.866	0.888	0.866	0.888
6c0c	6cd7	630	630	0.263	0.222	0.258	0.223
6c0c	6cd7	631	631	0.0	0.0	0.0	0.0
6c0c	6cd7	632	632	0.021	0.017	0.05	0.033
6c0c	6cd7	633	633	0.048	0.038	0.038	0.04
6c0c	6cd7	634	634	0.144	0.116	0.127	0.154
6c0c	6cd7	635	635	0.164	0.089	0.162	0.249
6c0c	6cd7	636	636	0.305	0.358	0.326	0.315
6c0c	6cd7	637	637	0.109	0.102	0.076	0.087
6c0c	6cd7	638	638	0.04	0.043	0.037	0.068
6c0c	6cd7	639	639	0.047	0.144	0.06	0.071
6c0c	6cd7	640	640	0.043	0.092	0.043	0.082
6c0c	6cd7	641	641	0.098	0.086	0.078	0.063
6c0c	6cd7	642	642	0.128	0.059	0.113	0.1
6c0c	6cd7	643	643	0.0	0.0	0.0	0.0
6c0c	6cd7	644	644	0.0	0.0	0.0	0.0
6c0c	6cd7	645	645	0.133	0.291	0.133	0.291
6c0c	6cd7	646	646	0.0	0.0	0.0	0.025
6c0c	6cd7	647	647	0.0	0.0	0.0	0.0
6c0c	6cd7	648	648	0.0	0.0	0.0	0.0
6c0c	6cd7	649	649	0.871	0.8	0.871	0.8
6c0c	6cd7	650	650	0.088	0.09	0.132	0.135
6c0c	6cd7	651	651	0.113	0.107	0.077	0.066
6c0c	6cd7	652	652	0.201	0.159	0.222	0.177
6c0c	6cd7	653	653	0.0	0.0	0.0	0.0
6c0c	6cd7	654	654	0.0	0.0	0.0	0.0
6c0c	6cd7	655	655	0.868	0.793	0.845	0.759
6c0c	6cd7	656	656	0.464	0.423	0.461	0.351
6c0c	6cd7	657	657	0.551	0.598	0.566	0.619
6c0c	6cd7	658	658	0.931	0.708	0.931	0.708
6c0c	6cd7	659	659	0.791	0.903	0.791	0.903
6c0c	6cd7	660	660	0.064	0.064	0.061	0.056
6c0c	6cd7	661	661	0.105	0.081	0.094	0.049
6c0c	6cd7	662	662	0.275	0.281	0.209	0.225
6c0c	6cd7	663	663	0.432	0.478	0.432	0.42
6c0c	6cd7	664	664	0.0	0.0	0.0	0.0
6c0c	6cd7	665	665	0.0	0.0	0.0	0.0
6c0c	6cd7	666	666	0.0	0.0	0.0	0.0
6c0c	6cd7	667	667	0.0	0.001	0.0	0.0
6c0c	6cd7	668	668	0.089	0.108	0.104	0.101
6c0c	6cd7	669	669	0.0	0.0	0.0	0.0
6c0c	6cd7	670	670	0.223	0.328	0.219	0.283
6c0c	6cd7	671	671	0.382	0.393	0.429	0.398
6c0c	6cd7	672	672	0.0	0.0	0.006	0.009
6c0c	6cd7	673	673	0.0	0.0	0.0	0.0
6c0c	6cd7	674	674	0.0	0.0	0.0	0.0
6c0c	6cd7	675	675	0.693	0.681	0.693	0.719
6c0c	6cd7	676	676	0.211	0.29	0.213	0.252
6c0c	6cd7	677	677	0.0	0.0	0.0	0.0
6c0c	6cd7	678	678	0.0	0.0	0.0	0.0
6c0c	6cd7	679	679	0.0	0.0	0.0	0.0
6c0c	6cd7	680	680	0.096	0.095	0.051	0.051
6c0c	6cd7	681	681	0.434	0.442	0.346	0.337
6c0c	6cd7	682	682	0.247	0.106	0.243	0.108
6c0c	6cd7	683	683	0.767	0.649	0.767	0.649
6c0c	6cd7	684	684	0.308	0.515	0.32	0.281
6c0c	6cd7	685	685	0.608	0.531	0.587	0.666
6c0c	6cd7	686	686	0.682	0.643	0.673	0.6
6c0c	6cd7	687	687	0.537	0.518	0.53	0.573
6c0c	6cd7	688	688	0.032	0.035	0.051	0.066
6c0c	6cd7	689	689	0.234	0.296	0.224	0.33
6c0c	6cd7	690	690	0.0	0.03	0.0	0.033
6c0c	6cd7	691	691	0.613	0.548	0.568	0.489
6c0c	6cd7	692	692	0.28	0.28	0.284	0.378
6c0c	6cd7	693	693	0.347	0.156	0.373	0.359
6c0c	6cd7	694	694	0.713	0.84	0.753	0.93
6c0c	6cd7	695	695	0.844	0.848	0.844	0.848
6c0c	6cd7	696	696	0.555	0.625	0.555	0.625
6c0c	6cd7	697	697	0.7	0.756	0.679	0.741
6c0c	6cd7	698	698	0.77	0.83	0.789	0.813
6c0c	6cd7	699	699	0.632	0.63	0.632	0.63
6c0c	6cd7	700	700	0.174	0.277	0.198	0.277
6c0c	6cd7	701	701	0.0	0.0	0.0	0.002
6c0c	6cd7	702	702	0.038	0.071	0.03	0.056
6c0c	6cd7	703	703	0.428	0.321	0.46	0.24
6c0c	6cd7	704	704	0.704	0.501	0.692	0.449
6c0c	6cd7	705	705	0.666	0.573	0.691	0.485
6c0c	6cd7	706	706	0.621	0.645	0.621	0.645
6c0c	6cd7	707	707	0.673	0.723	0.673	0.723
6c0c	6cd7	708	708	0.622	0.734	0.63	0.744
6c0c	6cd7	709	709	0.835	0.745	0.835	0.745
6c0c	6cd7	710	710	0.437	0.45	0.437	0.45
6c0c	6cd7	711	711	0.707	0.719	0.707	0.719
6c0c	6cd7	712	712	0.764	0.45	0.764	0.45
6c0c	6cd7	713	713	0.422	0.324	0.401	0.32
6c0c	6cd7	714	714	0.563	0.536	0.594	0.601
6c0c	6cd7	715	715	0.752	0.652	0.752	0.652
6c0c	6cd7	716	716	0.867	0.873	0.867	0.873
6c0c	6cd7	717	717	0.467	0.433	0.467	0.433
6c0c	6cd7	718	718	0.0	0.0	0.0	0.0
6c0c	6cd7	719	719	0.02	0.048	0.019	0.035
6c0c	6cd7	720	720	0.041	0.059	0.039	0.122
6c0c	6cd7	721	721	0.216	0.189	0.219	0.185
6c0c	6cd7	722	722	0.027	0.124	0.069	0.154
6c0c	6cd7	723	723	0.825	0.782	0.851	0.726
6c0c	6cd7	724	724	0.089	0.111	0.129	0.125
6c0c	6cd7	725	725	0.0	0.001	0.0	0.009
6c0c	6cd7	726	726	0.486	0.494	0.544	0.555
6c0c	6cd7	727	727	0.204	0.397	0.181	0.19
6c0c	6cd7	728	728	0.344	0.335	0.381	0.37
6c0c	6cd7	729	729	0.545	0.5	0.545	0.5
6c0c	6cd7	730	730	0.471	0.69	0.475	0.638
6c0c	6cd7	731	731	0.627	0.712	0.654	0.759
6c0c	6cd7	732	732	0.81	0.833	0.837	0.805
6c0c	6cd7	733	733	0.748	0.81	0.751	0.742
6c0c	6cd7	734	734	0.914	0.914	0.914	0.914
6c0c	6cd7	735	735	0.833	0.833	0.833	0.833
6c0c	6cd7	736	736	0.265	0.681	0.227	0.443
6c0c	6cd7	737	737	0.813	0.696	0.813	0.696
6c0c	6cd7	738	738	0.183	0.223	0.189	0.241
6c0c	6cd7	739	739	0.113	0.076	0.087	0.066
6c0c	6cd7	740	740	0.711	0.892	0.709	0.934
6c0c	6cd7	741	741	0.883	0.764	0.883	0.764
6c0c	6cd7	742	742	0.414	0.46	0.468	0.514
6c0c	6cd7	743	743	0.705	0.716	0.705	0.716
6c0c	6cd7	744	744	0.826	0.868	0.826	0.868
6c0c	6cd7	745	745	0.344	0.373	0.344	0.373
6c0c	6cd7	746	746	0.938	0.971	0.938	0.971
6c0c	6cd7	747	747	0.768	0.708	0.765	0.705
6c0c	6cd7	748	748	0.036	0.135	0.06	0.054
6c0c	6cd7	749	749	0.776	0.776	0.776	0.776
6c0c	6cd7	750	750	0.0	0.0	0.0	0.0
6c0c	6cd7	751	751	0.178	0.166	0.205	0.248
6c0c	6cd7	752	752	0.0	0.002	0.0	0.001
6c0c	6cd7	753	753	0.159	0.146	0.173	0.16
6c0c	6cd7	754	754	0.471	0.735	0.429	0.564
6c0c	6cd7	755	755	0.323	0.303	0.347	0.318
6c0c	6cd7	756	756	0.0	0.0	0.0	0.0
6c0c	6cd7	757	757	0.0	0.0	0.0	0.0
6c0c	6cd7	758	758	0.369	0.437	0.396	0.476
6c0c	6cd7	759	759	0.276	0.296	0.27	0.332
6c0c	6cd7	760	760	0.273	0.159	0.245	0.143
6c0c	6cd7	761	761	0.502	0.447	0.514	0.461
6c0c	6cd7	762	762	0.038	0.052	0.05	0.094
6c0c	6cd7	763	763	0.0	0.0	0.0	0.0
6c0c	6cd7	764	764	0.64	0.669	0.64	0.669
6c0c	6cd7	765	765	0.079	0.087	0.087	0.115
6c0c	6cd7	766	766	0.142	0.177	0.141	0.174
6c0c	6cd7	767	767	0.67	0.604	0.708	0.49
6c0c	6cd7	768	768	0.214	0.285	0.203	0.24
6c0c	6cd7	769	769	0.844	0.701	0.812	0.664
6c0c	6cd7	770	770	0.063	0.065	0.052	0.066
6c0c	6cd7	771	771	0.1	0.127	0.039	0.042
6c0c	6cd7	772	772	0.088	0.133	0.093	0.115
6c0c	6cd7	773	773	0.117	0.28	0.105	0.128
6c0c	6cd7	774	774	0.681	0.737	0.748	0.754
6c0c	6cd7	775	775	0.267	0.297	0.271	0.262
6c0c	6cd7	776	776	0.0	0.002	0.0	0.001
6c0c	6cd7	777	777	0.15	0.2	0.117	0.077
6c0c	6cd7	778	778	0.17	0.259	0.117	0.091
6c0c	6cd7	779	779	0.098	0.075	0.067	0.08
6c0c	6cd7	780	780	0.015	0.012	0.006	0.001
6c0c	6cd7	781	781	0.797	0.89	0.868	0.944
6c0c	6cd7	782	782	0.717	0.947	0.702	0.649
6c0c	6cd7	783	783	0.013	0.01	0.013	0.01
6c0c	6cd7	784	784	0.033	0.048	0.023	0.018
6c0c	6cd7	785	785	0.505	0.364	0.485	0.362
6c0c	6cd7	786	786	0.019	0.032	0.052	0.058
6c0c	6cd7	787	787	0.0	0.001	0.0	0.007
6c0c	6cd7	788	788	0.102	0.059	0.068	0.05
6c0c	6cd7	789	789	0.0	0.0	0.0	0.0
6c0c	6cd7	790	790	0.122	0.135	0.098	0.159
6c0c	6cd7	791	791	0.041	0.096	0.049	0.08
6c0c	6cd7	792	792	0.791	0.719	0.791	0.719
6c0c	6cd7	793	793	0.176	0.109	0.178	0.111
6c0c	6cd7	794	794	0.159	0.157	0.162	0.155
6c0c	6cd7	795	795	0.437	0.542	0.456	0.488
6c0c	6cd7	796	796	0.0	0.0	0.0	0.0
6c0c	6cd7	797	797	0.286	0.327	0.246	0.254
6c0c	6cd7	798	798	0.144	0.188	0.103	0.139
6c0c	6cd7	799	799	0.405	0.408	0.402	0.405
6c0c	6cd7	800	800	0.241	0.208	0.246	0.322
6c0c	6cd7	801	801	0.246	0.248	0.28	0.265
6c0c	6cd7	802	802	0.145	0.144	0.112	0.108
6c0c	6cd7	803	803	0.0	0.042	0.009	0.173
6c0c	6cd7	804	804	0.037	0.074	0.032	0.052
6c0c	6cd7	805	805	0.322	0.391	0.323	0.397
6c0c	6cd7	806	806	0.0	0.015	0.0	0.015
6c0c	6cd7	807	807	0.267	0.267	0.267	0.267
6c0c	6cd7	808	808	0.507	0.526	0.523	0.532
6c0c	6cd7	809	809	0.665	0.604	0.678	0.717
6c0c	6cd7	810	810	0.389	0.438	0.4	0.524
6c0c	6cd7	811	811	0.86	0.82	0.86	0.82
6c0c	6cd7	812	812	0.838	0.859	0.824	0.567
6c0c	6cd7	813	813	0.448	0.449	0.486	0.796
6c0c	6cd7	814	814	0.868	0.79	0.828	0.697
6c0c	6cd7	815	815	0.791	0.818	0.791	0.818
6c0c	6cd7	816	816	0.864	0.781	0.88	0.845
6c0c	6cd7	817	817	0.662	0.544	0.594	0.575
6c0c	6cd7	818	818	0.814	0.724	0.814	0.848
6c0c	6cd7	819	819	0.701	0.903	0.681	0.723
6c0c	6cd7	820	820	0.117	0.171	0.09	0.149
6c0c	6cd7	821	821	0.0	0.0	0.0	0.0
6c0c	6cd7	822	822	0.061	0.096	0.059	0.128
6c0c	6cd7	823	823	0.207	0.365	0.212	0.206
6c0c	6cd7	824	824	0.172	0.208	0.115	0.176
6c0c	6cd7	825	825	0.438	0.45	0.419	0.422
6c0c	6cd7	826	826	0.577	0.637	0.616	0.761
6c0c	6cd7	827	827	0.919	0.899	0.922	0.739
6c0c	6cd7	828	828	0.471	0.49	0.471	0.49
6c0c	6cd7	829	829	0.848	0.47	0.884	0.775
6c0c	6cd7	830	830	0.661	0.696	0.661	0.696
6c0c	6cd7	831	831	0.648	0.656	0.648	0.656
6c0c	6cd7	832	832	0.789	0.853	0.778	0.91
6c0c	6cd7	833	833	0.56	0.536	0.56	0.536
6c0c	6cd7	834	834	0.64	0.621	0.64	0.621
6c0c	6cd7	835	835	0.425	0.392	0.333	0.264
6c0c	6cd7	836	836	0.885	0.95	0.912	0.742
6c0c	6cd7	837	837	0.626	0.703	0.589	0.681
6c0c	6cd7	838	838	0.58	0.576	0.479	0.399
6c0c	6cd7	839	839	0.388	0.647	0.362	0.485
6c0c	6cd7	840	840	0.886	1.0	0.917	0.9
6c0c	6cd7	841	841	0.633	0.544	0.662	0.633
6c0c	6cd7	842	842	0.0	0.049	0.0	0.04
6c0c	6cd7	843	843	0.826	0.826	0.827	0.826
6c0c	6cd7	844	844	0.165	0.184	0.069	0.097
6c0c	6cd7	845	845	0.136	0.174	0.128	0.104
6c0c	6cd7	846	846	0.0	0.0	0.0	0.0
6c0c	6cd7	847	847	0.19	0.356	0.172	0.162
6c0c	6cd7	848	848	0.237	0.176	0.244	0.235
6c0c	6cd7	849	849	0.28	0.297	0.19	0.198
6c0c	6cd7	850	850	0.289	0.346	0.266	0.264
6c0c	6cd7	851	851	0.114	0.304	0.133	0.114
6c0c	6cd7	852	852	0.196	0.171	0.18	0.152
6c0c	6cd7	853	853	0.0	0.0	0.0	0.0
6c0c	6cd7	854	854	0.457	0.552	0.374	0.435
6c0c	6cd7	855	855	0.083	0.121	0.042	0.047
6c0c	6cd7	856	856	0.262	0.354	0.312	0.452
6c0c	6cd7	857	857	0.364	0.445	0.362	0.444
6c0c	6cd7	858	858	0.4	0.407	0.354	0.394
6c0c	6cd7	859	859	0.022	0.054	0.023	0.059
6c0c	6cd7	860	860	0.811	0.822	0.811	0.822
6c0c	6cd7	861	861	0.598	0.685	0.617	0.793
6c0c	6cd7	862	862	0.445	0.672	0.458	0.519
6c0c	6cd7	863	863	0.499	0.608	0.482	0.557
6c0c	6cd7	864	864	0.163	0.224	0.151	0.204
6c0c	6cd7	865	865	0.185	0.271	0.163	0.223
6c0c	6cd7	866	866	0.41	0.357	0.486	0.416
6c0c	6cd7	867	867	0.531	0.353	0.536	0.263
6c0c	6cd7	868	868	0.359	0.488	0.352	0.444
6c0c	6cd7	869	869	0.407	0.582	0.372	0.525
6c0c	6cd7	870	870	0.531	0.733	0.499	0.564
6c0c	6cd7	871	871	0.062	0.059	0.09	0.089
6c0c	6cd7	872	872	0.474	0.497	0.463	0.468
6c0c	6cd7	873	873	0.126	0.196	0.118	0.165
6c0c	6cd7	874	874	0.131	0.134	0.148	0.146
6c0c	6cd7	875	875	0.447	0.458	0.439	0.553
6c0c	6cd7	876	876	0.356	0.671	0.353	0.566
6c0c	6cd7	877	877	0.471	0.43	0.472	0.634
6c0c	6cd7	878	878	0.496	0.588	0.514	0.62
6c0c	6cd7	879	879	0.748	0.654	0.758	0.737
6c0c	6cd7	880	880	0.516	0.527	0.548	0.554
6c0c	6cd7	881	881	0.72	0.657	0.755	0.75
6c0c	6cd7	882	882	0.491	0.584	0.503	0.603
6c0c	6cd7	883	883	0.614	0.609	0.605	0.417
6c0c	6cd7	884	884	0.034	0.035	0.034	0.058
6c0c	6cd7	885	885	0.751	0.771	0.758	0.575
6c0c	6cd7	886	886	0.679	0.651	0.672	0.634
6c0c	6cd7	887	887	0.831	0.912	0.831	0.912
6c0c	6cd7	888	888	0.0	0.0	0.0	0.0
6c0c	6cd7	889	889	0.381	0.552	0.385	0.419
6c0c	6cd7	890	890	0.343	0.396	0.308	0.288
6c0c	6cd7	891	891	0.523	0.409	0.513	0.81
6c0c	6cd7	892	892	0.0	0.0	0.0	0.0
6c0c	6cd7	893	893	0.465	0.559	0.5	0.487
6c0c	6cd7	894	894	0.069	0.197	0.084	0.22
6c0c	6cd7	895	895	0.029	0.028	0.01	0.029
6c0c	6cd7	896	896	0.127	0.156	0.099	0.133
6c0c	6cd7	897	897	0.52	0.635	0.588	0.402
6c0c	6cd7	898	898	0.427	0.458	0.436	0.453
6c0c	6cd7	899	899	0.036	0.038	0.022	0.021
6c0c	6cd7	900	900	0.17	0.21	0.17	0.21
6c0c	6cd7	901	901	0.483	0.574	0.483	0.574
6c0c	6cd7	902	902	0.129	0.116	0.135	0.111
6c0c	6cd7	903	903	0.0	0.0	0.0	0.0
6c0c	6cd7	904	904	0.0	0.0	0.0	0.0
6c0c	6cd7	905	905	0.232	0.272	0.225	0.187
6c0c	6cd7	906	906	0.625	0.341	0.665	0.746
6c0c	6cd7	907	907	0.179	0.117	0.167	0.112
6c0c	6cd7	908	908	0.053	0.111	0.062	0.095
6c0c	6cd7	909	909	0.0	0.015	0.001	0.019
6c0c	6cd7	910	910	0.168	0.177	0.168	0.243
6c0c	6cd7	911	911	0.399	0.501	0.401	0.431
6c0c	6cd7	912	912	0.218	0.383	0.204	0.346
6c0c	6cd7	913	913	0.0	0.0	0.0	0.0
6c0c	6cd7	914	914	0.0	0.0	0.0	0.0
6c0c	6cd7	915	915	0.0	0.0	0.0	0.0
6c0c	6cd7	916	916	0.364	0.423	0.358	0.505
6c0c	6cd7	917	917	0.655	0.669	0.655	0.669
6c0c	6cd7	918	918	0.182	0.188	0.169	0.16
6c0c	6cd7	919	919	0.0	0.0	0.0	0.0
6c0c	6cd7	920	920	0.454	0.471	0.454	0.471
6c0c	6cd7	921	921	0.452	0.455	0.444	0.45
6c0c	6cd7	922	922	0.588	0.572	0.588	0.572
6c0c	6cd7	923	923	0.379	0.265	0.402	0.461
6c0c	6cd7	924	924	0.302	0.421	0.305	0.337
6c0c	6cd7	925	925	0.738	0.73	0.766	0.838
6c0c	6cd7	926	926	1.0	0	1.0	0
6c0c	6cd7	927	927	0.086	0.242	0.075	0.148
6c0c	6cd7	928	928	0.0	0.056	0.0	0.045
6c0c	6cd7	929	929	0.0	0.022	0.0	0.054
6c0c	6cd7	930	930	0.05	0.153	0.059	0.206
6c0c	6cd7	931	931	0.117	0.186	0.127	0.195
6c0c	6cd7	932	932	0.0	0.038	0.0	0.038
6c0c	6cd7	933	933	0.337	0.304	0.327	0.329
6c0c	6cd7	934	934	0.87	0.886	0.87	0.886
6c0c	6cd7	935	935	0.463	0.239	0.425	0.373
6c0c	6cd7	936	936	0.2	0.266	0.204	0.172
6c0c	6cd7	937	937	0.0	0.129	0.0	0.005
6c0c	6cd7	938	938	0.0	0.016	0.0	0.058
6c0c	6cd7	939	939	0.16	0.282	0.132	0.195
6c0c	6cd7	940	940	0.0	0.003	0.0	0.001
6c0c	6cd7	941	941	0.188	0.187	0.227	0.241
6c0c	6cd7	942	942	0.832	0.806	0.819	0.885
6c0c	6cd7	943	943	0.144	0.16	0.144	0.16
6c0c	6cd7	944	944	0.247	0.311	0.336	0.438
6c0c	6cd7	945	945	0.057	0.072	0.091	0.097
6c0c	6cd7	946	946	0.093	0.169	0.096	0.056
6c0c	6cd7	947	947	0.14	0.144	0.116	0.065
6c0c	6cd7	948	948	0.434	0.47	0.378	0.358
6c0c	6cd7	949	949	0.013	0.013	0.013	0.013
6c0c	6cd7	950	950	0.0	0.0	0.006	0.01
6c0c	6cd7	951	951	0.809	0.974	0.809	0.974
6c0c	6cd7	952	952	0.074	0.127	0.074	0.127
6c0c	6cd7	953	953	0.411	0.497	0.392	0.496
6c0c	6cd7	954	954	0.163	0.137	0.153	0.135
6c0c	6cd7	955	955	0.207	0.249	0.196	0.428
6c0c	6cd7	956	956	0.82	0.763	0.806	0.804
6c0c	6cd7	957	957	0.653	0.631	0.653	0.631
6c0c	6cd7	958	958	0.2	0.195	0.195	0.202
6c0c	6cd7	959	959	0.0	0.0	0.0	0.0
6c0c	6cd7	960	960	0.083	0.072	0.082	0.171
6c0c	6cd7	961	961	0.339	0.308	0.339	0.308
6c0c	6cd7	962	962	0.674	0.604	0.665	0.911
6c0c	6cd7	963	963	0.014	0.013	0.026	0.026
6c0c	6cd7	964	964	0.614	0.489	0.559	0.663
6c0c	6cd7	965	965	0.377	0.424	0.377	0.496
6c0c	6cd7	966	966	0.476	0.49	0.523	0.534
6c0c	6cd7	967	967	0.14	0.183	0.179	0.198
6c0c	6cd7	968	968	0.0	0.0	0.0	0.0
6c0c	6cd7	969	969	0.0	0.0	0.0	0.0
6c0c	6cd7	970	970	0.139	0.121	0.112	0.148
6c0c	6cd7	971	971	0.099	0.186	0.12	0.093
6c0c	6cd7	972	972	0.229	0.24	0.236	0.247
6c0c	6cd7	973	973	0.0	0.0	0.0	0.0
6c0c	6cd7	974	974	0.27	0.268	0.27	0.268
6c0c	6cd7	975	975	0.817	0.875	0.817	0.875
6c0c	6cd7	976	976	0.658	0.803	0.664	0.769
6c0c	6cd7	977	977	0.0	0.0	0.0	0.0
6c0c	6cd7	978	978	0.258	0.214	0.313	0.285
6c0c	6cd7	979	979	0.295	0.257	0.352	0.461
6c0c	6cd7	980	980	0.83	0.899	0.833	0.867
6c0c	6cd7	981	981	0.087	0.079	0.041	0.117
6c0c	6cd7	982	982	0.308	0.309	0.298	0.404
6c0c	6cd7	983	983	0.76	0.649	0.76	0.649
6c0c	6cd7	984	984	0.382	0.491	0.373	0.409
6c0c	6cd7	985	985	0.0	0.0	0.0	0.0
6c0c	6cd7	986	986	0.0	0.005	0.009	0.022
6c0c	6cd7	987	987	0.029	0.112	0.008	0.136
6c0c	6cd7	988	988	0.07	0.243	0.069	0.103
6c0c	6cd7	989	989	0.26	0.226	0.258	0.329
6c0c	6cd7	990	990	0.205	0.19	0.201	0.306
6c0c	6cd7	991	991	0.0	0.0	0.0	0.0
6c0c	6cd7	992	992	0.0	0.0	0.0	0.0
6c0c	6cd7	993	993	0.069	0.096	0.092	0.098
6c0c	6cd7	994	994	0.722	0.711	0.722	0.711
6c0c	6cd7	995	995	0.0	0.0	0.0	0.0
6c0c	6cd7	996	996	0.0	0.0	0.0	0.0
6c0c	6cd7	997	997	0.0	0.0	0.0	0.0
6c0c	6cd7	998	998	0.0	0.028	0.0	0.012
6c0c	6cd7	999	999	0.147	0.028	0.145	0.153
6c0c	6cd7	1000	1000	0.151	0.209	0.165	0.165
6c0c	6cd7	1001	1001	0.272	0.39	0.243	0.348
6c0c	6cd7	1002	1002	0.662	0.716	0.623	0.695
6c0c	6cd7	1003	1003	0.529	0.624	0.545	0.646
6c0c	6cd7	1004	1004	0.743	0.783	0.743	0.783
6c0c	6cd7	1005	1005	0.055	0.038	0.058	0.058
6c0c	6cd7	1006	1006	0.422	0.4	0.4	0.387
6c0c	6cd7	1007	1007	0.466	0.458	0.466	0.458
6c0c	6cd7	1008	1008	0.156	0.123	0.221	0.248
6c0c	6cd7	1009	1009	0.744	0.76	0.753	0.747
6c0c	6cd7	1010	1010	0.354	0.52	0.334	0.392
6c0c	6cd7	1011	1011	0.516	0.583	0.564	0.533
6c0c	6cd7	1012	1012	0.033	0.005	0.027	0.003
6c0c	6cd7	1013	1013	0.852	0.79	0.845	0.79
6c0c	6cd7	1014	1014	0.0	0.0	0.0	0.0
6c0c	6cd7	1015	1015	0.0	0.08	0.0	0.023
6c0c	6cd7	1016	1016	0.0	0.02	0.0	0.011
6c0c	6cd7	1017	1017	0.589	0.65	0.589	0.65
6c0c	6cd7	1018	1018	0.486	0.529	0.517	0.512
6c0c	6cd7	1019	1019	0.1	0.118	0.123	0.184
6c0c	6cd7	1020	1020	0.0	0.0	0.0	0.0
6c0c	6cd7	1021	1021	0.869	0.71	0.869	0.71
6c0c	6cd7	1022	1022	0.113	0.105	0.111	0.147
6c0c	6cd7	1023	1023	0.049	0.116	0.043	0.095
6c0c	6cd7	1024	1024	0.0	0.0	0.0	0.0
6c0c	6cd7	1025	1025	0.523	0.459	0.546	0.447
6c0c	6cd7	1026	1026	0.503	0.426	0.514	0.45
6c0c	6cd7	1027	1027	0.514	0.682	0.533	0.557
6c0c	6cd7	1028	1028	0.565	0.621	0.554	0.68
6c0c	6cd7	1029	1029	0.035	0.083	0.039	0.041
6c0c	6cd7	1030	1030	0.0	0.0	0.0	0.0
6c0c	6cd7	1031	1031	0.0	0.046	0.016	0.043
6c0c	6cd7	1032	1032	0.513	0.596	0.496	0.607
6c0c	6cd7	1033	1033	0.234	0.235	0.222	0.221
6c0c	6cd7	1034	1034	0.298	0.274	0.305	0.225
6c0c	6cd7	1035	1035	0.699	0.632	0.742	0.775
6c0c	6cd7	1036	1036	0.202	0.213	0.205	0.198
6c0c	6cd7	1037	1037	1.0	1.0	1.0	1.0
6c0c	6cd7	1038	1038	0.693	0.786	0.665	0.799
6c0c	6cd7	1039	1039	0.0	0.0	0.0	0.003
6c0c	6cd7	1040	1040	0.0	0.045	0.0	0.019
6c0c	6cd7	1041	1041	0.0	0.06	0.0	0.115
6c0c	6cd7	1042	1042	0.103	0.141	0.103	0.141
6c0c	6cd7	1043	1043	0.167	0.174	0.167	0.174
6c0c	6cd7	1044	1044	0.384	0.386	0.384	0.386
6c0c	6cd7	1045	1045	0.353	0.276	0.377	0.331
6c0c	6cd7	1046	1046	0.243	0.21	0.196	0.218
6c0c	6cd7	1047	1047	0.771	0.772	0.751	0.728
6c0c	6cd7	1048	1048	1.0	0	1.0	0
6c0c	6cd7	1049	1049	0.66	0.387	0.692	0.264
6c0c	6cd7	1050	1050	0.217	0.174	0.171	0.157
6c0c	6cd7	1051	1051	0.763	0.523	0.777	0.852
6c0c	6cd7	1052	1052	0.619	0.569	0.572	0.638
6c0c	6cd7	1053	1053	0.792	0.772	0.762	0.826
6c0c	6cd7	1054	1054	0.507	0.379	0.468	0.339
6c0c	6cd7	1055	1055	0.711	0.753	0.698	0.895
6c0c	6cd7	1056	1056	0.704	0.655	0.704	0.655
6c0c	6cd7	1057	1057	0.775	0.625	0.775	0.625
6c0c	6cd7	1058	1058	0.278	0.176	0.291	0.299
6c0c	6cd7	1059	1059	0.525	0.549	0.545	0.549
6c0c	6cd7	1060	1060	0.695	0.36	0.695	0.36
6c0c	6cd7	1061	1061	0.328	0.533	0.328	0.533
6c0c	6cd7	1062	1062	0.486	0.438	0.489	0.437
6c0c	6cd7	1063	1063	0.54	0.734	0.511	0.613
6c0c	6cd7	1064	1064	0.213	0.253	0.249	0.377
6c0c	6cd7	1065	1065	0.587	0.568	0.561	0.656
6c0c	6cd7	1066	1066	0.899	0.815	0.831	0.778
6c0c	6cd7	1067	1067	0.676	0.767	0.676	0.767
6c0c	6cd7	1068	1068	0.002	0.006	0.0	0.0
6c0c	6cd7	1069	1069	0.489	0.811	0.492	0.216
6c0c	6cd7	1070	1070	0.059	0.071	0.058	0.073
6c0c	6cd7	1071	1071	0.867	0.947	0.867	0.947
6c0c	6cd7	1072	1072	0.0	0.0	0.0	0.0
6c0c	6cd7	1073	1073	0.0	0.0	0.0	0.0
6c0c	6cd7	1074	1074	0.094	0.118	0.075	0.082
6c0c	6cd7	1075	1075	0.426	0.432	0.449	0.455
6c0c	6cd7	1076	1076	0.493	0.545	0.518	0.625
6c0c	6cd7	1077	1077	0.0	0.0	0.0	0.0
6c0c	6cd7	1078	1078	0.0	0.001	0.0	0.0
6c0c	6cd7	1079	1079	0.223	0.125	0.195	0.229
6c0c	6cd7	1080	1080	0.466	0.577	0.494	0.513
6c0c	6cd7	1081	1081	0.0	0.0	0.0	0.0
6c0c	6cd7	1082	1082	0.0	0.0	0.0	0.0
6c0c	6cd7	1083	1083	0.453	0.253	0.489	0.27
6c0c	6cd7	1084	1084	0.541	0.417	0.528	0.698
6c0c	6cd7	1085	1085	0.644	0.682	0.644	0.682
6c0c	6cd7	1086	1086	0.0	0.0	0.026	0.027
6c0c	6cd7	1087	1087	0.164	0.168	0.263	0.263
6c0c	6cd7	1088	1088	0.255	0.263	0.212	0.221
6c0c	6cd7	1089	1089	0.645	0.646	0.707	0.671
6c0c	6cd7	1090	1090	0.238	0.339	0.217	0.291
6c0c	6cd7	1091	1091	0.435	0.431	0.464	0.504
6c0c	6cd7	1092	1092	0.548	0.482	0.601	0.64
6c0c	6cd7	1093	1093	0.0	0.0	0.0	0.0
6c0c	6cd7	1094	1094	0.143	0.279	0.119	0.124
6c0c	6cd7	1095	1095	0.024	0.031	0.033	0.108
6c0c	6cd7	1096	1096	0.148	0.355	0.14	0.228
6c0c	6cd7	1097	1097	0.0	0.105	0.001	0.057
6c0c	6cd7	1098	1098	0.0	0.0	0.0	0.0
6c0c	6cd7	1099	1099	0.0	0.0	0.0	0.0
6c0c	6cd7	1100	1100	0.397	0.406	0.4	0.474
6c0c	6cd7	1101	1101	0.561	0.605	0.561	0.605
6c0c	6cd7	1102	1102	0.924	0.57	0.879	0.443
6c0c	6cd7	1106	1106	0.577	0.299	0.508	0.407
6c0c	6cd7	1107	1107	0.499	0.18	0.403	0.142
6c0c	6cd7	1108	1108	0.964	0.591	1.0	0.467
6c0c	6cd7	1109	1109	0.612	0.51	0.555	0.597
6c0c	6cd7	1110	1110	0.891	0.552	0.869	0.996
6c0c	6cd7	1111	1111	0.0	0.004	0.0	0.0
6c0c	6cd7	1112	1112	0.763	0.797	0.766	0.802
6c0c	6cd7	1113	1113	0.768	0.801	0.769	0.814
6c0c	6cd7	1114	1114	0.736	0.53	0.736	0.53
6c0c	6cd7	1115	1115	0.324	0.331	0.295	0.43
6c0c	6cd7	1116	1116	0.368	0.399	0.383	0.532
6c0c	6cd7	1117	1117	0.378	0.496	0.411	0.332
6c0c	6cd7	1118	1118	0.96	0.6	0.96	0.6
6c0c	6cd7	1119	1119	0.0	0.0	0.0	0.0
6c0c	6cd7	1120	1120	0.794	0.809	0.792	0.82
6c0c	6cd7	1121	1121	0.909	0.766	0.909	0.766
6c0c	6cd7	1122	1122	0.537	0.512	0.579	0.545
6c0c	6cd7	1123	1123	0.095	0.112	0.07	0.193
6c0c	6cd7	1124	1124	0.595	0.694	0.647	0.733
6c0c	6cd7	1125	1125	0.572	0.636	0.489	0.551
6c0c	6cd7	1126	1126	0.75	0.525	0.75	0.525
6c0c	6cd7	1127	1127	0.112	0.121	0.06	0.031
6c0c	6cd7	1128	1128	0.007	0.011	0.01	0.011
6c0c	6cd7	1129	1129	0.0	0.0	0.0	0.0
6c0c	6cd7	1130	1130	0.0	0.0	0.0	0.0
6c0c	6cd7	1131	1131	0.716	0.755	0.686	0.538
6c0c	6cd7	1132	1132	0.9	1.0	1.0	0
6c0c	6cd7	1133	1133	0.977	0.677	0.975	0.954
6c0c	6cd7	1134	1134	0.319	0.328	0.191	0.177
6c0c	6cd7	1135	1135	0.271	0.283	0.258	0.253
6c0c	6cd7	1136	1136	0.023	0.023	0.0	0.0
6c0c	6cd7	1137	1137	0.039	0.037	0.102	0.109
6c0c	6cd7	1138	1138	0.206	0.203	0.22	0.245
6c0c	6cd7	1139	1139	0.713	0.703	0.713	0.703
6c0c	6cd7	1140	1140	0.0	0.0	0.0	0.0
6c0c	6cd7	1141	1141	0.167	0.166	0.125	0.126
6c0c	6cd7	1142	1142	0.0	0.006	0.0	0.007
6c0c	6cd7	1143	1143	0.158	0.199	0.145	0.199
6c0c	6cd7	1144	1144	0.659	0.657	0.633	0.639
6c0c	6cd7	1145	1145	0.017	0.027	0.036	0.023
6c0c	6cd7	1146	1146	0.0	0.001	0.0	0.001
6c0c	6cd7	1147	1147	0.117	0.089	0.156	0.063
6c0c	6cd7	1148	1148	0.121	0.06	0.109	0.092
6c0c	6cd7	1149	1149	0.312	0.318	0.238	0.238
6c0c	6cd7	1150	1150	0.0	0.0	0.0	0.002
6c0c	6cd7	1151	1151	0.0	0.016	0.0	0.007
6c0c	6cd7	1152	1152	0.168	0.185	0.145	0.097
6c0c	6cd7	1153	1153	0.127	0.111	0.143	0.147
6c0c	6cd7	1154	1154	0.122	0.172	0.109	0.176
6c0c	6cd7	1155	1155	0.208	0.22	0.283	0.264
6c0c	6cd7	1156	1156	0.382	0.516	0.382	0.516
6c0c	6cd7	1157	1157	0.0	0.0	0.0	0.0
6c0c	6cd7	1158	1158	0.0	0.0	0.0	0.0
6c0c	6cd7	1159	1159	0.0	0.0	0.0	0.009
6c0c	6cd7	1160	1160	0.369	0.368	0.339	0.449
6c0c	6cd7	1161	1161	0.049	0.143	0.046	0.106
6c0c	6cd7	1162	1162	0.25	0.447	0.266	0.494
6c0c	6cd7	1163	1163	0.251	0.201	0.242	0.169
6c0c	6cd7	1164	1164	0.556	0.484	0.56	0.59
6c0c	6cd7	1165	1165	0.877	0.93	0.89	0.936
6c0c	6cd7	1166	1166	0.03	0.026	0.015	0.015
6c0c	6cd7	1167	1167	0.032	0.013	0.058	0.017
6c0c	6cd7	1168	1168	0.181	0.222	0.226	0.237
6c0c	6cd7	1169	1169	0.824	0.748	0.824	0.748
6c0c	6cd7	1170	1170	0.0	0.0	0.0	0.0
6c0c	6cd7	1171	1171	0.587	0.499	0.587	0.499
6c0c	6cd7	1172	1172	0.149	0.206	0.137	0.166
6c0c	6cd7	1173	1173	0.579	0.678	0.571	0.74
6c0c	6cd7	1174	1174	0.136	0.324	0.115	0.178
6c0c	6cd7	1175	1175	0.0	0.0	0.0	0.0
6c0c	6cd7	1176	1176	0.411	0.43	0.364	0.376
6c0c	6cd7	1177	1177	0.652	0.498	0.652	0.498
6c0c	6cd7	1178	1178	0.725	0.738	0.725	0.738
6c0c	6cd7	1179	1179	0.49	0.497	0.457	0.408
6c0c	6cd7	1180	1180	0.734	0.727	0.745	0.722
6c0c	6cd7	1181	1181	0.532	0.597	0.542	0.527
6c0c	6cd7	1182	1182	0.466	0.467	0.56	0.552
6c0c	6cd7	1183	1183	0.037	0.029	0.042	0.021
6c0c	6cd7	1184	1184	0.567	0.664	0.579	0.512
6c0c	6cd7	1185	1185	0.822	0.844	0.822	0.844
6c0c	6cd7	1186	1186	0.0	0.0	0.0	0.0
6c0c	6cd7	1187	1187	0.452	0.598	0.477	0.575
6c0c	6cd7	1188	1188	0.067	0.113	0.09	0.095
6c0c	6cd7	1189	1189	0.749	0.915	0.754	0.816
6c0c	6cd7	1190	1190	0.0	0.0	0.0	0.0
6c0c	6cd7	1191	1191	0.166	0.194	0.149	0.195
6c0c	6cd7	1192	1192	0.038	0.047	0.019	0.022
6c0c	6cd7	1193	1193	0.582	0.474	0.551	0.436
6c0c	6cd7	1194	1194	0.163	0.215	0.187	0.245
6c0c	6cd7	1195	1195	0.019	0.029	0.024	0.02
6c0c	6cd7	1196	1196	0.186	0.199	0.186	0.199
6c0c	6cd7	1197	1197	0.219	0.22	0.219	0.22
6c0c	6cd7	1198	1198	0.0	0.0	0.0	0.0
6c0c	6cd7	1199	1199	0.539	0.561	0.53	0.513
6c0c	6cd7	1200	1200	0.46	0.546	0.445	0.474
6c0c	6cd7	1201	1201	0.1	0.195	0.1	0.148
6c0c	6cd7	1202	1202	0.093	0.056	0.095	0.092
6c0c	6cd7	1203	1203	0.034	0.057	0.031	0.04
6c0c	6cd7	1204	1204	0.412	0.289	0.412	0.289
6c0c	6cd7	1205	1205	0.292	0.281	0.31	0.459
6c0c	6cd7	1206	1206	0.265	0.347	0.293	0.355
6c0c	6cd7	1207	1207	0.207	0.129	0.185	0.092
6c0c	6cd7	1208	1208	0.449	0.441	0.444	0.49
6c0c	6cd7	1209	1209	0.18	0.245	0.22	0.312
6c0c	6cd7	1210	1210	0.145	0.168	0.164	0.172
6c0c	6cd7	1211	1211	0.061	0.076	0.075	0.096
6c0c	6cd7	1212	1212	0.274	0.315	0.286	0.257
6c0c	6cd7	1213	1213	0.158	0.122	0.127	0.085
6c0c	6cd7	1214	1214	0.266	0.374	0.303	0.372
6c0c	6cd7	1215	1215	0.521	0.648	0.506	0.433
6c0c	6cd7	1216	1216	0.578	0.61	0.569	0.572
6c0c	6cd7	1217	1217	0.305	0.313	0.303	0.435
6c0c	6cd7	1218	1218	0.27	0.452	0.26	0.33
6c0c	6cd7	1219	1219	0.616	0.649	0.615	0.757
6c0c	6cd7	1220	1220	0.736	0.772	0.718	0.751
6c0c	6cd7	1221	1221	0.729	0.773	0.729	0.773
6c0c	6cd7	1222	1222	0.854	0.777	0.817	0.786
6c0c	6cd7	1223	1223	0.443	0.484	0.443	0.484
6c0c	6cd7	1224	1224	0.573	0.58	0.573	0.58
6c0c	6cd7	1225	1225	0.216	0.254	0.198	0.222
6c0c	6cd7	1226	1226	0.867	0.758	0.836	0.692
6c0c	6cd7	1227	1227	0.8	0.922	0.8	0.922
6c0c	6cd7	1228	1228	0.294	0.308	0.341	0.29
6c0c	6cd7	1229	1229	0.759	0.788	0.747	0.895
6c0c	6cd7	1230	1230	0.609	0.814	0.635	0.69
6c0c	6cd7	1231	1231	0.324	0.376	0.322	0.416
6c0c	6cd7	1232	1232	0.305	0.476	0.31	0.463
6c0c	6cd7	1233	1233	0.502	0.528	0.502	0.528
6c0c	6cd7	1234	1234	0.112	0.06	0.1	0.091
6c0c	6cd7	1235	1235	0.267	0.322	0.257	0.234
6c0c	6cd7	1236	1236	0.454	0.425	0.454	0.425
6c0c	6cd7	1237	1237	0.478	0.498	0.481	0.492
6c0c	6cd7	1238	1238	0.321	0.413	0.331	0.424
6c0c	6cd7	1239	1239	0.713	0.843	0.726	0.835
6c0c	6cd7	1240	1240	0.664	0.795	0.694	0.8
6c0c	6cd7	1241	1241	0.572	0.757	0.513	0.394
6c0c	6cd7	1242	1242	0.568	0.697	0.581	0.731
6c0c	6cd7	1243	1243	0.247	0.274	0.289	0.344
6c0c	6cd7	1244	1244	0.555	0.631	0.555	0.631
6c0c	6cd7	1245	1245	0.146	0.145	0.097	0.071
6c0c	6cd7	1246	1246	0.369	0.478	0.333	0.38
6c0c	6cd7	1247	1247	0.388	0.249	0.381	0.085
6c0c	6cd7	1248	1248	0.213	0.312	0.207	0.281
6c0c	6cd7	1249	1249	0.069	0.069	0.095	0.13
6c0c	6cd7	1250	1250	0.182	0.121	0.173	0.173
6c0c	6cd7	1251	1251	0.0	0.001	0.0	0.001
6c0c	6cd7	1252	1252	0.381	0.403	0.395	0.493
6c0c	6cd7	1253	1253	0.082	0.259	0.091	0.147
6c0c	6cd7	1254	1254	0.775	0.786	0.731	0.767
6c0c	6cd7	1255	1255	0.828	0.911	0.818	0.935
6c0c	6cd7	1256	1256	0.528	0.541	0.54	0.599
6c0c	6cd7	1257	1257	0.248	0.148	0.233	0.231
6c0c	6cd7	1258	1258	0.576	0.529	0.541	0.491
6c0c	6cd7	1259	1259	0.37	0.564	0.384	0.437
6c0c	6cd7	1260	1260	0.489	0.327	0.468	0.304
6c0c	6cd7	1261	1261	0.157	0.163	0.13	0.124
6c0c	6cd7	1262	1262	0.521	0.507	0.482	0.56
6c0c	6cd7	1263	1263	0.754	0.802	0.743	0.802
6c0c	6cd7	1264	1264	0.559	0.657	0.571	0.674
6c0c	6cd7	1265	1265	0.804	0.717	0.77	0.772
6c0c	6cd7	1266	1266	0.832	0.813	0.832	0.813
6c0c	6cd7	1267	1267	0.043	0.045	0.072	0.074
6c0c	6cd7	1268	1268	0.371	0.336	0.342	0.318
6c0c	6cd7	1269	1269	0.024	0.076	0.029	0.069
6c0c	6cd7	1270	1270	0.559	0.552	0.523	0.544
6c0c	6cd7	1271	1271	0.329	0.542	0.257	0.345
6c0c	6cd7	1272	1272	0.379	0.406	0.419	0.427
6c0c	6cd7	1273	1273	0.485	0.576	0.495	0.491
6c0c	6cd7	1274	1274	0.712	0.819	0.723	0.691
6c0c	6cd7	1275	1275	0.303	0.362	0.315	0.446
6c0c	6cd7	1276	1276	0.0	0.008	0.0	0.006
6c0c	6cd7	1277	1277	0.0	0.0	0.0	0.0
6c0c	6cd7	1278	1278	0.026	0.071	0.026	0.071
6c0c	6cd7	1279	1279	0.101	0.088	0.101	0.088
6c0c	6cd7	1280	1280	0.0	0.008	0.0	0.008
6c0c	6cd7	1281	1281	0.89	0.934	0.89	0.934
6c0c	6cd7	1282	1282	0.664	0.677	0.664	0.677
6c0c	6cd7	1283	1283	0.233	0.405	0.221	0.367
6c0c	6cd7	1284	1284	1.0	0	1.0	0
6c0c	6cd7	1285	1285	0.22	0.24	0.22	0.24
6c0c	6cd7	1286	1286	0.661	0.242	0.661	0.242
6c0c	6cd7	1287	1287	0.374	0.368	0.352	0.594
6c0c	6cd7	1288	1288	0.295	0.428	0.273	0.232
6c0c	6cd7	1289	1289	0.32	0.298	0.271	0.313
6c0c	6cd7	1290	1290	0.188	0.163	0.178	0.204
6c0c	6cd7	1291	1291	0.807	0.759	0.811	0.775
6c0c	6cd7	1292	1292	0.687	0.882	0.676	0.866
6c0c	6cd7	1293	1293	0.0	0.0	0.0	0.0
6c0c	6cd7	1294	1294	0.461	0.558	0.448	0.523
6c0c	6cd7	1295	1295	0.596	0.624	0.612	0.647
6c0c	6cd7	1296	1296	0.798	0.773	0.814	0.801
6c0c	6cd7	1297	1297	0.389	0.635	0.381	0.624
6c0c	6cd7	1298	1298	0.731	0.652	0.667	0.596
6c0c	6cd7	1299	1299	0.769	0.816	0.719	0.848
6c0c	6cd7	1300	1300	0.0	0.27	0.0	0.166
6c0c	6cd7	1301	1301	0.0	0.0	0.0	0.0
6c0c	6cd7	1302	1302	0.559	0.721	0.593	0.786
6c0c	6cd7	1303	1303	0.383	0.53	0.383	0.43
6c0c	6cd7	1304	1304	0.0	0.001	0.0	0.0
6c0c	6cd7	1305	1305	0.233	0.248	0.209	0.243
6c0c	6cd7	1306	1306	0.198	0.253	0.198	0.253
6c0c	6cd7	1307	1307	0.0	0.014	0.0	0.028
6c0c	6cd7	1308	1308	0.0	0.0	0.0	0.0
6c0c	6cd7	1309	1309	0.269	0.254	0.288	0.256
6c0c	6cd7	1310	1310	0.164	0.161	0.172	0.218
6c0c	6cd7	1311	1311	0.0	0.0	0.0	0.0
6c0c	6cd7	1312	1312	0.0	0.0	0.0	0.0
6c0c	6cd7	1313	1313	0.082	0.123	0.068	0.046
6c0c	6cd7	1314	1314	0.113	0.165	0.137	0.267
6c0c	6cd7	1315	1315	0.813	0.62	0.841	0.748
6c0c	6cd7	1316	1316	0.0	0.0	0.0	0.0
6c0c	6cd7	1317	1317	0.193	0.25	0.174	0.234
6c0c	6cd7	1318	1318	0.9	0.7	0.9	0.7
6c0c	6cd7	1319	1319	0.0	0.0	0.0	0.0
6c0c	6cd7	1320	1320	0.024	0.03	0.041	0.046
6c0c	6cd7	1321	1321	0.561	0.533	0.561	0.533
6c0c	6cd7	1322	1322	0.473	0.45	0.378	0.386
6c0c	6cd7	1323	1323	0.278	0.362	0.244	0.246
6c0c	6cd7	1324	1324	0.525	0.719	0.528	0.702
6c0c	6cd7	1325	1325	0.374	0.392	0.355	0.333
6c0c	6cd7	1326	1326	0.132	0.094	0.168	0.063
6c0c	6cd7	1327	1327	0.0	0.0	0.0	0.0
6c0c	6cd7	1328	1328	0.558	0.607	0.538	0.631
6c0c	6cd7	1329	1329	0.108	0.067	0.084	0.045
6c0c	6cd7	1330	1330	0.25	0.222	0.263	0.243
6c0c	6cd7	1331	1331	0.586	0.741	0.532	0.691
6c0c	6cd7	1332	1332	0.655	0.712	0.655	0.712
6c0c	6cd7	1333	1333	0.0	0.0	0.0	0.0
6c0c	6cd7	1334	1334	0.0	0.0	0.0	0.0
6c0c	6cd7	1335	1335	0.0	0.001	0.0	0.011
6c0c	6cd7	1336	1336	0.073	0.138	0.092	0.137
6c0c	6cd7	1337	1337	0.622	0.588	0.6	0.653
6c0c	6cd7	1338	1338	0.0	0.0	0.0	0.0
6c0c	6cd7	1339	1339	0.0	0.0	0.0	0.0
6c0c	6cd7	1340	1340	0.0	0.022	0.009	0.068
6c0c	6cd7	1341	1341	0.687	0.813	0.687	0.813
6c0c	6cd7	1342	1342	0.233	0.38	0.228	0.368
6c0c	6cd7	1343	1343	0.0	0.0	0.0	0.0
6c0c	6cd7	1344	1344	0.0	0.0	0.0	0.0
6c0c	6cd7	1345	1345	0.0	0.003	0.0	0.006
6c0c	6cd7	1346	1346	0.056	0.079	0.055	0.061
6c0c	6cd7	1347	1347	0.156	0.181	0.122	0.117
6c0c	6cd7	1348	1348	0.191	0.254	0.15	0.227
6c0c	6cd7	1349	1349	0.014	0.036	0.0	0.0
6c0c	6cd7	1350	1350	0.0	0.0	0.0	0.0
6c0c	6cd7	1351	1351	0.0	0.065	0.0	0.014
6c0c	6cd7	1352	1352	0.8	1.0	0.8	1.0
6c0c	6cd7	1353	1353	0.503	0.556	0.513	0.614
6c0c	6cd7	1354	1354	0.0	0.024	0.007	0.03
6c0c	6cd7	1355	1355	0.26	0.124	0.284	0.271
6c0c	6cd7	1356	1356	0.068	0.116	0.057	0.078
6c0c	6cd7	1357	1357	0.109	0.113	0.088	0.092
6c0c	6cd7	1358	1358	0.303	0.395	0.235	0.259
6c0c	6cd7	1359	1359	0.846	0.896	0.846	0.896
6c0c	6cd7	1360	1360	0.077	0.113	0.078	0.145
6c0c	6cd7	1361	1361	0.821	0.76	0.87	0.819
6c0c	6cd7	1362	1362	0.917	0.748	0.917	0.748
6c0c	6cd7	1363	1363	0.005	0.003	0.041	0.036
6c0c	6cd7	1364	1364	0.0	0.0	0.0	0.0
6c0c	6cd7	1365	1365	0.0	0.0	0.0	0.0
6c0c	6cd7	1366	1366	0.108	0.144	0.124	0.145
6c0c	6cd7	1367	1367	0.358	0.437	0.378	0.371
6c0c	6cd7	1368	1368	0.029	0.036	0.029	0.041
6c0c	6cd7	1369	1369	0.215	0.214	0.147	0.146
6c0c	6cd7	1370	1370	0.0	0.012	0.0	0.001
6c0c	6cd7	1371	1371	0.178	0.299	0.167	0.199
6c0c	6cd7	1372	1372	0.394	0.577	0.315	0.372
6c0c	6cd7	1373	1373	0.214	0.272	0.2	0.39
6c0c	6cd7	1374	1374	0.723	0.537	0.723	0.537
6c0c	6cd7	1375	1375	0.849	0.87	0.832	0.851
6c0c	6cd7	1376	1376	0.052	0.048	0.052	0.048
6c0c	6cd7	1377	1377	0.203	0.256	0.214	0.257
6c0c	6cd7	1378	1378	0.156	0.265	0.161	0.268
6c0c	6cd7	1379	1379	0.291	0.433	0.322	0.388
6c0c	6cd7	1380	1380	0.724	0.78	0.75	0.943
6c0c	6cd7	1381	1381	0.711	0.733	0.711	0.733
6c0c	6cd7	1382	1382	0.67	0.752	0.67	0.752
6c0c	6cd7	1383	1383	0.523	0.526	0.56	0.559
6c0c	6cd7	1384	1384	0.369	0.304	0.381	0.34
6c0c	6cd7	1385	1385	0.156	0.249	0.135	0.225
6c0c	6cd7	1386	1386	0.912	0.875	0.912	0.875
6c0c	6cd7	1387	1387	0.791	0.765	0.803	0.811
6c0c	6cd7	1388	1388	0.077	0.12	0.115	0.182
6c0c	6cd7	1389	1389	0.649	0.458	0.649	0.458
6c0c	6cd7	1390	1390	0.778	0.743	0.778	0.743
6c0c	6cd7	1391	1391	0.0	0.0	0.0	0.0
6c0c	6cd7	1392	1392	0.604	0.626	0.648	0.687
6c0c	6cd7	1393	1393	0.448	0.4	0.452	0.631
6c0c	6cd7	1394	1394	0.499	0.47	0.479	0.607
6c0c	6cd7	1395	1395	0.0	0.0	0.0	0.0
6c0c	6cd7	1396	1396	0.243	0.304	0.278	0.269
6c0c	6cd7	1397	1397	0.496	0.478	0.475	0.461
6c0c	6cd7	1398	1398	0.085	0.172	0.087	0.13
6c0c	6cd7	1399	1399	0.08	0.152	0.09	0.211
6c0c	6cd7	1400	1400	0.415	0.421	0.415	0.421
6c0c	6cd7	1401	1401	1.0	0	1.0	0
6c0c	6cd7	1402	1402	0.486	0.485	0.486	0.474
6c0c	6cd7	1403	1403	0.7	0.0	0.7	0.0
6c0c	6cd7	1404	1404	0.108	0.128	0.101	0.123
6c0c	6cd7	1405	1405	0.198	0.218	0.198	0.218
6c0c	6cd7	1406	1406	0.668	0.468	0.692	0.468
6c0c	6cd7	1407	1407	0.487	0.532	0.518	0.49
6c0c	6cd7	1408	1408	0.726	0.699	0.726	0.699
6c0c	6cd7	1409	1409	0.287	0.412	0.277	0.425
6c0c	6cd7	1410	1410	0.267	0.263	0.267	0.263
6c0c	6cd7	1411	1411	0.814	0.881	0.817	0.857
6c0c	6cd7	1412	1412	0.482	0.351	0.442	0.62
6c0c	6cd7	1413	1413	0.774	0.526	0.774	0.526
6c0c	6cd7	1414	1414	0.295	0.23	0.298	0.362
6c0c	6cd7	1415	1415	0.213	0.197	0.182	0.166
6c0c	6cd7	1416	1416	0.912	0.867	0.915	0.895
6c0c	6cd7	1417	1417	0.8	1.0	0.8	1.0
6c0c	6cd7	1418	1418	0.834	0.944	0.834	0.944
6c0c	6cd7	1419	1419	0.047	0.114	0.088	0.063
6c0c	6cd7	1420	1420	0.44	0.508	0.44	0.508
6c0c	6cd7	1421	1421	0.242	0.245	0.242	0.24
6c0c	6cd7	1422	1422	0.238	0.306	0.205	0.27
6c0c	6cd7	1423	1423	0.493	0.547	0.568	0.527
6c0c	6cd7	1424	1424	0.696	0.742	0.679	0.828
6c0c	6cd7	1425	1425	0.767	0.889	0.772	0.669
6c0c	6cd7	1426	1426	1.0	0	1.0	0
6c0c	6cd7	1427	1427	0.608	0.659	0.663	0.739
6c0c	6cd7	1428	1428	0.636	0.739	0.614	0.641
6c0c	6cd7	1429	1429	0.0	0.013	0.005	0.031
6c0c	6cd7	1430	1430	0.0	0.0	0.0	0.0
6c0c	6cd7	1431	1431	0.277	0.274	0.333	0.452
6c0c	6cd7	1432	1432	0.571	0.508	0.572	0.626
6c0c	6cd7	1433	1433	0.238	0.233	0.218	0.322
6c0c	6cd7	1434	1434	0.114	0.143	0.114	0.143
6c0c	6cd7	1435	1435	0.633	0.853	0.604	0.573
6c0c	6cd7	1436	1436	0.455	0.371	0.461	0.67
6c0c	6cd7	1437	1437	0.153	0.18	0.196	0.283
6c0c	6cd7	1438	1438	0.229	0.219	0.211	0.212
6c0c	6cd7	1439	1439	0.348	0.365	0.355	0.39
6c0c	6cd7	1440	1440	0.879	0.779	0.9	0.738
6c0c	6cd7	1441	1441	0.853	0.842	0.88	0.848
6c0c	6cd7	1442	1442	0.535	0.56	0.557	0.645
6c0c	6cd7	1443	1443	0.784	0.656	0.772	0.588
6c0c	6cd7	1444	1444	0.408	0.352	0.418	0.565
6c0c	6cd7	1445	1445	0.313	0.326	0.294	0.279
6c0c	6cd7	1446	1446	0.736	0.917	0.69	0.885
6c0c	6cd7	1447	1447	0.282	0.286	0.284	0.337
6c0c	6cd7	1448	1448	0.518	0.437	0.577	0.747
6c0c	6cd7	1449	1449	0.229	0.211	0.233	0.338
6c0c	6cd7	1450	1450	0.211	0.348	0.185	0.213
6c0c	6cd7	1451	1451	0.0	0.03	0.0	0.012
6c0c	6cd7	1452	1452	0.0	0.0	0.0	0.005
6c0c	6cd7	1453	1453	0.02	0.068	0.017	0.032
6c0c	6cd7	1454	1454	0.524	0.722	0.531	0.465
6c0c	6cd7	1455	1455	0.159	0.194	0.197	0.355
6c0c	6cd7	1456	1456	0.416	0.145	0.43	0.506
6c0c	6cd7	1457	1457	0.0	0.0	0.0	0.0
6c0c	6cd7	1458	1458	0.0	0.008	0.0	0.003
6c0c	6cd7	1459	1459	0.45	0.415	0.456	0.598
6c0c	6cd7	1460	1460	0.477	0.516	0.52	0.507
6c0c	6cd7	1461	1461	0.622	0.657	0.597	0.795
6c0c	6cd7	1462	1462	0.726	0.736	0.742	0.762
6c0c	6cd7	1463	1463	0.045	0.152	0.046	0.117
6c0c	6cd7	1464	1464	0.0	0.002	0.0	0.0
6c0c	6cd7	1465	1465	0.036	0.066	0.0	0.012
6c0c	6cd7	1466	1466	0.0	0.0	0.0	0.0
6c0c	6cd7	1467	1467	0.355	0.562	0.346	0.175
6c0c	6cd7	1468	1468	0.302	0.251	0.324	0.162
6c0c	6cd7	1469	1469	0.0	0.0	0.0	0.006
6c0c	6cd7	1470	1470	0.179	0.12	0.173	0.31
6c0c	6cd7	1471	1471	0.534	0.583	0.557	0.612
6c0c	6cd7	1472	1472	0.336	0.396	0.363	0.386
6c0c	6cd7	1473	1473	0.296	0.317	0.214	0.282
6c0c	6cd7	1474	1474	0.481	0.484	0.448	0.464
6c0c	6cd7	1475	1475	0.322	0.315	0.327	0.304
6c0c	6cd7	1476	1476	0.123	0.113	0.137	0.179
6c0c	6cd7	1477	1477	0.331	0.423	0.297	0.375
6c0c	6cd7	1478	1478	0.34	0.357	0.37	0.458
6c0c	6cd7	1479	1479	0.0	0.0	0.0	0.0
6c0c	6cd7	1480	1480	0.0	0.0	0.0	0.0
6c0c	6cd7	1481	1481	0.758	0.816	0.758	0.816
6c0c	6cd7	1482	1482	0.064	0.073	0.049	0.06
6c0c	6cd7	1483	1483	0.47	0.49	0.449	0.46
6c0c	6cd7	1484	1484	0.289	0.397	0.255	0.27
6c0c	6cd7	1485	1485	0.001	0.0	0.001	0.0
6c0c	6cd7	1486	1486	0.696	0.67	0.696	0.67
6c0c	6cd7	1487	1487	0.689	0.699	0.658	0.589
6c0c	6cd7	1488	1488	0.78	0.83	0.707	0.747
6c0c	6cd7	1489	1489	0.09	0.074	0.078	0.049
6c0c	6cd7	1490	1490	0.036	0.097	0.053	0.099
6c0c	6cd7	1491	1491	0.194	0.327	0.218	0.194
6c0c	6cd7	1492	1492	0.487	0.538	0.527	0.706
6c0c	6cd7	1493	1493	0.208	0.261	0.175	0.169
6c0c	6cd7	1494	1494	0.0	0.0	0.0	0.002
6c0c	6cd7	1495	1495	0.0	0.0	0.0	0.0
6c0c	6cd7	1496	1496	0.319	0.429	0.305	0.296
6c0c	6cd7	1497	1497	0.187	0.229	0.14	0.111
6c0c	6cd7	1498	1498	0.189	0.194	0.193	0.191
6c0c	6cd7	1499	1499	0.112	0.084	0.112	0.084
6c0c	6cd7	1500	1500	0.819	0.873	0.849	0.827
6c0c	6cd7	1501	1501	0.954	0.915	0.954	0.915
6c0c	6cd7	1502	1502	0.0	0.0	0.0	0.0
6c0c	6cd7	1503	1503	0.0	0.0	0.0	0.0
6c0c	6cd7	1504	1504	0.038	0.044	0.026	0.043
6c0c	6cd7	1505	1505	0.206	0.203	0.126	0.122
6c0c	6cd7	1506	1506	0.0	0.0	0.0	0.0
6c0c	6cd7	1507	1507	0.0	0.0	0.0	0.0
6c0c	6cd7	1508	1508	0.395	0.492	0.381	0.46
6c0c	6cd7	1509	1509	0.175	0.261	0.13	0.17
6c0c	6cd7	1510	1510	0.341	0.291	0.406	0.364
6c0c	6cd7	1511	1511	0.069	0.071	0.079	0.08
6c0c	6cd7	1512	1512	0.261	0.222	0.263	0.306
6c0c	6cd7	1513	1513	0.418	0.364	0.418	0.364
6c0c	6cd7	1514	1514	0.31	0.329	0.31	0.329
6c0c	6cd7	1515	1515	0.333	0.425	0.333	0.425
6c0c	6cd7	1516	1516	0.271	0.29	0.271	0.29
6c0c	6cd7	1517	1517	0.0	0.0	0.0	0.0
6c0c	6cd7	1518	1518	0.451	0.442	0.459	0.45
6c0c	6cd7	1519	1519	0.76	0.849	0.759	0.668
6c0c	6cd7	1520	1520	0.546	0.49	0.506	0.547
6c0c	6cd7	1521	1521	0.0	0.0	0.004	0.003
6c0c	6cd7	1522	1522	0.682	0.783	0.682	0.783
6c0c	6cd7	1523	1523	0.729	0.71	0.729	0.71
6c0c	6cd7	1524	1524	0.15	0.154	0.083	0.083
6c0c	6cd7	1525	1525	0.34	0.376	0.323	0.395
6c0c	6cd7	1526	1526	0.33	0.457	0.379	0.429
6c0c	6cd7	1527	1527	0.485	0.567	0.503	0.608
6c0c	6cd7	1528	1528	0.323	0.311	0.255	0.259
6c0c	6cd7	1529	1529	0.0	0.0	0.0	0.0
6c0c	6cd7	1530	1530	0.474	0.511	0.431	0.467
6c0c	6cd7	1531	1531	0.25	0.238	0.242	0.255
6c0c	6cd7	1532	1532	0.016	0.019	0.0	0.0
6c0c	6cd7	1533	1533	0.5	0.477	0.556	0.516
6c0c	6cd7	1534	1534	0.0	0.0	0.0	0.0
6c0c	6cd7	1535	1535	0.767	0.789	0.766	0.806
6c0c	6cd7	1536	1536	0.335	0.54	0.308	0.345
6c0c	6cd7	1537	1537	0.526	0.546	0.552	0.491
6c0c	6cd7	1538	1538	0.334	0.317	0.359	0.347
6c0c	6cd7	1539	1539	0.347	0.353	0.273	0.256
6c0c	6cd7	1540	1540	0.0	0.0	0.0	0.0
6c0c	6cd7	1541	1541	0.163	0.22	0.163	0.22
6c0c	6cd7	1542	1542	0.123	0.186	0.123	0.186
6c0c	6cd7	1543	1543	0.179	0.246	0.179	0.246
6c0c	6cd7	1544	1544	0.488	0.512	0.488	0.512
6c0c	6cd7	1545	1545	0.0	0.0	0.0	0.0
6c0c	6cd7	1546	1546	0.034	0.019	0.039	0.014
6c0c	6cd7	1547	1547	0.0	0.0	0.0	0.0
6c0c	6cd7	1548	1548	0.201	0.191	0.239	0.252
6c0c	6cd7	1549	1549	0.0	0.0	0.0	0.0
6c0c	6cd7	1550	1550	0.0	0.0	0.0	0.0
6c0c	6cd7	1551	1551	0.289	0.395	0.303	0.263
6c0c	6cd7	1552	1552	0.197	0.326	0.202	0.208
6c0c	6cd7	1553	1553	0.476	0.485	0.536	0.522
6c0c	6cd7	1554	1554	0.529	0.677	0.491	0.594
6c0c	6cd7	1555	1555	0.0	0.0	0.0	0.0
6c0c	6cd7	1556	1556	0.0	0.0	0.0	0.0
6c0c	6cd7	1557	1557	0.573	0.594	0.565	0.599
6c0c	6cd7	1558	1558	0.91	0.89	0.911	0.933
6c0c	6cd7	1559	1559	0.0	0.0	0.0	0.0
6c0c	6cd7	1560	1560	0.0	0.0	0.0	0.0
6c0c	6cd7	1561	1561	0.189	0.154	0.198	0.123
6c0c	6cd7	1562	1562	0.555	0.508	0.535	0.488
6c0c	6cd7	1563	1563	0.0	0.0	0.0	0.0
6c0c	6cd7	1564	1564	0.161	0.165	0.134	0.167
6c0c	6cd7	1565	1565	0.751	0.839	0.746	0.833
6c0c	6cd7	1566	1566	0.18	0.17	0.166	0.27
6c0c	6cd7	1567	1567	0.235	0.174	0.268	0.247
6c0c	6cd7	1568	1568	0.092	0.104	0.066	0.077
6c0c	6cd7	1569	1569	0.262	0.47	0.236	0.351
6c0c	6cd7	1570	1570	0.398	0.411	0.357	0.365
6c0c	6cd7	1571	1571	0.0	0.006	0.0	0.002
6c0c	6cd7	1572	1572	0.824	0.637	0.844	0.655
6c0c	6cd7	1573	1573	0.816	0.607	0.824	0.867
6c0c	6cd7	1574	1574	0.249	0.252	0.268	0.241
6c0c	6cd7	1575	1575	0.0	0.0	0.0	0.0
6c0c	6cd7	1576	1576	0.615	0.916	0.596	0.543
6c0c	6cd7	1577	1577	0.148	0.187	0.145	0.126
6c0c	6cd7	1578	1578	0.421	0.409	0.444	0.404
6c0c	6cd7	1579	1579	0.795	0.804	0.795	0.804
6c0c	6cd7	1580	1580	1.0	0	1.0	0
6c0c	6cd7	1581	1581	0.009	0.006	0.0	0.029
6c0c	6cd7	1582	1582	0.065	0.053	0.068	0.055
6c0c	6cd7	1583	1583	0.245	0.271	0.246	0.249
6c0c	6cd7	1584	1584	0.247	0.273	0.246	0.294
6c0c	6cd7	1585	1585	0.239	0.242	0.182	0.177
6c0c	6cd7	1586	1586	0.077	0.071	0.053	0.05
6c0c	6cd7	1587	1587	0.545	0.395	0.528	0.384
6c0c	6cd7	1588	1588	0.158	0.237	0.214	0.288
6c0c	6cd7	1589	1589	0.0	0.002	0.0	0.0
6c0c	6cd7	1590	1590	0.796	0.823	0.793	0.78
6c0c	6cd7	1591	1591	0.271	0.29	0.244	0.254
6c0c	6cd7	1592	1592	0.037	0.046	0.049	0.111
6c0c	6cd7	1593	1593	0.323	0.452	0.293	0.325
6c0c	6cd7	1594	1594	0.184	0.123	0.186	0.376
6c0c	6cd7	1595	1595	0.32	0.325	0.32	0.265
6c0c	6cd7	1596	1596	0.487	0.389	0.448	0.382
6c0c	6cd7	1597	1597	0.89	0.693	0.861	0.886
6c0c	6cd7	1598	1598	0.854	0.823	0.795	0.824
6c0c	6cd7	1599	1599	0.372	0.329	0.364	0.303
6c0c	6cd7	1600	1600	0.839	0.738	0.839	0.738
6c0c	6cd7	1601	1601	0.342	0.192	0.399	0.223
6c0c	6cd7	1602	1602	0.276	0.434	0.258	0.238
6c0c	6cd7	1603	1603	0.771	0.719	0.771	0.719
6c0c	6cd7	1604	1604	0.415	0.464	0.383	0.333
6c0c	6cd7	1605	1605	0.062	0.091	0.077	0.084
6c0c	6cd7	1606	1606	0.0	0.033	0.0	0.006
6c0c	6cd7	1607	1607	0.156	0.316	0.18	0.25
6c0c	6cd7	1608	1608	0.192	0.104	0.161	0.222
6c0c	6cd7	1609	1609	0.293	0.397	0.293	0.397
6c0c	6cd7	1610	1610	0.643	0.673	0.65	0.643
6c0c	6cd7	1611	1611	0.613	0.706	0.648	0.76
6c0c	6cd7	1612	1612	0.622	0.89	0.607	0.791
6c0c	6cd7	1613	1613	0.075	0.089	0.071	0.113
6c0c	6cd7	1614	1614	0.82	0.871	0.82	0.871
6c0c	6cd7	1615	1615	0.494	0.604	0.479	0.629
6c0c	6cd7	1616	1616	0.523	0.596	0.46	0.495
6c0c	6cd7	1617	1617	0.003	0.024	0.0	0.036
6c0c	6cd7	1618	1618	0.279	0.395	0.322	0.358
6c0c	6cd7	1619	1619	0.565	0.611	0.565	0.611
6c0c	6cd7	1620	1620	0.195	0.198	0.19	0.198
6c0c	6cd7	1621	1621	0.0	0.0	0.0	0.001
6c0c	6cd7	1622	1622	0.358	0.467	0.404	0.54
6c0c	6cd7	1623	1623	0.105	0.158	0.073	0.093
6c0c	6cd7	1624	1624	0.524	0.417	0.525	0.49
6c0c	6cd7	1625	1625	0.495	0.445	0.565	0.609
6c0c	6cd7	1626	1626	0.066	0.093	0.045	0.069
6c0c	6cd7	1627	1627	0.3	0.247	0.241	0.256
6c0c	6cd7	1628	1628	0.576	0.523	0.558	0.525
6c0c	6cd7	1629	1629	0.088	0.228	0.079	0.08
6c0c	6cd7	1630	1630	0.277	0.524	0.25	0.327
6c0c	6cd7	1631	1631	0.786	0.827	0.811	0.849
6c0c	6cd7	1632	1632	0.832	0.736	0.836	0.743
6c0c	6cd7	1633	1633	0.0	0.0	0.0	0.0
6c0c	6cd7	1634	1634	0.855	0.924	0.855	0.924
6c0c	6cd7	1635	1635	0.903	0.965	0.908	0.933
6c0c	6cd7	1636	1636	0.083	0.093	0.043	0.036
6c0c	6cd7	1637	1637	0.649	0.579	0.693	0.767
6c0c	6cd7	1638	1638	0.52	0.54	0.52	0.54
6c0c	6cd7	1639	1639	0.664	0.715	0.664	0.715
6c0c	6cd7	1640	1640	0.0	0.0	0.0	0.0
6c0c	6cd7	1641	1641	0.018	0.025	0.024	0.039
6c0c	6cd7	1642	1642	0.41	0.381	0.459	0.409
6c0c	6cd7	1643	1643	0.499	0.496	0.498	0.45
6c0c	6cd7	1644	1644	0.057	0.079	0.072	0.064
6c0c	6cd7	1645	1645	0.0	0.019	0.0	0.0
6c0c	6cd7	1646	1646	0.054	0.103	0.08	0.08
6c0c	6cd7	1647	1647	0.03	0.07	0.047	0.119
6c0c	6cd7	1648	1648	0.046	0.072	0.045	0.06
6c0c	6cd7	1649	1649	0.223	0.284	0.236	0.233
6c0c	6cd7	1650	1650	0.021	0.033	0.018	0.022
6c0c	6cd7	1651	1651	0.0	0.0	0.0	0.0
6c0c	6cd7	1652	1652	0.218	0.383	0.232	0.265
6c0c	6cd7	1653	1653	0.134	0.222	0.1	0.135
6c0c	6cd7	1654	1654	0.487	0.637	0.483	0.653
6c0c	6cd7	1655	1655	0.0	0.0	0.0	0.0
6c0c	6cd7	1656	1656	0.562	0.544	0.619	0.715
6c0c	6cd7	1657	1657	0.566	0.558	0.549	0.518
6c0c	6cd7	1658	1658	0.0	0.0	0.0	0.0
6c0c	6cd7	1659	1659	0.0	0.0	0.0	0.0
6c0c	6cd7	1660	1660	0.0	0.0	0.0	0.0
6c0c	6cd7	1661	1661	0.014	0.039	0.044	0.046
6c0c	6cd7	1662	1662	0.384	0.361	0.37	0.507
6c0c	6cd7	1663	1663	0.552	0.569	0.565	0.57
6c0c	6cd7	1664	1664	0.353	0.355	0.331	0.338
6c0c	6cd7	1665	1665	0.287	0.296	0.219	0.222
6c0c	6cd7	1666	1666	0.308	0.325	0.303	0.351
6c0c	6cd7	1667	1667	0.919	0.681	0.919	0.681
6c0c	6cd7	1668	1668	0.0	0.0	0.0	0.0
6c0c	6cd7	1669	1669	0.0	0.0	0.0	0.0
6c0c	6cd7	1670	1670	0.0	0.0	0.0	0.004
6c0c	6cd7	1671	1671	0.253	0.285	0.259	0.373
6c0c	6cd7	1672	1672	0.29	0.37	0.285	0.342
6c0c	6cd7	1673	1673	0.161	0.117	0.184	0.316
6c0c	6cd7	1674	1674	0.346	0.381	0.275	0.256
6c0c	6cd7	1675	1675	0.0	0.0	0.0	0.0
6c0c	6cd7	1676	1676	0.0	0.0	0.0	0.0
6c0c	6cd7	1677	1677	0.075	0.061	0.076	0.112
6c0c	6cd7	1678	1678	0.438	0.537	0.448	0.465
6c0c	6cd7	1679	1679	0.0	0.001	0.0	0.002
6c0c	6cd7	1680	1680	0.032	0.035	0.0	0.0
6c0c	6cd7	1681	1681	0.0	0.0	0.0	0.0
6c0c	6cd7	1682	1682	0.213	0.309	0.221	0.221
6c0c	6cd7	1683	1683	0.151	0.109	0.151	0.247
6c0c	6cd7	1684	1684	0.247	0.239	0.28	0.377
6c0c	6cd7	1685	1685	0.0	0.0	0.0	0.004
6c0c	6cd7	1686	1686	0.0	0.001	0.0	0.006
6c0c	6cd7	1687	1687	0.0	0.028	0.0	0.02
6c0c	6cd7	1688	1688	0.353	0.309	0.346	0.313
6c0c	6cd7	1689	1689	0.175	0.291	0.175	0.291
6c0c	6cd7	1690	1690	0.195	0.168	0.195	0.168
6c0c	6cd7	1691	1691	0.0	0.0	0.0	0.0
6c0c	6cd7	1692	1692	0.151	0.111	0.113	0.151
6c0c	6cd7	1693	1693	0.0	0.0	0.0	0.007
6c0c	6cd7	1694	1694	0.0	0.043	0.0	0.062
6c0c	6cd7	1695	1695	0.24	0.33	0.245	0.336
6c0c	6cd7	1696	1696	0.221	0.211	0.221	0.211
6c0c	6cd7	1697	1697	0.12	0.133	0.123	0.138
6c0c	6cd7	1698	1698	0.0	0.0	0.0	0.0
6c0c	6cd7	1699	1699	0.0	0.0	0.0	0.0
6c0c	6cd7	1700	1700	0.323	0.29	0.309	0.468
6c0c	6cd7	1701	1701	0.301	0.246	0.301	0.246
6c0c	6cd7	1702	1702	0.025	0.004	0.005	0.005
6c0c	6cd7	1703	1703	0.037	0.052	0.058	0.074
6c0c	6cd7	1704	1704	0.201	0.218	0.136	0.153
6c0c	6cd7	1705	1705	0.0	0.018	0.0	0.032
6c0c	6cd7	1706	1706	0.264	0.267	0.251	0.278
6c0c	6cd7	1707	1707	0.272	0.272	0.266	0.254
6c0c	6cd7	1708	1708	0.402	0.463	0.346	0.391
6c0c	6cd7	1709	1709	0.388	0.379	0.363	0.464
6c0c	6cd7	1710	1710	0.0	0.0	0.0	0.0
6c0c	6cd7	1711	1711	0.342	0.543	0.317	0.381
6c0c	6cd7	1712	1712	0.397	0.481	0.351	0.404
6c0c	6cd7	1713	1713	0.92	0.2	0.92	0.2
6c0c	6cd7	1714	1714	0.011	0.015	0.0	0.0
6c0c	6cd7	1715	1715	0.245	0.285	0.253	0.392
6c0c	6cd7	1716	1716	0.295	0.329	0.317	0.348
6c0c	6cd7	1717	1717	0.565	0.785	0.596	0.719
6c0c	6cd7	1718	1718	0.046	0.067	0.036	0.044
6c0c	6cd7	1719	1719	0.0	0.0	0.0	0.0
6c0c	6cd7	1720	1720	0.02	0.042	0.032	0.031
6c0c	6cd7	1721	1721	0.022	0.122	0.026	0.074
6c0c	6cd7	1722	1722	0.289	0.33	0.262	0.369
6c0c	6cd7	1723	1723	0.66	0.674	0.688	0.714
6c0c	6cd7	1724	1724	0.0	0.017	0.0	0.031
6c0c	6cd7	1725	1725	0.0	0.003	0.0	0.0
6c0c	6cd7	1726	1726	0.048	0.087	0.041	0.082
6c0c	6cd7	1727	1727	0.0	0.041	0.0	0.016
6c0c	6cd7	1728	1728	0.0	0.009	0.0	0.01
6c0c	6cd7	1729	1729	0.805	0.819	0.794	0.798
6c0c	6cd7	1730	1730	0.602	0.581	0.585	0.802
6c0c	6cd7	1731	1731	0.011	0.007	0.029	0.024
6c0c	6cd7	1732	1732	0.45	0.487	0.41	0.471
6c0c	6cd7	1733	1733	0.484	0.45	0.497	0.461
6c0c	6cd7	1734	1734	0.116	0.116	0.116	0.116
6c0c	6cd7	1735	1735	0.0	0.0	0.0	0.0
6c0c	6cd7	1736	1736	0.327	0.343	0.326	0.338
6c0c	6cd7	1737	1737	0.734	0.774	0.734	0.774
6c0c	6cd7	1738	1738	0.924	0.882	0.924	0.882
6c0c	6cd7	1739	1739	0.01	0.019	0.012	0.014
6c0c	6cd7	1740	1740	0.0	0.0	0.0	0.009
6c0c	6cd7	1741	1741	0.0	0.002	0.016	0.022
6c0c	6cd7	1742	1742	0.342	0.302	0.388	0.4
6c0c	6cd7	1743	1743	0.0	0.0	0.0	0.0
6c0c	6cd7	1744	1744	0.0	0.0	0.0	0.0
6c0c	6cd7	1745	1745	0.354	0.341	0.35	0.346
6c0c	6cd7	1746	1746	0.047	0.009	0.068	0.04
6c0c	6cd7	1747	1747	0.137	0.111	0.137	0.235
6c0c	6cd7	1748	1748	0.202	0.254	0.26	0.193
6c0c	6cd7	1749	1749	0.175	0.155	0.18	0.39
6c0c	6cd7	1750	1750	0.044	0.102	0.074	0.108
6c0c	6cd7	1751	1751	0.0	0.0	0.0	0.0
6c0c	6cd7	1752	1752	0.012	0.003	0.006	0.004
6c0c	6cd7	1753	1753	0.251	0.273	0.305	0.339
6c0c	6cd7	1754	1754	0.0	0.024	0.0	0.011
6c0c	6cd7	1755	1755	0.116	0.14	0.126	0.088
6c0c	6cd7	1756	1756	0.0	0.0	0.0	0.0
6c0c	6cd7	1757	1757	0.008	0.095	0.0	0.044
6c0c	6cd7	1758	1758	0.093	0.096	0.164	0.159
6c0c	6cd7	1759	1759	0.779	0.597	0.779	0.597
6c0c	6cd7	1760	1760	0.0	0.0	0.0	0.0
6c0c	6cd7	1761	1761	0.0	0.0	0.0	0.0
6c0c	6cd7	1762	1762	0.115	0.082	0.115	0.082
6c0c	6cd7	1763	1763	0.867	0.133	0.867	0.133
6c0c	6cd7	1764	1764	0.521	0.544	0.479	0.343
6c0c	6cd7	1765	1765	0.654	0.661	0.694	0.759
6c0c	6cd7	1766	1766	0.267	0.3	0.267	0.3
6c0c	6cd7	1767	1767	0.941	0.914	0.941	0.914
6c0c	6cd7	1768	1768	0.18	0.197	0.248	0.215
6c0c	6cd7	1769	1769	0.018	0.025	0.011	0.011
6c0c	6cd7	1770	1770	0.143	0.117	0.106	0.121
6c0c	6cd7	1771	1771	0.0	0.0	0.0	0.0
6c0c	6cd7	1772	1772	0.0	0.0	0.0	0.0
6c0c	6cd7	1773	1773	0.001	0.001	0.0	0.0
6c0c	6cd7	1774	1774	0.0	0.0	0.0	0.0
6c0c	6cd7	1775	1775	0.0	0.0	0.0	0.0
6c0c	6cd7	1776	1776	0.0	0.0	0.0	0.0
6c0c	6cd7	1777	1777	0.156	0.22	0.156	0.22
6c0c	6cd7	1778	1778	0.368	0.382	0.359	0.381
6c0c	6cd7	1779	1779	0.546	0.529	0.535	0.527
6c0c	6cd7	1780	1780	0.0	0.0	0.0	0.0
6c0c	6cd7	1781	1781	0.0	0.0	0.0	0.0
6c0c	6cd7	1782	1782	0.0	0.0	0.0	0.0
6c0c	6cd7	1783	1783	0.726	0.764	0.67	0.786
6c0c	6cd7	1784	1784	0.652	0.648	0.652	0.648
6c0c	6cd7	1785	1785	0.0	0.0	0.0	0.0
6c0c	6cd7	1786	1786	0.0	0.0	0.0	0.0
6c0c	6cd7	1787	1787	0.121	0.154	0.056	0.065
6c0c	6cd7	1788	1788	0.008	0.01	0.014	0.024
6c0c	6cd7	1789	1789	0.79	0.705	0.773	0.822
6c0c	6cd7	1790	1790	0.779	0.867	0.776	0.823
6c0c	6cd7	1791	1791	0.673	0.678	0.725	0.736
6c0c	6cd7	1792	1792	0.435	0.376	0.407	0.469
6c0c	6cd7	1793	1793	0.081	0.092	0.038	0.069
6c0c	6cd7	1794	1794	0.036	0.051	0.02	0.062
6c0c	6cd7	1795	1795	0.0	0.004	0.0	0.01
6c0c	6cd7	1796	1796	0.027	0.005	0.035	0.011
6c0c	6cd7	1797	1797	0.528	0.438	0.528	0.438
6c0c	6cd7	1798	1798	0.813	0.945	0.813	0.945
6c0c	6cd7	1799	1799	0.313	0.328	0.323	0.439
6c0c	6cd7	1800	1800	0.347	0.543	0.345	0.557
6c0c	6cd7	1801	1801	0.377	0.404	0.379	0.337
6c0c	6cd7	1802	1802	0.848	0.898	0.871	0.914
6c0c	6cd7	1803	1803	0.675	0.649	0.675	0.649
6c0c	6cd7	1804	1804	0.523	0.556	0.554	0.562
6c0c	6cd7	1805	1805	0.711	0.525	0.75	0.455
6c0c	6cd7	1806	1806	0.769	0.762	0.701	0.652
6c0c	6cd7	1807	1807	0.724	0.6	0.724	0.6
6c0c	6cd7	1808	1808	0.3	0.472	0.317	0.383
6c0c	6cd7	1809	1809	0.023	0.108	0.029	0.091
6c0c	6cd7	1810	1810	0.019	0.062	0.034	0.108
6c0c	6cd7	1811	1811	0.056	0.144	0.043	0.05
6c0c	6cd7	1812	1812	0.186	0.21	0.217	0.155
6c0c	6cd7	1813	1813	0.377	0.361	0.377	0.565
6c0c	6cd7	1814	1814	0.603	0.608	0.603	0.608
6c0c	6cd7	1815	1815	0.681	0.723	0.681	0.723
6c0c	6cd7	1816	1816	0.714	0.736	0.68	0.679
6c0c	6cd7	1817	1817	0.768	0.627	0.784	0.925
6c0c	6cd7	1818	1818	0.453	0.483	0.453	0.483
6c0c	6cd7	1819	1819	0.697	0.689	0.739	0.716
6c0c	6cd7	1820	1820	0.649	0.693	0.688	0.752
6c0c	6cd7	1821	1821	0.778	0.583	0.772	0.594
6c0c	6cd7	1822	1822	0.643	0.66	0.593	0.52
6c0c	6cd7	1823	1823	0.76	0.86	0.76	0.86
6c0c	6cd7	1824	1824	0.869	0.734	0.869	0.734
6c0c	6cd7	1825	1825	0.433	0.433	0.433	0.433
6c0c	6cd7	1826	1826	0.0	0.0	0.0	0.0
6c0c	6cd7	1827	1827	0.0	0.005	0.0	0.0
6c0c	6cd7	1828	1828	0.065	0.134	0.082	0.109
6c0c	6cd7	1829	1829	0.249	0.218	0.269	0.287
6c0c	6cd7	1830	1830	0.0	0.027	0.0	0.048
6c0c	6cd7	1831	1831	0.81	0.792	0.789	0.782
6c0c	6cd7	1832	1832	0.092	0.107	0.085	0.075
6c0c	6cd7	1833	1833	0.042	0.339	0.026	0.042
6c0c	6cd7	1834	1834	0.574	0.731	0.536	0.555
6c0c	6cd7	1835	1835	0.226	0.429	0.216	0.215
6c0c	6cd7	1836	1836	0.379	0.387	0.399	0.415
6c0c	6cd7	1837	1837	0.686	0.714	0.686	0.714
6c0c	6cd7	1838	1838	0.466	0.597	0.469	0.692
6c0c	6cd7	1839	1839	0.653	0.805	0.682	0.893
6c0c	6cd7	1840	1840	0.762	0.859	0.776	0.833
6c0c	6cd7	1841	1841	0.713	0.705	0.748	0.775
6c0c	6cd7	1842	1842	0.9	0.85	0.9	0.85
6c0c	6cd7	1843	1843	0.8	0.875	0.8	0.875
6c0c	6cd7	1844	1844	0.372	0.264	0.321	0.195
6c0c	6cd7	1845	1845	0.805	0.7	0.805	0.7
6c0c	6cd7	1846	1846	0.268	0.28	0.297	0.343
6c0c	6cd7	1847	1847	0.06	0.026	0.084	0.053
6c0c	6cd7	1848	1848	0.628	0.777	0.62	0.776
6c0c	6cd7	1849	1849	0.883	0.765	0.883	0.765
6c0c	6cd7	1850	1850	0.444	0.369	0.428	0.344
6c0c	6cd7	1851	1851	0.726	0.696	0.726	0.696
6c0c	6cd7	1852	1852	0.656	0.635	0.656	0.635
6c0c	6cd7	1853	1853	0.341	0.349	0.341	0.349
6c0c	6cd7	1854	1854	0.909	0.97	0.909	0.97
6c0c	6cd7	1855	1855	0.716	0.71	0.728	0.704
6c0c	6cd7	1856	1856	0.044	0.017	0.037	0.258
6c0c	6cd7	1857	1857	0.783	0.789	0.783	0.789
6c0c	6cd7	1858	1858	0.0	0.0	0.0	0.0
6c0c	6cd7	1859	1859	0.202	0.284	0.192	0.242
6c0c	6cd7	1860	1860	0.0	0.002	0.0	0.0
6c0c	6cd7	1861	1861	0.146	0.204	0.128	0.113
6c0c	6cd7	1862	1862	0.453	0.374	0.451	0.483
6c0c	6cd7	1863	1863	0.392	0.442	0.355	0.354
6c0c	6cd7	1864	1864	0.049	0.079	0.057	0.068
6c0c	6cd7	1865	1865	0.0	0.001	0.0	0.004
6c0c	6cd7	1866	1866	0.371	0.6	0.322	0.414
6c0c	6cd7	1867	1867	0.301	0.31	0.331	0.314
6c0c	6cd7	1868	1868	0.286	0.16	0.269	0.245
6c0c	6cd7	1869	1869	0.482	0.612	0.532	0.433
6c0c	6cd7	1870	1870	0.273	0.338	0.242	0.306
6c0c	6cd7	1871	1871	0.0	0.0	0.0	0.0
6c0c	6cd7	1872	1872	0.81	0.79	0.81	0.79
6c0c	6cd7	1873	1873	0.361	0.363	0.419	0.422
6c0c	6cd7	1874	1874	0.039	0.04	0.064	0.063
6c0c	6cd7	1875	1875	0.696	0.52	0.72	0.718
6c0c	6cd7	1876	1876	0.158	0.146	0.143	0.226
6c0c	6cd7	1877	1877	0.719	0.596	0.686	0.696
6c0c	6cd7	1878	1878	0.135	0.112	0.1	0.165
6c0c	6cd7	1879	1879	0.214	0.281	0.221	0.184
6c0c	6cd7	1880	1880	0.049	0.051	0.054	0.055
6c0c	6cd7	1881	1881	0.733	0.753	0.733	0.753
6c0c	6cd7	1882	1882	0.716	0.76	0.723	0.743
6c0c	6cd7	1883	1883	0.075	0.208	0.055	0.11
6c0c	6cd7	1884	1884	0.0	0.001	0.0	0.011
6c0c	6cd7	1885	1885	0.038	0.052	0.041	0.041
6c0c	6cd7	1886	1886	0.113	0.072	0.101	0.063
6c0c	6cd7	1887	1887	0.058	0.053	0.056	0.051
6c0c	6cd7	1888	1888	0.004	0.071	0.007	0.002
6c0c	6cd7	1889	1889	0.804	0.782	0.829	0.816
6c0c	6cd7	1890	1890	0.695	0.675	0.696	0.871
6c0c	6cd7	1891	1891	0.011	0.008	0.011	0.008
6c0c	6cd7	1892	1892	0.056	0.047	0.098	0.125
6c0c	6cd7	1893	1893	0.419	0.311	0.427	0.352
6c0c	6cd7	1894	1894	0.042	0.029	0.035	0.05
6c0c	6cd7	1895	1895	0.0	0.0	0.0	0.0
6c0c	6cd7	1896	1896	0.151	0.172	0.102	0.12
6c0c	6cd7	1897	1897	0.0	0.0	0.0	0.0
6c0c	6cd7	1898	1898	0.121	0.161	0.154	0.116
6c0c	6cd7	1899	1899	0.12	0.118	0.119	0.109
6c0c	6cd7	1900	1900	0.621	0.563	0.59	0.578
6c0c	6cd7	1901	1901	0.177	0.106	0.147	0.149
6c0c	6cd7	1902	1902	0.327	0.339	0.327	0.339
6c0c	6cd7	1903	1903	0.671	0.698	0.738	0.835
6c0c	6cd7	1904	1904	0.0	0.0	0.0	0.0
6c0c	6cd7	1905	1905	0.25	0.216	0.282	0.287
6c0c	6cd7	1906	1906	0.118	0.106	0.112	0.162
6c0c	6cd7	1907	1907	0.418	0.414	0.399	0.393
6c0c	6cd7	1908	1908	0.345	0.39	0.343	0.304
6c0c	6cd7	1909	1909	0.135	0.081	0.113	0.1
6c0c	6cd7	1910	1910	0.256	0.47	0.233	0.168
6c0c	6cd7	1911	1911	0.0	0.022	0.0	0.005
6c0c	6cd7	1912	1912	0.236	0.249	0.229	0.354
6c0c	6cd7	1913	1913	0.205	0.248	0.242	0.206
6c0c	6cd7	1914	1914	0.066	0.065	0.066	0.065
6c0c	6cd7	1915	1915	0.666	0.788	0.666	0.788
6c0c	6cd7	1916	1916	0.604	0.65	0.604	0.65
6c0c	6cd7	1917	1917	0.673	0.668	0.683	0.706
6c0c	6cd7	1918	1918	0.263	0.245	0.184	0.118
6c0c	6cd7	1919	1919	0.897	0.817	0.897	0.817
6c0c	6cd7	1920	1920	0.525	0.254	0.534	0.525
6c0c	6cd7	1921	1921	0.429	0.435	0.462	0.446
6c0c	6cd7	1922	1922	0.785	0.795	0.809	0.8
6c0c	6cd7	1923	1923	0.444	0.449	0.508	0.513
6c0c	6cd7	1924	1924	0.369	0.749	0.377	0.262
6c0c	6cd7	1925	1925	0.563	0.595	0.559	0.591
6c0c	6cd7	1926	1926	0.443	0.454	0.426	0.381
6c0c	6cd7	1927	1927	0.616	0.578	0.614	0.421
6c0c	6cd7	1928	1928	0.114	0.19	0.089	0.134
6c0c	6cd7	1929	1929	0.0	0.018	0.0	0.005
6c0c	6cd7	1930	1930	0.178	0.242	0.191	0.306
6c0c	6cd7	1931	1931	0.423	0.635	0.372	0.271
6c0c	6cd7	1932	1932	0.294	0.373	0.28	0.332
6c0c	6cd7	1933	1933	0.498	0.554	0.509	0.615
6c0c	6cd7	1934	1934	0.585	0.761	0.6	0.706
6c0c	6cd7	1935	1935	0.688	0.83	0.68	0.655
6c0c	6cd7	1936	1936	0.137	0.235	0.133	0.09
6c0c	6cd7	1937	1937	0.875	0.766	0.893	0.933
6c0c	6cd7	1938	1938	0.574	0.725	0.577	0.718
6c0c	6cd7	1939	1939	0.663	0.656	0.663	0.656
6c0c	6cd7	1940	1940	0.489	0.493	0.556	0.585
6c0c	6cd7	1941	1941	0.558	0.536	0.558	0.536
6c0c	6cd7	1942	1942	0.638	0.623	0.638	0.623
6c0c	6cd7	1943	1943	0.36	0.385	0.377	0.373
6c0c	6cd7	1944	1944	0.883	0.969	0.885	0.938
6c0c	6cd7	1945	1945	0.656	0.635	0.61	0.698
6c0c	6cd7	1946	1946	0.508	0.511	0.506	0.465
6c0c	6cd7	1947	1947	0.386	0.455	0.376	0.618
6c0c	6cd7	1948	1948	0.94	0.92	0.891	0.9
6c0c	6cd7	1949	1949	0.665	0.651	0.664	0.519
6c0c	6cd7	1950	1950	0.006	0.037	0.015	0.035
6c0c	6cd7	1951	1951	0.825	0.922	0.825	0.922
6c0c	6cd7	1952	1952	0.104	0.104	0.166	0.101
6c0c	6cd7	1953	1953	0.141	0.196	0.108	0.135
6c0c	6cd7	1954	1954	0.0	0.0	0.0	0.0
6c0c	6cd7	1955	1955	0.211	0.259	0.226	0.272
6c0c	6cd7	1956	1956	0.466	0.464	0.487	0.59
6c0c	6cd7	1957	1957	0.212	0.204	0.221	0.232
6c0c	6cd7	1958	1958	0.547	0.708	0.506	0.554
6c0c	6cd7	1959	1959	0.129	0.281	0.161	0.139
6c0c	6cd7	1960	1960	0.166	0.116	0.165	0.171
6c0c	6cd7	1961	1961	0.0	0.0	0.0	0.0
6c0c	6cd7	1962	1962	0.386	0.433	0.452	0.555
6c0c	6cd7	1963	1963	0.091	0.103	0.088	0.08
6c0c	6cd7	1964	1964	0.375	0.431	0.38	0.603
6c0c	6cd7	1965	1965	0.407	0.534	0.407	0.417
6c0c	6cd7	1966	1966	0.428	0.371	0.429	0.396
6c0c	6cd7	1967	1967	0.038	0.038	0.036	0.07
6c0c	6cd7	1968	1968	0.75	0.75	0.75	0.75
6c0c	6cd7	1969	1969	0.584	0.637	0.596	0.73
6c0c	6cd7	1970	1970	0.398	0.435	0.428	0.437
6c0c	6cd7	1971	1971	0.431	0.573	0.436	0.599
6c0c	6cd7	1972	1972	0.255	0.475	0.243	0.322
6c0c	6cd7	1973	1973	0.089	0.202	0.119	0.261
6c0c	6cd7	1974	1974	0.456	0.468	0.383	0.385
6c0c	6cd7	1975	1975	0.316	0.256	0.348	0.263
6c0c	6cd7	1976	1976	0.39	0.538	0.434	0.545
6c0c	6cd7	1977	1977	0.39	0.683	0.404	0.705
6c0c	6cd7	1978	1978	0.477	0.526	0.479	0.515
6c0c	6cd7	1979	1979	0.069	0.077	0.099	0.102
6c0c	6cd7	1980	1980	0.344	0.46	0.357	0.5
6c0c	6cd7	1981	1981	0.095	0.126	0.084	0.129
6c0c	6cd7	1982	1982	0.134	0.162	0.12	0.125
6c0c	6cd7	1983	1983	0.426	0.298	0.426	0.546
6c0c	6cd7	1984	1984	0.35	0.386	0.333	0.378
6c0c	6cd7	1985	1985	0.476	0.246	0.434	0.259
6c0c	6cd7	1986	1986	0.534	0.601	0.55	0.716
6c0c	6cd7	1987	1987	0.883	0.441	0.861	0.95
6c0c	6cd7	1988	1988	0.403	0.315	0.492	0.503
6c0c	6cd7	1989	1989	0.67	0.633	0.652	0.738
6c0c	6cd7	1990	1990	0.48	0.476	0.533	0.663
6c0c	6cd7	1991	1991	0.669	0.805	0.679	0.739
6c0c	6cd7	1992	1992	0.104	0.084	0.085	0.068
6c0c	6cd7	1993	1993	0.61	0.446	0.642	0.506
6c0c	6cd7	1994	1994	0.494	0.45	0.481	0.464
6c0c	6cd7	1995	1995	0.709	0.752	0.709	0.752
6c0c	6cd7	1996	1996	0.0	0.0	0.0	0.0
6c0c	6cd7	1997	1997	0.322	0.362	0.319	0.413
6c0c	6cd7	1998	1998	0.327	0.361	0.415	0.354
6c0c	6cd7	1999	1999	0.546	0.538	0.597	0.488
6c0c	6cd7	2000	2000	0.0	0.0	0.0	0.0
6c0c	6cd7	2001	2001	0.566	0.741	0.517	0.516
6c0c	6cd7	2002	2002	0.184	0.268	0.232	0.318
6c0c	6cd7	2003	2003	0.125	0.13	0.111	0.121
6c0c	6cd7	2004	2004	0.115	0.156	0.085	0.124
6c0c	6cd7	2005	2005	0.554	0.562	0.568	0.769
6c0c	6cd7	2006	2006	0.444	0.452	0.436	0.463
6c0c	6cd7	2007	2007	0.0	0.0	0.0	0.0
6c0c	6cd7	2008	2008	0.169	0.21	0.169	0.21
6c0c	6cd7	2009	2009	0.467	0.576	0.467	0.576
6c0c	6cd7	2010	2010	0.128	0.113	0.147	0.105
6c0c	6cd7	2011	2011	0.0	0.0	0.0	0.0
6c0c	6cd7	2012	2012	0.0	0.0	0.0	0.0
6c0c	6cd7	2013	2013	0.189	0.161	0.183	0.288
6c0c	6cd7	2014	2014	0.346	0.485	0.353	0.398
6c0c	6cd7	2015	2015	0.722	0.675	0.729	0.646
6c0c	6cd7	2016	2016	0.0	0.0	0.0	0.0
6c0c	6cd7	2017	2017	0.035	0.034	0.018	0.01
6c0c	6cd7	2018	2018	0.0	0.019	0.0	0.006
6c0c	6cd7	2019	2019	0.37	0.458	0.391	0.521
6c0c	6cd7	2020	2020	0.349	0.363	0.4	0.429
6c0c	6cd7	2021	2021	0.484	0.484	0.497	0.51
6c0c	6cd7	2022	2022	0.0	0.0	0.0	0.0
6c0c	6cd7	2023	2023	0.0	0.0	0.0	0.0
6c0c	6cd7	2024	2024	0.442	0.448	0.462	0.721
6c0c	6cd7	2025	2025	0.647	0.669	0.647	0.669
6c0c	6cd7	2026	2026	0.153	0.158	0.149	0.152
6c0c	6cd7	2027	2027	0.0	0.0	0.0	0.0
6c0c	6cd7	2028	2028	0.576	0.569	0.509	0.594
6c0c	6cd7	2029	2029	0.376	0.397	0.421	0.385
6c0c	6cd7	2030	2030	0.534	0.562	0.563	0.517
6c0c	6cd7	2031	2031	0.409	0.327	0.33	0.379
6c0c	6cd7	2032	2032	0.167	0.149	0.139	0.12
6c0c	6cd7	2033	2033	0.86	0.844	0.86	0.844
6c0c	6cd7	2034	2034	1.0	0	1.0	0
6c0c	6cd7	2035	2035	0.112	0.084	0.125	0.176
6c0c	6cd7	2036	2036	0.658	0.688	0.65	0.629
6c0c	6cd7	2037	2037	0.0	0.0	0.0	0.0
6c0c	6cd7	2038	2038	0.014	0.017	0.03	0.038
6c0c	6cd7	2039	2039	0.03	0.03	0.028	0.028
6c0c	6cd7	2040	2040	0.161	0.158	0.166	0.155
6c0c	6cd7	2041	2041	0.316	0.275	0.32	0.295
6c0c	6cd7	2042	2042	0.867	0.882	0.867	0.882
6c0c	6cd7	2043	2043	0.434	0.482	0.365	0.196
6c0c	6cd7	2044	2044	0.273	0.203	0.219	0.161
6c0c	6cd7	2045	2045	0.0	0.002	0.0	0.008
6c0c	6cd7	2046	2046	0.0	0.002	0.0	0.005
6c0c	6cd7	2047	2047	0.106	0.171	0.113	0.184
6c0c	6cd7	2048	2048	0.0	0.0	0.0	0.008
6c0c	6cd7	2049	2049	0.257	0.268	0.22	0.222
6c0c	6cd7	2050	2050	0.6	0.6	0.6	0.6
6c0c	6cd7	2051	2051	0.149	0.16	0.149	0.16
6c0c	6cd7	2052	2052	0.0	0.0	0.0	0.0
6c0c	6cd7	2053	2053	0.053	0.065	0.068	0.081
6c0c	6cd7	2054	2054	0.084	0.074	0.046	0.083
6c0c	6cd7	2055	2055	0.512	0.594	0.498	0.492
6c0c	6cd7	2056	2056	0.48	0.586	0.475	0.568
6c0c	6cd7	2057	2057	0.008	0.013	0.008	0.013
6c0c	6cd7	2058	2058	0.0	0.002	0.0	0.002
6c0c	6cd7	2059	2059	0.247	0.237	0.237	0.191
6c0c	6cd7	2060	2060	0.0	0.0	0.0	0.0
6c0c	6cd7	2061	2061	0.765	0.797	0.765	0.797
6c0c	6cd7	2062	2062	0.0	0.016	0.0	0.0
6c0c	6cd7	2063	2063	0.0	0.002	0.0	0.0
6c0c	6cd7	2064	2064	0.704	0.796	0.765	0.719
6c0c	6cd7	2065	2065	0.631	0.631	0.631	0.631
6c0c	6cd7	2066	2066	0.0	0.0	0.0	0.011
6c0c	6cd7	2067	2067	0.183	0.22	0.183	0.22
6c0c	6cd7	2068	2068	0.0	0.0	0.0	0.003
6c0c	6cd7	2069	2069	0.617	0.601	0.617	0.601
6c0c	6cd7	2070	2070	0.717	0.828	0.717	0.828
6c0c	6cd7	2071	2071	0.02	0.019	0.06	0.084
6c0c	6cd7	2072	2072	0.577	0.624	0.524	0.572
6c0c	6cd7	2073	2073	0.673	0.674	0.633	0.545
6c0c	6cd7	2074	2074	0.836	0.886	0.802	0.885
6c0c	6cd7	2075	2075	0.104	0.095	0.117	0.142
6c0c	6cd7	2076	2076	0.0	0.0	0.0	0.0
6c0c	6cd7	2077	2077	0.0	0.0	0.0	0.0
6c0c	6cd7	2078	2078	0.17	0.157	0.163	0.297
6c0c	6cd7	2079	2079	0.494	0.673	0.456	0.481
6c0c	6cd7	2080	2080	0.242	0.252	0.243	0.252
6c0c	6cd7	2081	2081	0.0	0.0	0.0	0.0
6c0c	6cd7	2082	2082	0.265	0.248	0.265	0.248
6c0c	6cd7	2083	2083	0.456	0.476	0.456	0.476
6c0c	6cd7	2084	2084	0.769	0.867	0.769	0.867
6c0c	6cd7	2085	2085	0.0	0.0	0.0	0.0
6c0c	6cd7	2086	2086	0.0	0.0	0.0	0.0
6c0c	6cd7	2087	2087	0.054	0.064	0.033	0.014
6c0c	6cd7	2088	2088	0.325	0.245	0.273	0.268
6c0c	6cd7	2089	2089	0.0	0.0	0.0	0.0
6c0c	6cd7	2090	2090	0.34	0.431	0.325	0.428
6c0c	6cd7	2091	2091	0.71	0.674	0.71	0.674
6c0c	6cd7	2092	2092	0.666	0.683	0.675	0.692
6c0c	6cd7	2093	2093	0.0	0.0	0.0	0.0
6c0c	6cd7	2094	2094	0.0	0.013	0.0	0.016
6c0c	6cd7	2095	2095	0.013	0.02	0.028	0.032
6c0c	6cd7	2096	2096	0.241	0.21	0.267	0.249
6c0c	6cd7	2097	2097	0.203	0.283	0.196	0.287
6c0c	6cd7	2098	2098	0.333	0.364	0.322	0.294
6c0c	6cd7	2099	2099	0.0	0.0	0.0	0.0
6c0c	6cd7	2100	2100	0.0	0.0	0.0	0.0
6c0c	6cd7	2101	2101	0.869	0.763	0.852	0.726
6c0c	6cd7	2102	2102	0.318	0.325	0.32	0.299
6c0c	6cd7	2103	2103	0.053	0.066	0.062	0.064
6c0c	6cd7	2104	2104	0.0	0.0	0.0	0.0
6c0c	6cd7	2105	2105	0.0	0.0	0.0	0.011
6c0c	6cd7	2106	2106	0.098	0.158	0.085	0.201
6c0c	6cd7	2107	2107	0.347	0.238	0.405	0.398
6c0c	6cd7	2108	2108	0.388	0.448	0.34	0.271
6c0c	6cd7	2109	2109	0.026	0.003	0.044	0.0
6c0c	6cd7	2110	2110	0.0	0.0	0.0	0.0
6c0c	6cd7	2111	2111	0.583	0.661	0.608	0.599
6c0c	6cd7	2112	2112	0.743	0.768	0.743	0.768
6c0c	6cd7	2113	2113	0.029	0.034	0.033	0.029
6c0c	6cd7	2114	2114	0.521	0.388	0.581	0.411
6c0c	6cd7	2115	2115	0.581	0.642	0.581	0.642
6c0c	6cd7	2116	2116	0.128	0.122	0.126	0.137
6c0c	6cd7	2117	2117	0.615	0.762	0.618	0.447
6c0c	6cd7	2118	2118	0.488	0.581	0.471	0.581
6c0c	6cd7	2119	2119	0.654	0.612	0.607	0.623
6c0c	6cd7	2120	2120	0.751	0.889	0.751	0.889
6c0c	6cd7	2121	2121	0.879	0.776	0.909	1.0
6c0c	6cd7	2122	2122	0.07	0.053	0.026	0.024
6c0c	6cd7	2123	2123	0.017	0.031	0.027	0.024
6c0c	6cd7	2124	2124	0.448	0.535	0.448	0.535
6c0c	6cd7	2125	2125	0.277	0.363	0.278	0.288
6c0c	6cd7	2126	2126	0.0	0.0	0.0	0.0
6c0c	6cd7	2127	2127	0.0	0.0	0.0	0.0
6c0c	6cd7	2128	2128	0.057	0.127	0.038	0.071
6c0c	6cd7	2129	2129	0.383	0.402	0.418	0.418
6c0c	6cd7	2130	2130	0.163	0.193	0.148	0.159
6c0c	6cd7	2131	2131	0.054	0.067	0.054	0.067
6c0c	6cd7	2132	2132	0.0	0.0	0.0	0.0
6c0c	6cd7	2133	2133	0.0	0.0	0.0	0.0
6c0c	6cd7	2134	2134	0.287	0.402	0.309	0.284
6c0c	6cd7	2135	2135	0.097	0.047	0.114	0.104
6c0c	6cd7	2136	2136	0.337	0.582	0.316	0.399
6c0c	6cd7	2137	2137	0.0	0.002	0.0	0.0
6c0c	6cd7	2138	2138	0.112	0.172	0.136	0.145
6c0c	6cd7	2139	2139	0.014	0.024	0.016	0.016
6c0c	6cd7	2140	2140	0.153	0.177	0.162	0.219
6c0c	6cd7	2141	2141	0.262	0.356	0.256	0.451
6c0c	6cd7	2142	2142	0.0	0.0	0.0	0.0
6c0c	6cd7	2143	2143	0.0	0.0	0.0	0.0
6c0c	6cd7	2144	2144	0.953	0.867	0.953	0.867
6c0c	6cd7	2145	2145	0.827	0.913	0.827	0.913
6c0c	6cd7	2147	2147	0.0	0.0	0.0	0.0
6c0c	6cd7	2148	2148	0.049	0.253	0.056	0.087
6c0c	6cd7	2149	2149	0.0	0.031	0.0	0.111
6c0c	6cd7	2150	2150	0.119	0.166	0.147	0.178
6c0c	6cd7	2151	2151	0.226	0.326	0.262	0.218
6c0c	6cd7	2152	2152	0.006	0.025	0.0	0.027
6c0c	6cd7	2153	2153	0.525	0.537	0.561	0.588
6c0c	6cd7	2154	2154	0.037	0.02	0.041	0.03
6c0c	6cd7	2155	2155	0.787	0.72	0.809	0.738
6c0c	6cd7	2156	2156	0.576	0.597	0.576	0.597
6c0c	6cd7	2157	2157	0.833	0.592	0.823	0.921
6c0c	6cd7	2158	2158	0.314	0.3	0.276	0.425
6c0c	6cd7	2159	2159	0.582	0.583	0.582	0.583
6c0c	6cd7	2160	2160	0.967	0.867	0.967	0.867
6c0c	6cd7	2161	2161	0.58	0.478	0.525	0.82
6c0c	6cd7	2163	2163	0.501	0.571	0.498	0.666
6c0c	6cd7	2164	2164	1.0	0	1.0	0
6c0c	6cd7	2165	2165	1.0	0	1.0	0
6c0c	6cd7	2166	2166	0.0	0.0	0.0	0.0
6c0c	6cd7	2167	2167	0.289	0.382	0.274	0.336
6c0c	6cd7	2168	2168	0.341	0.512	0.328	0.641
6c0c	6cd7	2169	2169	0.509	0.739	0.503	0.56
6c0c	6cd7	2170	2170	0.32	0.356	0.332	0.342
6c0c	6cd7	2171	2171	0.745	0.714	0.763	0.811
6c0c	6cd7	2172	2172	0.592	0.725	0.557	0.472
6c0c	6cd7	2173	2173	0.21	0.141	0.227	0.455
6c0c	6cd7	2175	2175	1.0	0	1.0	0
6c0c	6cd7	2176	2176	0.0	0.0	0.007	0.007
6c0c	6cd7	2177	2177	0.457	0.567	0.434	0.44
6c0c	6cd7	2179	2179	0.9	0.943	0.9	0.943
6c0c	6cd7	2180	2180	0.171	0.192	0.138	0.147
6c0c	6cd7	2181	2181	0.8	0.823	0.776	0.884
6c0c	6cd7	2183	2183	0.0	0.0	0.0	0.0
6c0c	6cd7	2184	2184	0.41	0.397	0.392	0.438
6c0c	6cd7	2185	2185	0.0	0.0	0.0	0.001
6c0c	6cd7	2186	2186	0.074	0.05	0.067	0.036
6c0c	6cd7	2187	2187	0.123	0.15	0.152	0.171
6c0c	6cd7	2188	2188	0.541	0.54	0.553	0.524
6c0c	6cd7	2189	2189	0.018	0.016	0.029	0.031
6c0c	6cd7	2190	2190	0.0	0.0	0.0	0.0
6c0c	6cd7	2191	2191	0.0	0.0	0.0	0.0
6c0c	6cd7	2192	2192	0.095	0.135	0.081	0.071
6c0c	6cd7	2193	2193	0.8	0.8	0.8	0.8
6c0c	6cd7	2195	2195	0.0	0.0	0.0	0.0
6c0c	6cd7	2196	2196	0.0	0.0	0.0	0.0
6c0c	6cd7	2198	2198	0.312	0.285	0.278	0.431
6c0c	6cd7	2199	2199	0.031	0.04	0.03	0.055
6c0c	6cd7	2200	2200	0.031	0.158	0.052	0.137
6c0c	6cd7	2201	2201	0.042	0.042	0.012	0.013
6c0c	6cd7	2202	2202	0.0	0.001	0.0	0.045
6c0c	6cd7	2203	2203	0.098	0.112	0.092	0.112
6c0c	6cd7	2204	2204	0.033	0.095	0.02	0.094
6c0c	6cd7	2205	2205	0.321	0.587	0.277	0.463
6c0c	6cd7	2207	2207	0.041	0.066	0.031	0.056
6c0c	6cd7	2208	2208	0.232	0.271	0.277	0.315
6c0c	6cd7	2209	2209	0.033	0.04	0.021	0.029
